%!PS-Adobe-3.0 EPSF-3.0
%%Title: ComparisonBoth100.eps
%%Creator: matplotlib version 1.4.3, http://matplotlib.org/
%%CreationDate: Sun Dec 13 23:43:54 2015
%%Orientation: portrait
%%BoundingBox: 90 252 522 540
%%EndComments
%%BeginProlog
/mpldict 8 dict def
mpldict begin
/m { moveto } bind def
/l { lineto } bind def
/r { rlineto } bind def
/c { curveto } bind def
/cl { closepath } bind def
/box {
m
1 index 0 r
0 exch r
neg 0 r
cl
} bind def
/clipbox {
box
clip
newpath
} bind def
%!PS-Adobe-3.0 Resource-Font
%%Title: Bitstream Vera Sans
%%Copyright: Copyright (c) 2003 by Bitstream, Inc. All Rights Reserved.
%%Creator: Converted from TrueType to type 3 by PPR
25 dict begin
/_d{bind def}bind def
/_m{moveto}_d
/_l{lineto}_d
/_cl{closepath eofill}_d
/_c{curveto}_d
/_sc{7 -1 roll{setcachedevice}{pop pop pop pop pop pop}ifelse}_d
/_e{exec}_d
/FontName /BitstreamVeraSans-Roman def
/PaintType 0 def
/FontMatrix[.001 0 0 .001 0 0]def
/FontBBox[-183 -236 1287 928]def
/FontType 3 def
/Encoding [ /space /parenleft /parenright /zero /one /two /three /four /five /six /B /I /J /M /O /R /T /a /c /d /e /g /i /l /m /n /o /p /r /s /t /v /y /minus ] def
/FontInfo 10 dict dup begin
/FamilyName (Bitstream Vera Sans) def
/FullName (Bitstream Vera Sans) def
/Notice (Copyright (c) 2003 by Bitstream, Inc. All Rights Reserved. Bitstream Vera is a trademark of Bitstream, Inc.) def
/Weight (Roman) def
/Version (Release 1.10) def
/ItalicAngle 0.0 def
/isFixedPitch false def
/UnderlinePosition -213 def
/UnderlineThickness 143 def
end readonly def
/CharStrings 34 dict dup begin
/space{318 0 0 0 0 0 _sc
}_d
/parenleft{390 0 86 -131 310 759 _sc
310 759 _m
266 683 234 609 213 536 _c
191 463 181 389 181 314 _c
181 238 191 164 213 91 _c
234 17 266 -56 310 -131 _c
232 -131 _l
183 -54 146 20 122 94 _c
98 168 86 241 86 314 _c
86 386 98 459 122 533 _c
146 607 182 682 232 759 _c
310 759 _l
_cl}_d
/parenright{390 0 80 -131 304 759 _sc
80 759 _m
158 759 _l
206 682 243 607 267 533 _c
291 459 304 386 304 314 _c
304 241 291 168 267 94 _c
243 20 206 -54 158 -131 _c
80 -131 _l
123 -56 155 17 177 91 _c
198 164 209 238 209 314 _c
209 389 198 463 177 536 _c
155 609 123 683 80 759 _c
_cl}_d
/zero{636 0 66 -13 570 742 _sc
318 664 _m
267 664 229 639 203 589 _c
177 539 165 464 165 364 _c
165 264 177 189 203 139 _c
229 89 267 64 318 64 _c
369 64 407 89 433 139 _c
458 189 471 264 471 364 _c
471 464 458 539 433 589 _c
407 639 369 664 318 664 _c
318 742 _m
399 742 461 709 505 645 _c
548 580 570 486 570 364 _c
570 241 548 147 505 83 _c
461 19 399 -13 318 -13 _c
236 -13 173 19 130 83 _c
87 147 66 241 66 364 _c
66 486 87 580 130 645 _c
173 709 236 742 318 742 _c
_cl}_d
/one{636 0 110 0 544 729 _sc
124 83 _m
285 83 _l
285 639 _l
110 604 _l
110 694 _l
284 729 _l
383 729 _l
383 83 _l
544 83 _l
544 0 _l
124 0 _l
124 83 _l
_cl}_d
/two{{636 0 73 0 536 742 _sc
192 83 _m
536 83 _l
536 0 _l
73 0 _l
73 83 _l
110 121 161 173 226 239 _c
290 304 331 346 348 365 _c
380 400 402 430 414 455 _c
426 479 433 504 433 528 _c
433 566 419 598 392 622 _c
365 646 330 659 286 659 _c
255 659 222 653 188 643 _c
154 632 117 616 78 594 _c
78 694 _l
118 710 155 722 189 730 _c
223 738 255 742 284 742 _c
}_e{359 742 419 723 464 685 _c
509 647 532 597 532 534 _c
532 504 526 475 515 449 _c
504 422 484 390 454 354 _c
446 344 420 317 376 272 _c
332 227 271 164 192 83 _c
_cl}_e}_d
/three{{636 0 76 -13 556 742 _sc
406 393 _m
453 383 490 362 516 330 _c
542 298 556 258 556 212 _c
556 140 531 84 482 45 _c
432 6 362 -13 271 -13 _c
240 -13 208 -10 176 -4 _c
144 1 110 10 76 22 _c
76 117 _l
103 101 133 89 166 81 _c
198 73 232 69 268 69 _c
330 69 377 81 409 105 _c
441 129 458 165 458 212 _c
458 254 443 288 413 312 _c
383 336 341 349 287 349 _c
}_e{202 349 _l
202 430 _l
291 430 _l
339 430 376 439 402 459 _c
428 478 441 506 441 543 _c
441 580 427 609 401 629 _c
374 649 336 659 287 659 _c
260 659 231 656 200 650 _c
169 644 135 635 98 623 _c
98 711 _l
135 721 170 729 203 734 _c
235 739 266 742 296 742 _c
370 742 429 725 473 691 _c
517 657 539 611 539 553 _c
539 513 527 479 504 451 _c
481 423 448 403 406 393 _c
_cl}_e}_d
/four{636 0 49 0 580 729 _sc
378 643 _m
129 254 _l
378 254 _l
378 643 _l
352 729 _m
476 729 _l
476 254 _l
580 254 _l
580 172 _l
476 172 _l
476 0 _l
378 0 _l
378 172 _l
49 172 _l
49 267 _l
352 729 _l
_cl}_d
/five{{636 0 77 -13 549 729 _sc
108 729 _m
495 729 _l
495 646 _l
198 646 _l
198 467 _l
212 472 227 476 241 478 _c
255 480 270 482 284 482 _c
365 482 429 459 477 415 _c
525 370 549 310 549 234 _c
549 155 524 94 475 51 _c
426 8 357 -13 269 -13 _c
238 -13 207 -10 175 -6 _c
143 -1 111 6 77 17 _c
77 116 _l
106 100 136 88 168 80 _c
199 72 232 69 267 69 _c
}_e{323 69 368 83 401 113 _c
433 143 450 183 450 234 _c
450 284 433 324 401 354 _c
368 384 323 399 267 399 _c
241 399 214 396 188 390 _c
162 384 135 375 108 363 _c
108 729 _l
_cl}_e}_d
/six{{636 0 70 -13 573 742 _sc
330 404 _m
286 404 251 388 225 358 _c
199 328 186 286 186 234 _c
186 181 199 139 225 109 _c
251 79 286 64 330 64 _c
374 64 409 79 435 109 _c
461 139 474 181 474 234 _c
474 286 461 328 435 358 _c
409 388 374 404 330 404 _c
526 713 _m
526 623 _l
501 635 476 644 451 650 _c
425 656 400 659 376 659 _c
310 659 260 637 226 593 _c
}_e{192 549 172 482 168 394 _c
187 422 211 444 240 459 _c
269 474 301 482 336 482 _c
409 482 467 459 509 415 _c
551 371 573 310 573 234 _c
573 159 550 99 506 54 _c
462 9 403 -13 330 -13 _c
246 -13 181 19 137 83 _c
92 147 70 241 70 364 _c
70 479 97 571 152 639 _c
206 707 280 742 372 742 _c
396 742 421 739 447 735 _c
472 730 498 723 526 713 _c
_cl}_e}_d
/B{{686 0 98 0 615 729 _sc
197 348 _m
197 81 _l
355 81 _l
408 81 447 92 473 114 _c
498 136 511 169 511 215 _c
511 260 498 293 473 315 _c
447 337 408 348 355 348 _c
197 348 _l
197 648 _m
197 428 _l
343 428 _l
391 428 426 437 450 455 _c
474 473 486 500 486 538 _c
486 574 474 602 450 620 _c
426 638 391 648 343 648 _c
197 648 _l
98 729 _m
350 729 _l
}_e{425 729 483 713 524 682 _c
564 650 585 606 585 549 _c
585 504 574 468 553 442 _c
532 416 502 399 462 393 _c
510 382 548 360 575 327 _c
601 294 615 253 615 204 _c
615 138 592 88 548 53 _c
504 17 441 0 360 0 _c
98 0 _l
98 729 _l
_cl}_e}_d
/I{295 0 98 0 197 729 _sc
98 729 _m
197 729 _l
197 0 _l
98 0 _l
98 729 _l
_cl}_d
/J{295 0 -51 -199 197 729 _sc
98 729 _m
197 729 _l
197 51 _l
197 -36 180 -99 147 -139 _c
113 -179 60 -199 -13 -199 _c
-51 -199 _l
-51 -116 _l
-20 -116 _l
22 -116 53 -103 71 -79 _c
89 -55 98 -11 98 51 _c
98 729 _l
_cl}_d
/M{863 0 98 0 765 729 _sc
98 729 _m
245 729 _l
431 233 _l
618 729 _l
765 729 _l
765 0 _l
669 0 _l
669 640 _l
481 140 _l
382 140 _l
194 640 _l
194 0 _l
98 0 _l
98 729 _l
_cl}_d
/O{787 0 56 -13 731 742 _sc
394 662 _m
322 662 265 635 223 582 _c
181 528 160 456 160 364 _c
160 272 181 199 223 146 _c
265 92 322 66 394 66 _c
465 66 522 92 564 146 _c
606 199 627 272 627 364 _c
627 456 606 528 564 582 _c
522 635 465 662 394 662 _c
394 742 _m
496 742 577 707 639 639 _c
700 571 731 479 731 364 _c
731 248 700 157 639 89 _c
577 21 496 -13 394 -13 _c
291 -13 209 21 148 89 _c
86 157 56 248 56 364 _c
56 479 86 571 148 639 _c
209 707 291 742 394 742 _c
_cl}_d
/R{{695 0 98 0 666 729 _sc
444 342 _m
465 334 486 319 506 296 _c
526 272 546 240 566 199 _c
666 0 _l
560 0 _l
467 187 _l
443 235 419 268 397 284 _c
374 300 343 308 304 308 _c
197 308 _l
197 0 _l
98 0 _l
98 729 _l
321 729 _l
404 729 466 711 507 677 _c
548 642 569 589 569 519 _c
569 473 558 434 537 404 _c
515 374 484 353 444 342 _c
197 648 _m
197 389 _l
321 389 _l
}_e{368 389 404 400 428 422 _c
452 444 465 476 465 519 _c
465 561 452 593 428 615 _c
404 637 368 648 321 648 _c
197 648 _l
_cl}_e}_d
/T{611 0 -2 0 614 729 _sc
-2 729 _m
614 729 _l
614 646 _l
355 646 _l
355 0 _l
256 0 _l
256 646 _l
-2 646 _l
-2 729 _l
_cl}_d
/a{{613 0 60 -13 522 560 _sc
343 275 _m
270 275 220 266 192 250 _c
164 233 150 205 150 165 _c
150 133 160 107 181 89 _c
202 70 231 61 267 61 _c
317 61 357 78 387 114 _c
417 149 432 196 432 255 _c
432 275 _l
343 275 _l
522 312 _m
522 0 _l
432 0 _l
432 83 _l
411 49 385 25 355 10 _c
325 -5 287 -13 243 -13 _c
187 -13 142 2 109 33 _c
76 64 60 106 60 159 _c
}_e{60 220 80 266 122 298 _c
163 329 224 345 306 345 _c
432 345 _l
432 354 _l
432 395 418 427 391 450 _c
364 472 326 484 277 484 _c
245 484 215 480 185 472 _c
155 464 127 453 100 439 _c
100 522 _l
132 534 164 544 195 550 _c
226 556 256 560 286 560 _c
365 560 424 539 463 498 _c
502 457 522 395 522 312 _c
_cl}_e}_d
/c{{550 0 55 -13 488 560 _sc
488 526 _m
488 442 _l
462 456 437 466 411 473 _c
385 480 360 484 334 484 _c
276 484 230 465 198 428 _c
166 391 150 339 150 273 _c
150 206 166 154 198 117 _c
230 80 276 62 334 62 _c
360 62 385 65 411 72 _c
437 79 462 90 488 104 _c
488 21 _l
462 9 436 0 410 -5 _c
383 -10 354 -13 324 -13 _c
242 -13 176 12 128 64 _c
}_e{79 115 55 185 55 273 _c
55 362 79 432 128 483 _c
177 534 244 560 330 560 _c
358 560 385 557 411 551 _c
437 545 463 537 488 526 _c
_cl}_e}_d
/d{{635 0 55 -13 544 760 _sc
454 464 _m
454 760 _l
544 760 _l
544 0 _l
454 0 _l
454 82 _l
435 49 411 25 382 10 _c
353 -5 319 -13 279 -13 _c
213 -13 159 13 117 65 _c
75 117 55 187 55 273 _c
55 359 75 428 117 481 _c
159 533 213 560 279 560 _c
319 560 353 552 382 536 _c
411 520 435 496 454 464 _c
148 273 _m
148 207 161 155 188 117 _c
215 79 253 61 301 61 _c
}_e{348 61 385 79 413 117 _c
440 155 454 207 454 273 _c
454 339 440 390 413 428 _c
385 466 348 485 301 485 _c
253 485 215 466 188 428 _c
161 390 148 339 148 273 _c
_cl}_e}_d
/e{{615 0 55 -13 562 560 _sc
562 296 _m
562 252 _l
149 252 _l
153 190 171 142 205 110 _c
238 78 284 62 344 62 _c
378 62 412 66 444 74 _c
476 82 509 95 541 113 _c
541 28 _l
509 14 476 3 442 -3 _c
408 -9 373 -13 339 -13 _c
251 -13 182 12 131 62 _c
80 112 55 181 55 268 _c
55 357 79 428 127 481 _c
175 533 241 560 323 560 _c
397 560 455 536 498 489 _c
}_e{540 441 562 377 562 296 _c
472 322 _m
471 371 457 410 431 440 _c
404 469 368 484 324 484 _c
274 484 234 469 204 441 _c
174 413 156 373 152 322 _c
472 322 _l
_cl}_e}_d
/g{{635 0 55 -207 544 560 _sc
454 280 _m
454 344 440 395 414 431 _c
387 467 349 485 301 485 _c
253 485 215 467 188 431 _c
161 395 148 344 148 280 _c
148 215 161 165 188 129 _c
215 93 253 75 301 75 _c
349 75 387 93 414 129 _c
440 165 454 215 454 280 _c
544 68 _m
544 -24 523 -93 482 -139 _c
440 -184 377 -207 292 -207 _c
260 -207 231 -204 203 -200 _c
175 -195 147 -188 121 -178 _c
}_e{121 -91 _l
147 -105 173 -115 199 -122 _c
225 -129 251 -133 278 -133 _c
336 -133 380 -117 410 -87 _c
439 -56 454 -10 454 52 _c
454 96 _l
435 64 411 40 382 24 _c
353 8 319 0 279 0 _c
211 0 157 25 116 76 _c
75 127 55 195 55 280 _c
55 364 75 432 116 483 _c
157 534 211 560 279 560 _c
319 560 353 552 382 536 _c
411 520 435 496 454 464 _c
454 547 _l
544 547 _l
}_e{544 68 _l
_cl}_e}_d
/i{278 0 94 0 184 760 _sc
94 547 _m
184 547 _l
184 0 _l
94 0 _l
94 547 _l
94 760 _m
184 760 _l
184 646 _l
94 646 _l
94 760 _l
_cl}_d
/l{278 0 94 0 184 760 _sc
94 760 _m
184 760 _l
184 0 _l
94 0 _l
94 760 _l
_cl}_d
/m{{974 0 91 0 889 560 _sc
520 442 _m
542 482 569 511 600 531 _c
631 550 668 560 711 560 _c
767 560 811 540 842 500 _c
873 460 889 403 889 330 _c
889 0 _l
799 0 _l
799 327 _l
799 379 789 418 771 444 _c
752 469 724 482 686 482 _c
639 482 602 466 575 435 _c
548 404 535 362 535 309 _c
535 0 _l
445 0 _l
445 327 _l
445 379 435 418 417 444 _c
398 469 369 482 331 482 _c
}_e{285 482 248 466 221 435 _c
194 404 181 362 181 309 _c
181 0 _l
91 0 _l
91 547 _l
181 547 _l
181 462 _l
201 495 226 520 255 536 _c
283 552 317 560 357 560 _c
397 560 430 550 458 530 _c
486 510 506 480 520 442 _c
_cl}_e}_d
/n{634 0 91 0 549 560 _sc
549 330 _m
549 0 _l
459 0 _l
459 327 _l
459 379 448 417 428 443 _c
408 469 378 482 338 482 _c
289 482 251 466 223 435 _c
195 404 181 362 181 309 _c
181 0 _l
91 0 _l
91 547 _l
181 547 _l
181 462 _l
202 494 227 519 257 535 _c
286 551 320 560 358 560 _c
420 560 468 540 500 501 _c
532 462 549 405 549 330 _c
_cl}_d
/o{612 0 55 -13 557 560 _sc
306 484 _m
258 484 220 465 192 427 _c
164 389 150 338 150 273 _c
150 207 163 156 191 118 _c
219 80 257 62 306 62 _c
354 62 392 80 420 118 _c
448 156 462 207 462 273 _c
462 337 448 389 420 427 _c
392 465 354 484 306 484 _c
306 560 _m
384 560 445 534 490 484 _c
534 433 557 363 557 273 _c
557 183 534 113 490 63 _c
445 12 384 -13 306 -13 _c
227 -13 165 12 121 63 _c
77 113 55 183 55 273 _c
55 363 77 433 121 484 _c
165 534 227 560 306 560 _c
_cl}_d
/p{{635 0 91 -207 580 560 _sc
181 82 _m
181 -207 _l
91 -207 _l
91 547 _l
181 547 _l
181 464 _l
199 496 223 520 252 536 _c
281 552 316 560 356 560 _c
422 560 476 533 518 481 _c
559 428 580 359 580 273 _c
580 187 559 117 518 65 _c
476 13 422 -13 356 -13 _c
316 -13 281 -5 252 10 _c
223 25 199 49 181 82 _c
487 273 _m
487 339 473 390 446 428 _c
418 466 381 485 334 485 _c
}_e{286 485 249 466 222 428 _c
194 390 181 339 181 273 _c
181 207 194 155 222 117 _c
249 79 286 61 334 61 _c
381 61 418 79 446 117 _c
473 155 487 207 487 273 _c
_cl}_e}_d
/r{411 0 91 0 411 560 _sc
411 463 _m
401 469 390 473 378 476 _c
366 478 353 480 339 480 _c
288 480 249 463 222 430 _c
194 397 181 350 181 288 _c
181 0 _l
91 0 _l
91 547 _l
181 547 _l
181 462 _l
199 495 224 520 254 536 _c
284 552 321 560 365 560 _c
371 560 378 559 386 559 _c
393 558 401 557 411 555 _c
411 463 _l
_cl}_d
/s{{521 0 54 -13 472 560 _sc
443 531 _m
443 446 _l
417 458 391 468 364 475 _c
336 481 308 485 279 485 _c
234 485 200 478 178 464 _c
156 450 145 430 145 403 _c
145 382 153 366 169 354 _c
185 342 217 330 265 320 _c
296 313 _l
360 299 405 279 432 255 _c
458 230 472 195 472 151 _c
472 100 452 60 412 31 _c
372 1 316 -13 246 -13 _c
216 -13 186 -10 154 -5 _c
}_e{122 0 89 8 54 20 _c
54 113 _l
87 95 120 82 152 74 _c
184 65 216 61 248 61 _c
290 61 323 68 346 82 _c
368 96 380 117 380 144 _c
380 168 371 187 355 200 _c
339 213 303 226 247 238 _c
216 245 _l
160 257 119 275 95 299 _c
70 323 58 356 58 399 _c
58 450 76 490 112 518 _c
148 546 200 560 268 560 _c
301 560 332 557 362 552 _c
391 547 418 540 443 531 _c
}_e{_cl}_e}_d
/t{392 0 27 0 368 702 _sc
183 702 _m
183 547 _l
368 547 _l
368 477 _l
183 477 _l
183 180 _l
183 135 189 106 201 94 _c
213 81 238 75 276 75 _c
368 75 _l
368 0 _l
276 0 _l
206 0 158 13 132 39 _c
106 65 93 112 93 180 _c
93 477 _l
27 477 _l
27 547 _l
93 547 _l
93 702 _l
183 702 _l
_cl}_d
/v{592 0 30 0 562 547 _sc
30 547 _m
125 547 _l
296 88 _l
467 547 _l
562 547 _l
357 0 _l
235 0 _l
30 547 _l
_cl}_d
/y{592 0 30 -207 562 547 _sc
322 -50 _m
296 -114 271 -157 247 -177 _c
223 -197 191 -207 151 -207 _c
79 -207 _l
79 -132 _l
132 -132 _l
156 -132 175 -126 189 -114 _c
203 -102 218 -75 235 -31 _c
251 9 _l
30 547 _l
125 547 _l
296 119 _l
467 547 _l
562 547 _l
322 -50 _l
_cl}_d
/minus{838 0 106 272 732 355 _sc
106 355 _m
732 355 _l
732 272 _l
106 272 _l
106 355 _l
_cl}_d
end readonly def

/BuildGlyph
 {exch begin
 CharStrings exch
 2 copy known not{pop /.notdef}if
 true 3 1 roll get exec
 end}_d

/BuildChar {
 1 index /Encoding get exch get
 1 index /BuildGlyph get exec
}_d

FontName currentdict end definefont pop
end
%%EndProlog
mpldict begin
90 252 translate
432 288 0 0 clipbox
gsave
0 0 m
432 0 l
432 288 l
0 288 l
cl
1.000 setgray
fill
grestore
gsave
54 36 m
388.8 36 l
388.8 259.2 l
54 259.2 l
cl
1.000 setgray
fill
grestore
1.000 setlinewidth
1 setlinejoin
0 setlinecap
[1 3] 0 setdash
0.000 0.000 1.000 setrgbcolor
gsave
334.8 223.2 54 36 clipbox
54 228.163 m
65.16 228.163 l
76.32 228.163 l
87.48 228.163 l
98.64 228.163 l
109.8 228.163 l
120.96 228.163 l
132.12 228.163 l
143.28 227.878 l
154.44 223.042 l
165.6 194.865 l
176.76 184.325 l
187.92 178.231 l
199.08 168.778 l
210.24 152.607 l
221.4 142.055 l
232.56 131.027 l
243.72 122.732 l
254.88 115.093 l
266.04 110.726 l
277.2 105.999 l
288.36 102.32 l
299.52 98.5826 l
310.68 95.6032 l
321.84 93.342 l
333 90.345 l
344.16 88.1608 l
355.32 86.0901 l
366.48 84.52 l
377.64 82.8364 l
388.8 81.227 l
stroke
grestore
gsave
334.8 223.2 54 36 clipbox
54 228.163 m
65.16 219.061 l
76.32 208.484 l
87.48 198.302 l
98.64 189.248 l
109.8 182.454 l
120.96 176.132 l
132.12 171.98 l
143.28 160.871 l
154.44 143.963 l
165.6 122.706 l
176.76 113.07 l
187.92 103.738 l
199.08 97.6703 l
210.24 92.2127 l
221.4 87.5551 l
232.56 83.8667 l
243.72 80.6562 l
254.88 77.8853 l
266.04 75.5008 l
277.2 73.4498 l
288.36 71.3435 l
299.52 69.6303 l
310.68 68.087 l
321.84 66.8025 l
333 65.4918 l
344.16 64.3626 l
355.32 63.1866 l
366.48 62.3751 l
377.64 61.4861 l
388.8 60.674 l
stroke
grestore
gsave
334.8 223.2 54 36 clipbox
54 228.163 m
65.16 218.918 l
76.32 208.268 l
87.48 198.31 l
98.64 189.088 l
109.8 180.746 l
120.96 172.257 l
132.12 161.345 l
143.28 147.678 l
154.44 127.805 l
165.6 112.179 l
176.76 101.53 l
187.92 91.2516 l
199.08 85.7275 l
210.24 81.876 l
221.4 77.7949 l
232.56 75.2823 l
243.72 72.6318 l
254.88 70.5211 l
266.04 68.9925 l
277.2 67.3543 l
288.36 65.7759 l
299.52 64.6441 l
310.68 63.4948 l
321.84 62.6071 l
333 61.7439 l
344.16 60.7845 l
355.32 60.0608 l
366.48 59.2199 l
377.64 58.5656 l
388.8 57.6877 l
stroke
grestore
gsave
334.8 223.2 54 36 clipbox
54 228.163 m
65.16 218.931 l
76.32 208.266 l
87.48 198.296 l
98.64 189.045 l
109.8 180.827 l
120.96 172.341 l
132.12 161.428 l
143.28 147.555 l
154.44 127.114 l
165.6 116.497 l
176.76 108.14 l
187.92 99.8379 l
199.08 93.0484 l
210.24 87.6561 l
221.4 83.4376 l
232.56 80.0097 l
243.72 76.9106 l
254.88 73.7214 l
266.04 71.2918 l
277.2 69.0209 l
288.36 66.9972 l
299.52 65.2825 l
310.68 63.8431 l
321.84 62.6966 l
333 61.2697 l
344.16 60.3409 l
355.32 59.331 l
366.48 58.3603 l
377.64 57.3838 l
388.8 56.5288 l
stroke
grestore
gsave
334.8 223.2 54 36 clipbox
54 228.163 m
65.16 228.163 l
76.32 228.163 l
87.48 228.162 l
98.64 221.227 l
109.8 203.518 l
120.96 200.879 l
132.12 185.537 l
143.28 176.355 l
154.44 173.732 l
165.6 155.251 l
176.76 134.568 l
187.92 121.166 l
199.08 111.216 l
210.24 103.255 l
221.4 98.172 l
232.56 93.6231 l
243.72 89.7794 l
254.88 86.7801 l
266.04 83.3322 l
277.2 80.4488 l
288.36 78.245 l
299.52 75.9345 l
310.68 74.0047 l
321.84 72.2233 l
333 70.9411 l
344.16 69.5672 l
355.32 68.0875 l
366.48 67.1564 l
377.64 66.0876 l
388.8 65.1183 l
stroke
grestore
gsave
334.8 223.2 54 36 clipbox
54 228.163 m
65.16 228.163 l
76.32 228.163 l
87.48 228.163 l
98.64 228.163 l
109.8 210.118 l
120.96 200.861 l
132.12 183.471 l
143.28 172.881 l
154.44 166.901 l
165.6 157.806 l
176.76 141.475 l
187.92 125.923 l
199.08 115.84 l
210.24 106.647 l
221.4 100.794 l
232.56 95.9745 l
243.72 92.4211 l
254.88 88.7903 l
266.04 86.3448 l
277.2 83.5983 l
288.36 81.288 l
299.52 79.2297 l
310.68 76.9517 l
321.84 75.6411 l
333 73.9257 l
344.16 72.7959 l
355.32 71.452 l
366.48 70.1422 l
377.64 69.1578 l
388.8 68.0652 l
stroke
grestore
gsave
334.8 223.2 54 36 clipbox
54 228.163 m
65.16 228.163 l
76.32 228.163 l
87.48 228.163 l
98.64 228.163 l
109.8 210.221 l
120.96 200.73 l
132.12 183.327 l
143.28 173.275 l
154.44 166.856 l
165.6 157.478 l
176.76 141.828 l
187.92 125.253 l
199.08 113.29 l
210.24 105.728 l
221.4 99.6268 l
232.56 94.7237 l
243.72 90.4552 l
254.88 86.9632 l
266.04 84.052 l
277.2 81.6063 l
288.36 79.4612 l
299.52 77.5119 l
310.68 75.8965 l
321.84 74.3411 l
333 72.934 l
344.16 71.2501 l
355.32 70.1723 l
366.48 69.0861 l
377.64 67.8078 l
388.8 67.0786 l
stroke
grestore
gsave
334.8 223.2 54 36 clipbox
54 228.163 m
65.16 218.878 l
76.32 212.793 l
87.48 204.222 l
98.64 192.112 l
109.8 189.208 l
120.96 190.332 l
132.12 190.807 l
143.28 188.868 l
154.44 172.406 l
165.6 162.532 l
176.76 148.957 l
187.92 135.308 l
199.08 124.525 l
210.24 113.641 l
221.4 106.655 l
232.56 100.705 l
243.72 95.7929 l
254.88 91.8226 l
266.04 88.3677 l
277.2 85.5662 l
288.36 83.1592 l
299.52 80.8217 l
310.68 78.9502 l
321.84 77.2975 l
333 75.7433 l
344.16 74.2414 l
355.32 72.9025 l
366.48 71.6298 l
377.64 70.7432 l
388.8 69.589 l
stroke
grestore
gsave
334.8 223.2 54 36 clipbox
54 228.163 m
65.16 218.904 l
76.32 212.703 l
87.48 204.334 l
98.64 192.112 l
109.8 189.34 l
120.96 190.332 l
132.12 188.683 l
143.28 191.598 l
154.44 183.698 l
165.6 170.75 l
176.76 160.12 l
187.92 145.888 l
199.08 131.324 l
210.24 116.064 l
221.4 105.779 l
232.56 100.036 l
243.72 95.4571 l
254.88 91.8482 l
266.04 88.8309 l
277.2 86.3628 l
288.36 84.038 l
299.52 82.2527 l
310.68 80.3353 l
321.84 78.6026 l
333 77.2914 l
344.16 75.7446 l
355.32 74.4438 l
366.48 73.3217 l
377.64 72.1815 l
388.8 71.1532 l
stroke
grestore
gsave
334.8 223.2 54 36 clipbox
54 228.163 m
65.16 218.891 l
76.32 212.79 l
87.48 204.164 l
98.64 192.073 l
109.8 189.276 l
120.96 190.362 l
132.12 188.875 l
143.28 188.709 l
154.44 186.658 l
165.6 186.436 l
176.76 176.492 l
187.92 170.08 l
199.08 159.716 l
210.24 148.793 l
221.4 140.044 l
232.56 129.276 l
243.72 119.983 l
254.88 112.333 l
266.04 108.251 l
277.2 104.37 l
288.36 101.088 l
299.52 98.2364 l
310.68 95.9105 l
321.84 93.513 l
333 91.559 l
344.16 89.456 l
355.32 87.5848 l
366.48 86.2583 l
377.64 84.7365 l
388.8 83.3342 l
stroke
grestore
gsave
334.8 223.2 54 36 clipbox
54 228.163 m
65.16 228.163 l
76.32 228.163 l
87.48 228.163 l
98.64 228.163 l
109.8 228.163 l
120.96 228.163 l
132.12 228.163 l
143.28 228.163 l
154.44 228.149 l
165.6 201.401 l
176.76 195.058 l
187.92 189.017 l
199.08 182.259 l
210.24 173.997 l
221.4 158.804 l
232.56 143.218 l
243.72 128.297 l
254.88 119.812 l
266.04 113.667 l
277.2 108.85 l
288.36 104.939 l
299.52 101.61 l
310.68 98.9101 l
321.84 96.768 l
333 94.9197 l
344.16 92.7031 l
355.32 90.8991 l
366.48 89.261 l
377.64 88.0218 l
388.8 86.7418 l
stroke
grestore
gsave
334.8 223.2 54 36 clipbox
54 228.163 m
65.16 228.163 l
76.32 228.163 l
87.48 228.163 l
98.64 228.163 l
109.8 228.163 l
120.96 228.163 l
132.12 228.163 l
143.28 228.163 l
154.44 227.319 l
165.6 203.262 l
176.76 192.449 l
187.92 180.562 l
199.08 173.465 l
210.24 162.279 l
221.4 147.804 l
232.56 131.885 l
243.72 120.995 l
254.88 114.164 l
266.04 108.393 l
277.2 104.254 l
288.36 100.078 l
299.52 97.3133 l
310.68 94.5076 l
321.84 92.5105 l
333 90.2135 l
344.16 88.536 l
355.32 86.9755 l
366.48 85.1319 l
377.64 83.8434 l
388.8 82.3993 l
stroke
grestore
gsave
334.8 223.2 54 36 clipbox
54 228.163 m
65.16 219.038 l
76.32 208.453 l
87.48 198.399 l
98.64 189.262 l
109.8 182.526 l
120.96 176.265 l
132.12 171.755 l
143.28 160.766 l
154.44 136.609 l
165.6 114.557 l
176.76 104.94 l
187.92 95.6615 l
199.08 88.6791 l
210.24 84.8129 l
221.4 82.0604 l
232.56 79.6959 l
243.72 78.1828 l
254.88 76.7556 l
266.04 75.6611 l
277.2 74.6373 l
288.36 73.6993 l
299.52 72.8875 l
310.68 72.1251 l
321.84 71.5737 l
333 70.6793 l
344.16 70.2723 l
355.32 69.7497 l
366.48 69.2026 l
377.64 68.6575 l
388.8 68.3946 l
stroke
grestore
gsave
334.8 223.2 54 36 clipbox
54 228.163 m
65.16 218.936 l
76.32 208.308 l
87.48 198.298 l
98.64 189.242 l
109.8 182.634 l
120.96 176.246 l
132.12 171.748 l
143.28 160.982 l
154.44 136.573 l
165.6 117.854 l
176.76 107.782 l
187.92 97.2447 l
199.08 90.7332 l
210.24 86.4678 l
221.4 83.7914 l
232.56 81.7319 l
243.72 80.1343 l
254.88 78.6486 l
266.04 77.4101 l
277.2 76.1899 l
288.36 75.1288 l
299.52 74.1384 l
310.68 73.3196 l
321.84 72.647 l
333 71.8707 l
344.16 71.2715 l
355.32 70.5969 l
366.48 70.2369 l
377.64 69.6551 l
388.8 69.0685 l
stroke
grestore
gsave
334.8 223.2 54 36 clipbox
54 228.163 m
65.16 218.896 l
76.32 208.354 l
87.48 198.213 l
98.64 189.209 l
109.8 182.492 l
120.96 176.168 l
132.12 168.781 l
143.28 157.932 l
154.44 136.595 l
165.6 117.88 l
176.76 106.164 l
187.92 96.5927 l
199.08 90.3449 l
210.24 85.4092 l
221.4 81.7629 l
232.56 79.1804 l
243.72 77.3143 l
254.88 75.076 l
266.04 73.5368 l
277.2 72.1501 l
288.36 70.784 l
299.52 69.7183 l
310.68 68.596 l
321.84 67.7432 l
333 66.8744 l
344.16 66.159 l
355.32 65.3112 l
366.48 64.8423 l
377.64 64.1118 l
388.8 63.4665 l
stroke
grestore
gsave
334.8 223.2 54 36 clipbox
54 228.163 m
65.16 228.163 l
76.32 228.163 l
87.48 228.163 l
98.64 208.183 l
109.8 194.43 l
120.96 185.658 l
132.12 177.527 l
143.28 171.549 l
154.44 160.451 l
165.6 147.834 l
176.76 135.455 l
187.92 122.092 l
199.08 111.69 l
210.24 103.892 l
221.4 98.807 l
232.56 95.44 l
243.72 92.4395 l
254.88 89.6795 l
266.04 87.4694 l
277.2 85.6344 l
288.36 83.7237 l
299.52 82.0362 l
310.68 80.4576 l
321.84 79.2374 l
333 78.2272 l
344.16 77.0123 l
355.32 76.2079 l
366.48 75.2428 l
377.64 74.3452 l
388.8 73.7035 l
stroke
grestore
gsave
334.8 223.2 54 36 clipbox
54 228.163 m
65.16 228.163 l
76.32 213.402 l
87.48 199.691 l
98.64 190.971 l
109.8 180.762 l
120.96 178.308 l
132.12 164.19 l
143.28 146.845 l
154.44 133.832 l
165.6 122.307 l
176.76 114.914 l
187.92 107.529 l
199.08 103.724 l
210.24 98.8806 l
221.4 95.4648 l
232.56 92.2578 l
243.72 89.8318 l
254.88 87.7678 l
266.04 85.9673 l
277.2 84.3387 l
288.36 82.826 l
299.52 81.3426 l
310.68 80.1365 l
321.84 79.0327 l
333 77.8836 l
344.16 76.9055 l
355.32 76.0469 l
366.48 75.4063 l
377.64 74.6865 l
388.8 73.8862 l
stroke
grestore
gsave
334.8 223.2 54 36 clipbox
54 228.163 m
65.16 228.163 l
76.32 213.505 l
87.48 199.752 l
98.64 190.755 l
109.8 180.816 l
120.96 178.241 l
132.12 167.638 l
143.28 155.791 l
154.44 146.441 l
165.6 132.725 l
176.76 119.824 l
187.92 111.989 l
199.08 105.148 l
210.24 99.9032 l
221.4 96.5785 l
232.56 93.386 l
243.72 91.1796 l
254.88 89.5142 l
266.04 88.1594 l
277.2 86.6293 l
288.36 85.2667 l
299.52 84.3229 l
310.68 83.3364 l
321.84 82.4157 l
333 81.5478 l
344.16 80.8627 l
355.32 80.1733 l
366.48 79.4405 l
377.64 78.6373 l
388.8 78.2664 l
stroke
grestore
gsave
334.8 223.2 54 36 clipbox
54 228.163 m
65.16 228.163 l
76.32 228.163 l
87.48 228.163 l
98.64 228.163 l
109.8 217.905 l
120.96 209.276 l
132.12 200.269 l
143.28 192.202 l
154.44 182.354 l
165.6 176.377 l
176.76 159.386 l
187.92 148.371 l
199.08 141.246 l
210.24 133.621 l
221.4 127.062 l
232.56 121.092 l
243.72 115.863 l
254.88 109.399 l
266.04 104.879 l
277.2 101.43 l
288.36 97.8694 l
299.52 94.5445 l
310.68 91.5918 l
321.84 89.319 l
333 87.0645 l
344.16 85.1877 l
355.32 83.523 l
366.48 82.0304 l
377.64 80.3548 l
388.8 79.2151 l
stroke
grestore
0.500 setlinewidth
0 setlinejoin
[] 0 setdash
0.000 setgray
gsave
334.8 223.2 54 36 clipbox
/o {
gsave
newpath
translate
0.5 setlinewidth
0 setlinejoin
0 setlinecap
-2.77556e-16 -3.53553 m
3.53553 0 l
1.66533e-16 3.53553 l
-3.53553 4.44089e-16 l
cl
gsave
1.000 0.000 0.000 setrgbcolor
fill
grestore
stroke
grestore
} bind def
54 228.163 o
65.16 228.163 o
76.32 217.899 o
87.48 208.836 o
98.64 200.167 o
109.8 192.097 o
120.96 177.487 o
132.12 171.226 o
143.28 159.519 o
154.44 138.485 o
165.6 119.493 o
176.76 107.962 o
187.92 100.224 o
199.08 93.258 o
210.24 89.105 o
221.4 85.384 o
232.56 82.2705 o
243.72 79.4794 o
254.88 77.3507 o
266.04 75.4369 o
277.2 73.6623 o
288.36 72.1667 o
299.52 70.5742 o
310.68 69.448 o
321.84 68.2589 o
333 67.2127 o
344.16 66.3849 o
355.32 65.522 o
366.48 64.662 o
377.64 64.0349 o
388.8 63.3268 o
grestore
gsave
334.8 223.2 54 36 clipbox
/o {
gsave
newpath
translate
0.5 setlinewidth
0 setlinejoin
0 setlinecap
-2.77556e-16 -3.53553 m
3.53553 0 l
1.66533e-16 3.53553 l
-3.53553 4.44089e-16 l
cl
gsave
0.000 0.500 0.000 setrgbcolor
fill
grestore
stroke
grestore
} bind def
54 228.163 o
65.16 228.163 o
76.32 228.163 o
87.48 207.513 o
98.64 186.036 o
109.8 171.847 o
120.96 169.139 o
132.12 161.146 o
143.28 135.931 o
154.44 118.721 o
165.6 107.978 o
176.76 100.127 o
187.92 93.3886 o
199.08 88.8998 o
210.24 85.5388 o
221.4 82.4868 o
232.56 79.9885 o
243.72 77.9817 o
254.88 76.1044 o
266.04 74.1348 o
277.2 72.5514 o
288.36 71.3201 o
299.52 69.9565 o
310.68 69.091 o
321.84 68.1137 o
333 67.2604 o
344.16 66.4905 o
355.32 65.7553 o
366.48 65.122 o
377.64 64.2398 o
388.8 63.6858 o
grestore
1.000 setlinewidth
2 setlinecap
gsave
54 259.2 m
388.8 259.2 l
stroke
grestore
gsave
388.8 36 m
388.8 259.2 l
stroke
grestore
gsave
54 36 m
388.8 36 l
stroke
grestore
gsave
54 36 m
54 259.2 l
stroke
grestore
0.500 setlinewidth
1 setlinejoin
0 setlinecap
gsave
/o {
gsave
newpath
translate
0.5 setlinewidth
1 setlinejoin
0 setlinecap
0 0 m
0 4 l
gsave
0.000 setgray
fill
grestore
stroke
grestore
} bind def
54 36 o
grestore
gsave
/o {
gsave
newpath
translate
0.5 setlinewidth
1 setlinejoin
0 setlinecap
0 0 m
0 -4 l
gsave
0.000 setgray
fill
grestore
stroke
grestore
} bind def
54 259.2 o
grestore
/BitstreamVeraSans-Roman findfont
10.000 scalefont
setfont
gsave
51.476562 24.406250 translate
0.000000 rotate
0.000000 0.000000 m /zero glyphshow
grestore
gsave
/o {
gsave
newpath
translate
0.5 setlinewidth
1 setlinejoin
0 setlinecap
0 0 m
0 4 l
gsave
0.000 setgray
fill
grestore
stroke
grestore
} bind def
109.8 36 o
grestore
gsave
/o {
gsave
newpath
translate
0.5 setlinewidth
1 setlinejoin
0 setlinecap
0 0 m
0 -4 l
gsave
0.000 setgray
fill
grestore
stroke
grestore
} bind def
109.8 259.2 o
grestore
gsave
107.440625 24.406250 translate
0.000000 rotate
0.000000 0.000000 m /five glyphshow
grestore
gsave
/o {
gsave
newpath
translate
0.5 setlinewidth
1 setlinejoin
0 setlinecap
0 0 m
0 4 l
gsave
0.000 setgray
fill
grestore
stroke
grestore
} bind def
165.6 36 o
grestore
gsave
/o {
gsave
newpath
translate
0.5 setlinewidth
1 setlinejoin
0 setlinecap
0 0 m
0 -4 l
gsave
0.000 setgray
fill
grestore
stroke
grestore
} bind def
165.6 259.2 o
grestore
gsave
160.115625 24.406250 translate
0.000000 rotate
0.000000 0.000000 m /one glyphshow
6.362305 0.000000 m /zero glyphshow
grestore
gsave
/o {
gsave
newpath
translate
0.5 setlinewidth
1 setlinejoin
0 setlinecap
0 0 m
0 4 l
gsave
0.000 setgray
fill
grestore
stroke
grestore
} bind def
221.4 36 o
grestore
gsave
/o {
gsave
newpath
translate
0.5 setlinewidth
1 setlinejoin
0 setlinecap
0 0 m
0 -4 l
gsave
0.000 setgray
fill
grestore
stroke
grestore
} bind def
221.4 259.2 o
grestore
gsave
216.025000 24.406250 translate
0.000000 rotate
0.000000 0.000000 m /one glyphshow
6.362305 0.000000 m /five glyphshow
grestore
gsave
/o {
gsave
newpath
translate
0.5 setlinewidth
1 setlinejoin
0 setlinecap
0 0 m
0 4 l
gsave
0.000 setgray
fill
grestore
stroke
grestore
} bind def
277.2 36 o
grestore
gsave
/o {
gsave
newpath
translate
0.5 setlinewidth
1 setlinejoin
0 setlinecap
0 0 m
0 -4 l
gsave
0.000 setgray
fill
grestore
stroke
grestore
} bind def
277.2 259.2 o
grestore
gsave
271.535937 24.406250 translate
0.000000 rotate
0.000000 0.000000 m /two glyphshow
6.362305 0.000000 m /zero glyphshow
grestore
gsave
/o {
gsave
newpath
translate
0.5 setlinewidth
1 setlinejoin
0 setlinecap
0 0 m
0 4 l
gsave
0.000 setgray
fill
grestore
stroke
grestore
} bind def
333 36 o
grestore
gsave
/o {
gsave
newpath
translate
0.5 setlinewidth
1 setlinejoin
0 setlinecap
0 0 m
0 -4 l
gsave
0.000 setgray
fill
grestore
stroke
grestore
} bind def
333 259.2 o
grestore
gsave
327.445312 24.406250 translate
0.000000 rotate
0.000000 0.000000 m /two glyphshow
6.362305 0.000000 m /five glyphshow
grestore
gsave
/o {
gsave
newpath
translate
0.5 setlinewidth
1 setlinejoin
0 setlinecap
0 0 m
0 4 l
gsave
0.000 setgray
fill
grestore
stroke
grestore
} bind def
388.8 36 o
grestore
gsave
/o {
gsave
newpath
translate
0.5 setlinewidth
1 setlinejoin
0 setlinecap
0 0 m
0 -4 l
gsave
0.000 setgray
fill
grestore
stroke
grestore
} bind def
388.8 259.2 o
grestore
gsave
383.151563 24.406250 translate
0.000000 rotate
0.000000 0.000000 m /three glyphshow
6.362305 0.000000 m /zero glyphshow
grestore
gsave
194.603125 9.734375 translate
0.000000 rotate
0.000000 0.000000 m /T glyphshow
5.858398 0.000000 m /i glyphshow
8.636719 0.000000 m /m glyphshow
18.377930 0.000000 m /e glyphshow
24.530273 0.000000 m /space glyphshow
27.708984 0.000000 m /parenleft glyphshow
31.610352 0.000000 m /m glyphshow
41.351562 0.000000 m /i glyphshow
44.129883 0.000000 m /n glyphshow
50.467773 0.000000 m /parenright glyphshow
grestore
gsave
/o {
gsave
newpath
translate
0.5 setlinewidth
1 setlinejoin
0 setlinecap
0 0 m
4 0 l
gsave
0.000 setgray
fill
grestore
stroke
grestore
} bind def
54 36 o
grestore
gsave
/o {
gsave
newpath
translate
0.5 setlinewidth
1 setlinejoin
0 setlinecap
0 0 m
-4 0 l
gsave
0.000 setgray
fill
grestore
stroke
grestore
} bind def
388.8 36 o
grestore
gsave
37.328125 33.242188 translate
0.000000 rotate
0.000000 0.000000 m /minus glyphshow
8.378906 0.000000 m /two glyphshow
grestore
gsave
/o {
gsave
newpath
translate
0.5 setlinewidth
1 setlinejoin
0 setlinecap
0 0 m
4 0 l
gsave
0.000 setgray
fill
grestore
stroke
grestore
} bind def
54 91.8 o
grestore
gsave
/o {
gsave
newpath
translate
0.5 setlinewidth
1 setlinejoin
0 setlinecap
0 0 m
-4 0 l
gsave
0.000 setgray
fill
grestore
stroke
grestore
} bind def
388.8 91.8 o
grestore
gsave
45.375000 89.042187 translate
0.000000 rotate
0.000000 0.000000 m /two glyphshow
grestore
gsave
/o {
gsave
newpath
translate
0.5 setlinewidth
1 setlinejoin
0 setlinecap
0 0 m
4 0 l
gsave
0.000 setgray
fill
grestore
stroke
grestore
} bind def
54 147.6 o
grestore
gsave
/o {
gsave
newpath
translate
0.5 setlinewidth
1 setlinejoin
0 setlinecap
0 0 m
-4 0 l
gsave
0.000 setgray
fill
grestore
stroke
grestore
} bind def
388.8 147.6 o
grestore
gsave
44.968750 144.842187 translate
0.000000 rotate
0.000000 0.000000 m /six glyphshow
grestore
gsave
/o {
gsave
newpath
translate
0.5 setlinewidth
1 setlinejoin
0 setlinecap
0 0 m
4 0 l
gsave
0.000 setgray
fill
grestore
stroke
grestore
} bind def
54 203.4 o
grestore
gsave
/o {
gsave
newpath
translate
0.5 setlinewidth
1 setlinejoin
0 setlinecap
0 0 m
-4 0 l
gsave
0.000 setgray
fill
grestore
stroke
grestore
} bind def
388.8 203.4 o
grestore
gsave
39.031250 200.642188 translate
0.000000 rotate
0.000000 0.000000 m /one glyphshow
6.362305 0.000000 m /zero glyphshow
grestore
gsave
/o {
gsave
newpath
translate
0.5 setlinewidth
1 setlinejoin
0 setlinecap
0 0 m
4 0 l
gsave
0.000 setgray
fill
grestore
stroke
grestore
} bind def
54 259.2 o
grestore
gsave
/o {
gsave
newpath
translate
0.5 setlinewidth
1 setlinejoin
0 setlinecap
0 0 m
-4 0 l
gsave
0.000 setgray
fill
grestore
stroke
grestore
} bind def
388.8 259.2 o
grestore
gsave
38.937500 256.442187 translate
0.000000 rotate
0.000000 0.000000 m /one glyphshow
6.362305 0.000000 m /four glyphshow
grestore
gsave
30.250000 115.498437 translate
90.000000 rotate
0.000000 0.000000 m /J glyphshow
2.949219 0.000000 m /o glyphshow
9.067383 0.000000 m /i glyphshow
11.845703 0.000000 m /n glyphshow
18.183594 0.000000 m /t glyphshow
22.104492 0.000000 m /space glyphshow
25.283203 0.000000 m /e glyphshow
31.435547 0.000000 m /n glyphshow
37.773438 0.000000 m /t glyphshow
41.694336 0.000000 m /r glyphshow
45.555664 0.000000 m /o glyphshow
51.673828 0.000000 m /p glyphshow
58.021484 0.000000 m /y glyphshow
grestore
1.000 setlinewidth
0 setlinejoin
0.300 setgray
gsave
227.063 194.725 m
382.4 194.725 l
384 194.725 384.8 195.525 384.8 197.125 c
384.8 248.8 l
384.8 250.4 384 251.2 382.4 251.2 c
227.063 251.2 l
225.463 251.2 224.663 250.4 224.663 248.8 c
224.663 197.125 l
224.663 195.525 225.463 194.725 227.063 194.725 c
cl
gsave
fill
grestore
stroke
grestore
0.000 setgray
gsave
225.063 196.725 m
380.4 196.725 l
382 196.725 382.8 197.525 382.8 199.125 c
382.8 250.8 l
382.8 252.4 382 253.2 380.4 253.2 c
225.063 253.2 l
223.463 253.2 222.663 252.4 222.663 250.8 c
222.663 199.125 l
222.663 197.525 223.463 196.725 225.063 196.725 c
cl
gsave
1.000 setgray
fill
grestore
stroke
grestore
1 setlinejoin
[1 3] 0 setdash
0.000 0.000 1.000 setrgbcolor
gsave
231.063 243.475 m
247.863 243.475 l
stroke
grestore
0.000 setgray
/BitstreamVeraSans-Roman findfont
12.000 scalefont
setfont
gsave
261.062500 239.275000 translate
0.000000 rotate
0.000000 0.000000 m /R glyphshow
8.087891 0.000000 m /a glyphshow
15.441406 0.000000 m /n glyphshow
23.046875 0.000000 m /d glyphshow
30.664062 0.000000 m /o glyphshow
38.005859 0.000000 m /m glyphshow
49.695312 0.000000 m /space glyphshow
53.509766 0.000000 m /p glyphshow
61.126953 0.000000 m /l glyphshow
64.460938 0.000000 m /a glyphshow
71.814453 0.000000 m /c glyphshow
78.412109 0.000000 m /e glyphshow
85.794922 0.000000 m /m glyphshow
97.484375 0.000000 m /e glyphshow
104.867188 0.000000 m /n glyphshow
112.472656 0.000000 m /t glyphshow
grestore
0.500 setlinewidth
0 setlinejoin
[] 0 setdash
gsave
/o {
gsave
newpath
translate
0.5 setlinewidth
0 setlinejoin
0 setlinecap
-2.77556e-16 -3.53553 m
3.53553 0 l
1.66533e-16 3.53553 l
-3.53553 4.44089e-16 l
cl
gsave
1.000 0.000 0.000 setrgbcolor
fill
grestore
stroke
grestore
} bind def
231.063 225.85 o
247.863 225.85 o
grestore
gsave
261.062500 221.650000 translate
0.000000 rotate
0.000000 0.000000 m /M glyphshow
10.353516 0.000000 m /I glyphshow
13.892578 0.000000 m /space glyphshow
17.707031 0.000000 m /v glyphshow
24.808594 0.000000 m /i glyphshow
28.142578 0.000000 m /a glyphshow
35.496094 0.000000 m /space glyphshow
39.310547 0.000000 m /g glyphshow
46.927734 0.000000 m /r glyphshow
51.861328 0.000000 m /i glyphshow
55.195312 0.000000 m /d glyphshow
62.812500 0.000000 m /s glyphshow
grestore
gsave
/o {
gsave
newpath
translate
0.5 setlinewidth
0 setlinejoin
0 setlinecap
-2.77556e-16 -3.53553 m
3.53553 0 l
1.66533e-16 3.53553 l
-3.53553 4.44089e-16 l
cl
gsave
0.000 0.500 0.000 setrgbcolor
fill
grestore
stroke
grestore
} bind def
231.063 208.225 o
247.863 208.225 o
grestore
gsave
261.062500 204.025000 translate
0.000000 rotate
0.000000 0.000000 m /M glyphshow
10.353516 0.000000 m /I glyphshow
13.892578 0.000000 m /space glyphshow
17.707031 0.000000 m /v glyphshow
24.808594 0.000000 m /i glyphshow
28.142578 0.000000 m /a glyphshow
35.496094 0.000000 m /space glyphshow
39.310547 0.000000 m /B glyphshow
47.542969 0.000000 m /a glyphshow
54.896484 0.000000 m /y glyphshow
61.998047 0.000000 m /e glyphshow
69.380859 0.000000 m /s glyphshow
75.632812 0.000000 m /space glyphshow
79.447266 0.000000 m /O glyphshow
88.892578 0.000000 m /p glyphshow
96.509766 0.000000 m /t glyphshow
grestore

end
showpage
