%!PS-Adobe-3.0 EPSF-3.0
%%Title: Comparison100.eps
%%Creator: matplotlib version 1.4.3, http://matplotlib.org/
%%CreationDate: Sun Dec 13 23:43:54 2015
%%Orientation: portrait
%%BoundingBox: 90 252 522 540
%%EndComments
%%BeginProlog
/mpldict 8 dict def
mpldict begin
/m { moveto } bind def
/l { lineto } bind def
/r { rlineto } bind def
/c { curveto } bind def
/cl { closepath } bind def
/box {
m
1 index 0 r
0 exch r
neg 0 r
cl
} bind def
/clipbox {
box
clip
newpath
} bind def
%!PS-Adobe-3.0 Resource-Font
%%Title: Bitstream Vera Sans
%%Copyright: Copyright (c) 2003 by Bitstream, Inc. All Rights Reserved.
%%Creator: Converted from TrueType to type 3 by PPR
25 dict begin
/_d{bind def}bind def
/_m{moveto}_d
/_l{lineto}_d
/_cl{closepath eofill}_d
/_c{curveto}_d
/_sc{7 -1 roll{setcachedevice}{pop pop pop pop pop pop}ifelse}_d
/_e{exec}_d
/FontName /BitstreamVeraSans-Roman def
/PaintType 0 def
/FontMatrix[.001 0 0 .001 0 0]def
/FontBBox[-183 -236 1287 928]def
/FontType 3 def
/Encoding [ /space /parenleft /parenright /zero /one /two /three /four /five /six /eight /B /E /I /M /O /R /T /a /c /d /e /g /i /l /m /n /o /p /r /s /t /v /y ] def
/FontInfo 10 dict dup begin
/FamilyName (Bitstream Vera Sans) def
/FullName (Bitstream Vera Sans) def
/Notice (Copyright (c) 2003 by Bitstream, Inc. All Rights Reserved. Bitstream Vera is a trademark of Bitstream, Inc.) def
/Weight (Roman) def
/Version (Release 1.10) def
/ItalicAngle 0.0 def
/isFixedPitch false def
/UnderlinePosition -213 def
/UnderlineThickness 143 def
end readonly def
/CharStrings 34 dict dup begin
/space{318 0 0 0 0 0 _sc
}_d
/parenleft{390 0 86 -131 310 759 _sc
310 759 _m
266 683 234 609 213 536 _c
191 463 181 389 181 314 _c
181 238 191 164 213 91 _c
234 17 266 -56 310 -131 _c
232 -131 _l
183 -54 146 20 122 94 _c
98 168 86 241 86 314 _c
86 386 98 459 122 533 _c
146 607 182 682 232 759 _c
310 759 _l
_cl}_d
/parenright{390 0 80 -131 304 759 _sc
80 759 _m
158 759 _l
206 682 243 607 267 533 _c
291 459 304 386 304 314 _c
304 241 291 168 267 94 _c
243 20 206 -54 158 -131 _c
80 -131 _l
123 -56 155 17 177 91 _c
198 164 209 238 209 314 _c
209 389 198 463 177 536 _c
155 609 123 683 80 759 _c
_cl}_d
/zero{636 0 66 -13 570 742 _sc
318 664 _m
267 664 229 639 203 589 _c
177 539 165 464 165 364 _c
165 264 177 189 203 139 _c
229 89 267 64 318 64 _c
369 64 407 89 433 139 _c
458 189 471 264 471 364 _c
471 464 458 539 433 589 _c
407 639 369 664 318 664 _c
318 742 _m
399 742 461 709 505 645 _c
548 580 570 486 570 364 _c
570 241 548 147 505 83 _c
461 19 399 -13 318 -13 _c
236 -13 173 19 130 83 _c
87 147 66 241 66 364 _c
66 486 87 580 130 645 _c
173 709 236 742 318 742 _c
_cl}_d
/one{636 0 110 0 544 729 _sc
124 83 _m
285 83 _l
285 639 _l
110 604 _l
110 694 _l
284 729 _l
383 729 _l
383 83 _l
544 83 _l
544 0 _l
124 0 _l
124 83 _l
_cl}_d
/two{{636 0 73 0 536 742 _sc
192 83 _m
536 83 _l
536 0 _l
73 0 _l
73 83 _l
110 121 161 173 226 239 _c
290 304 331 346 348 365 _c
380 400 402 430 414 455 _c
426 479 433 504 433 528 _c
433 566 419 598 392 622 _c
365 646 330 659 286 659 _c
255 659 222 653 188 643 _c
154 632 117 616 78 594 _c
78 694 _l
118 710 155 722 189 730 _c
223 738 255 742 284 742 _c
}_e{359 742 419 723 464 685 _c
509 647 532 597 532 534 _c
532 504 526 475 515 449 _c
504 422 484 390 454 354 _c
446 344 420 317 376 272 _c
332 227 271 164 192 83 _c
_cl}_e}_d
/three{{636 0 76 -13 556 742 _sc
406 393 _m
453 383 490 362 516 330 _c
542 298 556 258 556 212 _c
556 140 531 84 482 45 _c
432 6 362 -13 271 -13 _c
240 -13 208 -10 176 -4 _c
144 1 110 10 76 22 _c
76 117 _l
103 101 133 89 166 81 _c
198 73 232 69 268 69 _c
330 69 377 81 409 105 _c
441 129 458 165 458 212 _c
458 254 443 288 413 312 _c
383 336 341 349 287 349 _c
}_e{202 349 _l
202 430 _l
291 430 _l
339 430 376 439 402 459 _c
428 478 441 506 441 543 _c
441 580 427 609 401 629 _c
374 649 336 659 287 659 _c
260 659 231 656 200 650 _c
169 644 135 635 98 623 _c
98 711 _l
135 721 170 729 203 734 _c
235 739 266 742 296 742 _c
370 742 429 725 473 691 _c
517 657 539 611 539 553 _c
539 513 527 479 504 451 _c
481 423 448 403 406 393 _c
_cl}_e}_d
/four{636 0 49 0 580 729 _sc
378 643 _m
129 254 _l
378 254 _l
378 643 _l
352 729 _m
476 729 _l
476 254 _l
580 254 _l
580 172 _l
476 172 _l
476 0 _l
378 0 _l
378 172 _l
49 172 _l
49 267 _l
352 729 _l
_cl}_d
/five{{636 0 77 -13 549 729 _sc
108 729 _m
495 729 _l
495 646 _l
198 646 _l
198 467 _l
212 472 227 476 241 478 _c
255 480 270 482 284 482 _c
365 482 429 459 477 415 _c
525 370 549 310 549 234 _c
549 155 524 94 475 51 _c
426 8 357 -13 269 -13 _c
238 -13 207 -10 175 -6 _c
143 -1 111 6 77 17 _c
77 116 _l
106 100 136 88 168 80 _c
199 72 232 69 267 69 _c
}_e{323 69 368 83 401 113 _c
433 143 450 183 450 234 _c
450 284 433 324 401 354 _c
368 384 323 399 267 399 _c
241 399 214 396 188 390 _c
162 384 135 375 108 363 _c
108 729 _l
_cl}_e}_d
/six{{636 0 70 -13 573 742 _sc
330 404 _m
286 404 251 388 225 358 _c
199 328 186 286 186 234 _c
186 181 199 139 225 109 _c
251 79 286 64 330 64 _c
374 64 409 79 435 109 _c
461 139 474 181 474 234 _c
474 286 461 328 435 358 _c
409 388 374 404 330 404 _c
526 713 _m
526 623 _l
501 635 476 644 451 650 _c
425 656 400 659 376 659 _c
310 659 260 637 226 593 _c
}_e{192 549 172 482 168 394 _c
187 422 211 444 240 459 _c
269 474 301 482 336 482 _c
409 482 467 459 509 415 _c
551 371 573 310 573 234 _c
573 159 550 99 506 54 _c
462 9 403 -13 330 -13 _c
246 -13 181 19 137 83 _c
92 147 70 241 70 364 _c
70 479 97 571 152 639 _c
206 707 280 742 372 742 _c
396 742 421 739 447 735 _c
472 730 498 723 526 713 _c
_cl}_e}_d
/eight{{636 0 68 -13 568 742 _sc
318 346 _m
271 346 234 333 207 308 _c
180 283 167 249 167 205 _c
167 161 180 126 207 101 _c
234 76 271 64 318 64 _c
364 64 401 76 428 102 _c
455 127 469 161 469 205 _c
469 249 455 283 429 308 _c
402 333 365 346 318 346 _c
219 388 _m
177 398 144 418 120 447 _c
96 476 85 511 85 553 _c
85 611 105 657 147 691 _c
188 725 245 742 318 742 _c
}_e{390 742 447 725 489 691 _c
530 657 551 611 551 553 _c
551 511 539 476 515 447 _c
491 418 459 398 417 388 _c
464 377 501 355 528 323 _c
554 291 568 251 568 205 _c
568 134 546 80 503 43 _c
459 5 398 -13 318 -13 _c
237 -13 175 5 132 43 _c
89 80 68 134 68 205 _c
68 251 81 291 108 323 _c
134 355 171 377 219 388 _c
183 544 _m
183 506 194 476 218 455 _c
}_e{242 434 275 424 318 424 _c
360 424 393 434 417 455 _c
441 476 453 506 453 544 _c
453 582 441 611 417 632 _c
393 653 360 664 318 664 _c
275 664 242 653 218 632 _c
194 611 183 582 183 544 _c
_cl}_e}_d
/B{{686 0 98 0 615 729 _sc
197 348 _m
197 81 _l
355 81 _l
408 81 447 92 473 114 _c
498 136 511 169 511 215 _c
511 260 498 293 473 315 _c
447 337 408 348 355 348 _c
197 348 _l
197 648 _m
197 428 _l
343 428 _l
391 428 426 437 450 455 _c
474 473 486 500 486 538 _c
486 574 474 602 450 620 _c
426 638 391 648 343 648 _c
197 648 _l
98 729 _m
350 729 _l
}_e{425 729 483 713 524 682 _c
564 650 585 606 585 549 _c
585 504 574 468 553 442 _c
532 416 502 399 462 393 _c
510 382 548 360 575 327 _c
601 294 615 253 615 204 _c
615 138 592 88 548 53 _c
504 17 441 0 360 0 _c
98 0 _l
98 729 _l
_cl}_e}_d
/E{632 0 98 0 568 729 _sc
98 729 _m
559 729 _l
559 646 _l
197 646 _l
197 430 _l
544 430 _l
544 347 _l
197 347 _l
197 83 _l
568 83 _l
568 0 _l
98 0 _l
98 729 _l
_cl}_d
/I{295 0 98 0 197 729 _sc
98 729 _m
197 729 _l
197 0 _l
98 0 _l
98 729 _l
_cl}_d
/M{863 0 98 0 765 729 _sc
98 729 _m
245 729 _l
431 233 _l
618 729 _l
765 729 _l
765 0 _l
669 0 _l
669 640 _l
481 140 _l
382 140 _l
194 640 _l
194 0 _l
98 0 _l
98 729 _l
_cl}_d
/O{787 0 56 -13 731 742 _sc
394 662 _m
322 662 265 635 223 582 _c
181 528 160 456 160 364 _c
160 272 181 199 223 146 _c
265 92 322 66 394 66 _c
465 66 522 92 564 146 _c
606 199 627 272 627 364 _c
627 456 606 528 564 582 _c
522 635 465 662 394 662 _c
394 742 _m
496 742 577 707 639 639 _c
700 571 731 479 731 364 _c
731 248 700 157 639 89 _c
577 21 496 -13 394 -13 _c
291 -13 209 21 148 89 _c
86 157 56 248 56 364 _c
56 479 86 571 148 639 _c
209 707 291 742 394 742 _c
_cl}_d
/R{{695 0 98 0 666 729 _sc
444 342 _m
465 334 486 319 506 296 _c
526 272 546 240 566 199 _c
666 0 _l
560 0 _l
467 187 _l
443 235 419 268 397 284 _c
374 300 343 308 304 308 _c
197 308 _l
197 0 _l
98 0 _l
98 729 _l
321 729 _l
404 729 466 711 507 677 _c
548 642 569 589 569 519 _c
569 473 558 434 537 404 _c
515 374 484 353 444 342 _c
197 648 _m
197 389 _l
321 389 _l
}_e{368 389 404 400 428 422 _c
452 444 465 476 465 519 _c
465 561 452 593 428 615 _c
404 637 368 648 321 648 _c
197 648 _l
_cl}_e}_d
/T{611 0 -2 0 614 729 _sc
-2 729 _m
614 729 _l
614 646 _l
355 646 _l
355 0 _l
256 0 _l
256 646 _l
-2 646 _l
-2 729 _l
_cl}_d
/a{{613 0 60 -13 522 560 _sc
343 275 _m
270 275 220 266 192 250 _c
164 233 150 205 150 165 _c
150 133 160 107 181 89 _c
202 70 231 61 267 61 _c
317 61 357 78 387 114 _c
417 149 432 196 432 255 _c
432 275 _l
343 275 _l
522 312 _m
522 0 _l
432 0 _l
432 83 _l
411 49 385 25 355 10 _c
325 -5 287 -13 243 -13 _c
187 -13 142 2 109 33 _c
76 64 60 106 60 159 _c
}_e{60 220 80 266 122 298 _c
163 329 224 345 306 345 _c
432 345 _l
432 354 _l
432 395 418 427 391 450 _c
364 472 326 484 277 484 _c
245 484 215 480 185 472 _c
155 464 127 453 100 439 _c
100 522 _l
132 534 164 544 195 550 _c
226 556 256 560 286 560 _c
365 560 424 539 463 498 _c
502 457 522 395 522 312 _c
_cl}_e}_d
/c{{550 0 55 -13 488 560 _sc
488 526 _m
488 442 _l
462 456 437 466 411 473 _c
385 480 360 484 334 484 _c
276 484 230 465 198 428 _c
166 391 150 339 150 273 _c
150 206 166 154 198 117 _c
230 80 276 62 334 62 _c
360 62 385 65 411 72 _c
437 79 462 90 488 104 _c
488 21 _l
462 9 436 0 410 -5 _c
383 -10 354 -13 324 -13 _c
242 -13 176 12 128 64 _c
}_e{79 115 55 185 55 273 _c
55 362 79 432 128 483 _c
177 534 244 560 330 560 _c
358 560 385 557 411 551 _c
437 545 463 537 488 526 _c
_cl}_e}_d
/d{{635 0 55 -13 544 760 _sc
454 464 _m
454 760 _l
544 760 _l
544 0 _l
454 0 _l
454 82 _l
435 49 411 25 382 10 _c
353 -5 319 -13 279 -13 _c
213 -13 159 13 117 65 _c
75 117 55 187 55 273 _c
55 359 75 428 117 481 _c
159 533 213 560 279 560 _c
319 560 353 552 382 536 _c
411 520 435 496 454 464 _c
148 273 _m
148 207 161 155 188 117 _c
215 79 253 61 301 61 _c
}_e{348 61 385 79 413 117 _c
440 155 454 207 454 273 _c
454 339 440 390 413 428 _c
385 466 348 485 301 485 _c
253 485 215 466 188 428 _c
161 390 148 339 148 273 _c
_cl}_e}_d
/e{{615 0 55 -13 562 560 _sc
562 296 _m
562 252 _l
149 252 _l
153 190 171 142 205 110 _c
238 78 284 62 344 62 _c
378 62 412 66 444 74 _c
476 82 509 95 541 113 _c
541 28 _l
509 14 476 3 442 -3 _c
408 -9 373 -13 339 -13 _c
251 -13 182 12 131 62 _c
80 112 55 181 55 268 _c
55 357 79 428 127 481 _c
175 533 241 560 323 560 _c
397 560 455 536 498 489 _c
}_e{540 441 562 377 562 296 _c
472 322 _m
471 371 457 410 431 440 _c
404 469 368 484 324 484 _c
274 484 234 469 204 441 _c
174 413 156 373 152 322 _c
472 322 _l
_cl}_e}_d
/g{{635 0 55 -207 544 560 _sc
454 280 _m
454 344 440 395 414 431 _c
387 467 349 485 301 485 _c
253 485 215 467 188 431 _c
161 395 148 344 148 280 _c
148 215 161 165 188 129 _c
215 93 253 75 301 75 _c
349 75 387 93 414 129 _c
440 165 454 215 454 280 _c
544 68 _m
544 -24 523 -93 482 -139 _c
440 -184 377 -207 292 -207 _c
260 -207 231 -204 203 -200 _c
175 -195 147 -188 121 -178 _c
}_e{121 -91 _l
147 -105 173 -115 199 -122 _c
225 -129 251 -133 278 -133 _c
336 -133 380 -117 410 -87 _c
439 -56 454 -10 454 52 _c
454 96 _l
435 64 411 40 382 24 _c
353 8 319 0 279 0 _c
211 0 157 25 116 76 _c
75 127 55 195 55 280 _c
55 364 75 432 116 483 _c
157 534 211 560 279 560 _c
319 560 353 552 382 536 _c
411 520 435 496 454 464 _c
454 547 _l
544 547 _l
}_e{544 68 _l
_cl}_e}_d
/i{278 0 94 0 184 760 _sc
94 547 _m
184 547 _l
184 0 _l
94 0 _l
94 547 _l
94 760 _m
184 760 _l
184 646 _l
94 646 _l
94 760 _l
_cl}_d
/l{278 0 94 0 184 760 _sc
94 760 _m
184 760 _l
184 0 _l
94 0 _l
94 760 _l
_cl}_d
/m{{974 0 91 0 889 560 _sc
520 442 _m
542 482 569 511 600 531 _c
631 550 668 560 711 560 _c
767 560 811 540 842 500 _c
873 460 889 403 889 330 _c
889 0 _l
799 0 _l
799 327 _l
799 379 789 418 771 444 _c
752 469 724 482 686 482 _c
639 482 602 466 575 435 _c
548 404 535 362 535 309 _c
535 0 _l
445 0 _l
445 327 _l
445 379 435 418 417 444 _c
398 469 369 482 331 482 _c
}_e{285 482 248 466 221 435 _c
194 404 181 362 181 309 _c
181 0 _l
91 0 _l
91 547 _l
181 547 _l
181 462 _l
201 495 226 520 255 536 _c
283 552 317 560 357 560 _c
397 560 430 550 458 530 _c
486 510 506 480 520 442 _c
_cl}_e}_d
/n{634 0 91 0 549 560 _sc
549 330 _m
549 0 _l
459 0 _l
459 327 _l
459 379 448 417 428 443 _c
408 469 378 482 338 482 _c
289 482 251 466 223 435 _c
195 404 181 362 181 309 _c
181 0 _l
91 0 _l
91 547 _l
181 547 _l
181 462 _l
202 494 227 519 257 535 _c
286 551 320 560 358 560 _c
420 560 468 540 500 501 _c
532 462 549 405 549 330 _c
_cl}_d
/o{612 0 55 -13 557 560 _sc
306 484 _m
258 484 220 465 192 427 _c
164 389 150 338 150 273 _c
150 207 163 156 191 118 _c
219 80 257 62 306 62 _c
354 62 392 80 420 118 _c
448 156 462 207 462 273 _c
462 337 448 389 420 427 _c
392 465 354 484 306 484 _c
306 560 _m
384 560 445 534 490 484 _c
534 433 557 363 557 273 _c
557 183 534 113 490 63 _c
445 12 384 -13 306 -13 _c
227 -13 165 12 121 63 _c
77 113 55 183 55 273 _c
55 363 77 433 121 484 _c
165 534 227 560 306 560 _c
_cl}_d
/p{{635 0 91 -207 580 560 _sc
181 82 _m
181 -207 _l
91 -207 _l
91 547 _l
181 547 _l
181 464 _l
199 496 223 520 252 536 _c
281 552 316 560 356 560 _c
422 560 476 533 518 481 _c
559 428 580 359 580 273 _c
580 187 559 117 518 65 _c
476 13 422 -13 356 -13 _c
316 -13 281 -5 252 10 _c
223 25 199 49 181 82 _c
487 273 _m
487 339 473 390 446 428 _c
418 466 381 485 334 485 _c
}_e{286 485 249 466 222 428 _c
194 390 181 339 181 273 _c
181 207 194 155 222 117 _c
249 79 286 61 334 61 _c
381 61 418 79 446 117 _c
473 155 487 207 487 273 _c
_cl}_e}_d
/r{411 0 91 0 411 560 _sc
411 463 _m
401 469 390 473 378 476 _c
366 478 353 480 339 480 _c
288 480 249 463 222 430 _c
194 397 181 350 181 288 _c
181 0 _l
91 0 _l
91 547 _l
181 547 _l
181 462 _l
199 495 224 520 254 536 _c
284 552 321 560 365 560 _c
371 560 378 559 386 559 _c
393 558 401 557 411 555 _c
411 463 _l
_cl}_d
/s{{521 0 54 -13 472 560 _sc
443 531 _m
443 446 _l
417 458 391 468 364 475 _c
336 481 308 485 279 485 _c
234 485 200 478 178 464 _c
156 450 145 430 145 403 _c
145 382 153 366 169 354 _c
185 342 217 330 265 320 _c
296 313 _l
360 299 405 279 432 255 _c
458 230 472 195 472 151 _c
472 100 452 60 412 31 _c
372 1 316 -13 246 -13 _c
216 -13 186 -10 154 -5 _c
}_e{122 0 89 8 54 20 _c
54 113 _l
87 95 120 82 152 74 _c
184 65 216 61 248 61 _c
290 61 323 68 346 82 _c
368 96 380 117 380 144 _c
380 168 371 187 355 200 _c
339 213 303 226 247 238 _c
216 245 _l
160 257 119 275 95 299 _c
70 323 58 356 58 399 _c
58 450 76 490 112 518 _c
148 546 200 560 268 560 _c
301 560 332 557 362 552 _c
391 547 418 540 443 531 _c
}_e{_cl}_e}_d
/t{392 0 27 0 368 702 _sc
183 702 _m
183 547 _l
368 547 _l
368 477 _l
183 477 _l
183 180 _l
183 135 189 106 201 94 _c
213 81 238 75 276 75 _c
368 75 _l
368 0 _l
276 0 _l
206 0 158 13 132 39 _c
106 65 93 112 93 180 _c
93 477 _l
27 477 _l
27 547 _l
93 547 _l
93 702 _l
183 702 _l
_cl}_d
/v{592 0 30 0 562 547 _sc
30 547 _m
125 547 _l
296 88 _l
467 547 _l
562 547 _l
357 0 _l
235 0 _l
30 547 _l
_cl}_d
/y{592 0 30 -207 562 547 _sc
322 -50 _m
296 -114 271 -157 247 -177 _c
223 -197 191 -207 151 -207 _c
79 -207 _l
79 -132 _l
132 -132 _l
156 -132 175 -126 189 -114 _c
203 -102 218 -75 235 -31 _c
251 9 _l
30 547 _l
125 547 _l
296 119 _l
467 547 _l
562 547 _l
322 -50 _l
_cl}_d
end readonly def

/BuildGlyph
 {exch begin
 CharStrings exch
 2 copy known not{pop /.notdef}if
 true 3 1 roll get exec
 end}_d

/BuildChar {
 1 index /Encoding get exch get
 1 index /BuildGlyph get exec
}_d

FontName currentdict end definefont pop
end
%%EndProlog
mpldict begin
90 252 translate
432 288 0 0 clipbox
gsave
0 0 m
432 0 l
432 288 l
0 288 l
cl
1.000 setgray
fill
grestore
gsave
54 36 m
388.8 36 l
388.8 259.2 l
54 259.2 l
cl
1.000 setgray
fill
grestore
1.000 setlinewidth
1 setlinejoin
0 setlinecap
[1 3] 0 setdash
0.000 0.000 1.000 setrgbcolor
gsave
334.8 223.2 54 36 clipbox
54 223.296 m
65.16 223.296 l
76.32 223.296 l
87.48 223.296 l
98.64 223.296 l
109.8 223.296 l
120.96 223.296 l
132.12 223.297 l
143.28 223.011 l
154.44 218.071 l
165.6 189.725 l
176.76 179.457 l
187.92 173.364 l
199.08 163.909 l
210.24 147.739 l
221.4 137.186 l
232.56 126.16 l
243.72 117.865 l
254.88 110.226 l
266.04 105.86 l
277.2 101.133 l
288.36 97.4538 l
299.52 93.7159 l
310.68 90.7366 l
321.84 88.4753 l
333 85.4783 l
344.16 83.2942 l
355.32 81.2235 l
366.48 79.6534 l
377.64 77.9698 l
388.8 76.3604 l
stroke
grestore
gsave
334.8 223.2 54 36 clipbox
54 223.296 m
65.16 214.011 l
76.32 203.352 l
87.48 193.243 l
98.64 184.181 l
109.8 177.406 l
120.96 171.111 l
132.12 166.988 l
143.28 155.913 l
154.44 139.086 l
165.6 117.838 l
176.76 108.203 l
187.92 98.8711 l
199.08 92.8035 l
210.24 87.3458 l
221.4 82.6883 l
232.56 79.0001 l
243.72 75.7894 l
254.88 73.0185 l
266.04 70.6339 l
277.2 68.5831 l
288.36 66.4769 l
299.52 64.7636 l
310.68 63.2204 l
321.84 61.9359 l
333 60.6251 l
344.16 59.4959 l
355.32 58.3199 l
366.48 57.5084 l
377.64 56.6194 l
388.8 55.8073 l
stroke
grestore
gsave
334.8 223.2 54 36 clipbox
54 223.296 m
65.16 213.867 l
76.32 203.164 l
87.48 193.255 l
98.64 184.203 l
109.8 175.859 l
120.96 167.386 l
132.12 156.477 l
143.28 142.734 l
154.44 122.924 l
165.6 107.309 l
176.76 96.6628 l
187.92 86.3848 l
199.08 80.8605 l
210.24 77.0094 l
221.4 72.9282 l
232.56 70.4156 l
243.72 67.7651 l
254.88 65.6544 l
266.04 64.125 l
277.2 62.4876 l
288.36 60.9093 l
299.52 59.7775 l
310.68 58.6256 l
321.84 57.7403 l
333 56.8773 l
344.16 55.9159 l
355.32 55.1942 l
366.48 54.3533 l
377.64 53.699 l
388.8 52.8211 l
stroke
grestore
gsave
334.8 223.2 54 36 clipbox
54 223.296 m
65.16 213.884 l
76.32 203.158 l
87.48 193.243 l
98.64 184.166 l
109.8 175.931 l
120.96 167.467 l
132.12 156.561 l
143.28 142.6 l
154.44 122.238 l
165.6 111.63 l
176.76 103.273 l
187.92 94.9712 l
199.08 88.1814 l
210.24 82.7895 l
221.4 78.5709 l
232.56 75.1431 l
243.72 72.044 l
254.88 68.8547 l
266.04 66.425 l
277.2 64.1542 l
288.36 62.1304 l
299.52 60.4157 l
310.68 58.9764 l
321.84 57.8278 l
333 56.4029 l
344.16 55.4741 l
355.32 54.4644 l
366.48 53.4937 l
377.64 52.517 l
388.8 51.6621 l
stroke
grestore
gsave
334.8 223.2 54 36 clipbox
54 223.296 m
65.16 223.296 l
76.32 223.296 l
87.48 223.296 l
98.64 216.24 l
109.8 198.582 l
120.96 196.008 l
132.12 180.655 l
143.28 171.477 l
154.44 168.866 l
165.6 150.384 l
176.76 129.701 l
187.92 116.299 l
199.08 106.35 l
210.24 98.3885 l
221.4 93.3054 l
232.56 88.7565 l
243.72 84.9125 l
254.88 81.9133 l
266.04 78.4654 l
277.2 75.5822 l
288.36 73.3783 l
299.52 71.0678 l
310.68 69.1381 l
321.84 67.3567 l
333 66.0745 l
344.16 64.7005 l
355.32 63.2208 l
366.48 62.2898 l
377.64 61.221 l
388.8 60.2517 l
stroke
grestore
gsave
334.8 223.2 54 36 clipbox
54 223.296 m
65.16 223.296 l
76.32 223.296 l
87.48 223.296 l
98.64 223.296 l
109.8 205.23 l
120.96 195.337 l
132.12 178.508 l
143.28 168.007 l
154.44 162.033 l
165.6 152.939 l
176.76 136.605 l
187.92 121.055 l
199.08 110.97 l
210.24 101.778 l
221.4 95.9272 l
232.56 91.1078 l
243.72 87.5506 l
254.88 83.9227 l
266.04 81.4782 l
277.2 78.7313 l
288.36 76.4213 l
299.52 74.3631 l
310.68 72.0851 l
321.84 70.7745 l
333 69.059 l
344.16 67.9293 l
355.32 66.5854 l
366.48 65.2756 l
377.64 64.2912 l
388.8 63.1986 l
stroke
grestore
gsave
334.8 223.2 54 36 clipbox
54 223.296 m
65.16 223.296 l
76.32 223.296 l
87.48 223.296 l
98.64 223.296 l
109.8 205.333 l
120.96 195.184 l
132.12 178.354 l
143.28 168.404 l
154.44 161.984 l
165.6 152.609 l
176.76 136.96 l
187.92 120.386 l
199.08 108.423 l
210.24 100.859 l
221.4 94.7561 l
232.56 89.8565 l
243.72 85.5885 l
254.88 82.0966 l
266.04 79.1854 l
277.2 76.7388 l
288.36 74.5946 l
299.52 72.6453 l
310.68 71.0299 l
321.84 69.4745 l
333 68.0674 l
344.16 66.3834 l
355.32 65.3057 l
366.48 64.2195 l
377.64 62.9412 l
388.8 62.212 l
stroke
grestore
gsave
334.8 223.2 54 36 clipbox
54 223.296 m
65.16 214.011 l
76.32 207.92 l
87.48 199.329 l
98.64 187.191 l
109.8 184.324 l
120.96 185.433 l
132.12 185.928 l
143.28 183.998 l
154.44 167.476 l
165.6 157.664 l
176.76 144.087 l
187.92 130.441 l
199.08 119.657 l
210.24 108.775 l
221.4 101.782 l
232.56 95.8385 l
243.72 90.9262 l
254.88 86.956 l
266.04 83.5011 l
277.2 80.6996 l
288.36 78.2925 l
299.52 75.9551 l
310.68 74.0836 l
321.84 72.4304 l
333 70.8767 l
344.16 69.3748 l
355.32 68.0359 l
366.48 66.7632 l
377.64 65.8766 l
388.8 64.7223 l
stroke
grestore
gsave
334.8 223.2 54 36 clipbox
54 223.296 m
65.16 214.038 l
76.32 207.833 l
87.48 199.452 l
98.64 187.198 l
109.8 184.459 l
120.96 185.461 l
132.12 183.792 l
143.28 186.719 l
154.44 178.804 l
165.6 165.817 l
176.76 155.251 l
187.92 141.015 l
199.08 126.452 l
210.24 111.195 l
221.4 100.909 l
232.56 95.1686 l
243.72 90.5901 l
254.88 86.9806 l
266.04 83.9642 l
277.2 81.4962 l
288.36 79.1714 l
299.52 77.386 l
310.68 75.4687 l
321.84 73.7359 l
333 72.4248 l
344.16 70.8779 l
355.32 69.5748 l
366.48 68.4551 l
377.64 67.3146 l
388.8 66.2866 l
stroke
grestore
gsave
334.8 223.2 54 36 clipbox
54 223.296 m
65.16 214.025 l
76.32 207.92 l
87.48 199.272 l
98.64 187.152 l
109.8 184.395 l
120.96 185.487 l
132.12 183.984 l
143.28 183.826 l
154.44 181.761 l
165.6 181.531 l
176.76 171.537 l
187.92 165.203 l
199.08 154.846 l
210.24 143.925 l
221.4 135.168 l
232.56 124.407 l
243.72 115.116 l
254.88 107.466 l
266.04 103.383 l
277.2 99.5031 l
288.36 96.2187 l
299.52 93.3697 l
310.68 91.0437 l
321.84 88.6457 l
333 86.6919 l
344.16 84.5893 l
355.32 82.718 l
366.48 81.3917 l
377.64 79.8687 l
388.8 78.4675 l
stroke
grestore
gsave
334.8 223.2 54 36 clipbox
54 223.296 m
65.16 223.296 l
76.32 223.296 l
87.48 223.296 l
98.64 223.296 l
109.8 223.296 l
120.96 223.296 l
132.12 223.296 l
143.28 223.296 l
154.44 223.282 l
165.6 196.455 l
176.76 190.174 l
187.92 184.142 l
199.08 177.391 l
210.24 169.13 l
221.4 153.938 l
232.56 138.351 l
243.72 123.43 l
254.88 114.945 l
266.04 108.801 l
277.2 103.982 l
288.36 100.072 l
299.52 96.743 l
310.68 94.0428 l
321.84 91.9014 l
333 90.0518 l
344.16 87.8364 l
355.32 86.0316 l
366.48 84.3944 l
377.64 83.1552 l
388.8 81.8751 l
stroke
grestore
gsave
334.8 223.2 54 36 clipbox
54 223.296 m
65.16 223.296 l
76.32 223.296 l
87.48 223.296 l
98.64 223.296 l
109.8 223.296 l
120.96 223.296 l
132.12 223.296 l
143.28 223.297 l
154.44 222.453 l
165.6 198.372 l
176.76 187.164 l
187.92 175.644 l
199.08 168.593 l
210.24 157.412 l
221.4 142.938 l
232.56 127.018 l
243.72 116.129 l
254.88 109.297 l
266.04 103.526 l
277.2 99.3868 l
288.36 95.2091 l
299.52 92.4448 l
310.68 89.6333 l
321.84 87.6412 l
333 85.3414 l
344.16 83.6592 l
355.32 82.1058 l
366.48 80.2586 l
377.64 78.9737 l
388.8 77.5308 l
stroke
grestore
gsave
334.8 223.2 54 36 clipbox
54 223.296 m
65.16 213.984 l
76.32 203.348 l
87.48 193.347 l
98.64 184.168 l
109.8 177.473 l
120.96 171.236 l
132.12 166.725 l
143.28 155.659 l
154.44 131.071 l
165.6 109.683 l
176.76 100.071 l
187.92 90.7946 l
199.08 83.8044 l
210.24 79.9441 l
221.4 77.1932 l
232.56 74.8285 l
243.72 73.3155 l
254.88 71.8869 l
266.04 70.7939 l
277.2 69.7675 l
288.36 68.8312 l
299.52 68.0205 l
310.68 67.2556 l
321.84 66.7071 l
333 65.8119 l
344.16 65.405 l
355.32 64.881 l
366.48 64.3355 l
377.64 63.7837 l
388.8 63.5266 l
stroke
grestore
gsave
334.8 223.2 54 36 clipbox
54 223.296 m
65.16 213.882 l
76.32 203.187 l
87.48 193.243 l
98.64 184.174 l
109.8 177.571 l
120.96 171.201 l
132.12 166.731 l
143.28 155.884 l
154.44 131.019 l
165.6 112.978 l
176.76 102.913 l
187.92 92.3774 l
199.08 85.8656 l
210.24 81.6007 l
221.4 78.9215 l
232.56 76.8633 l
243.72 75.2676 l
254.88 73.7816 l
266.04 72.5431 l
277.2 71.3233 l
288.36 70.2617 l
299.52 69.2717 l
310.68 68.4525 l
321.84 67.7798 l
333 67.0035 l
344.16 66.4048 l
355.32 65.7302 l
366.48 65.3702 l
377.64 64.7883 l
388.8 64.2018 l
stroke
grestore
gsave
334.8 223.2 54 36 clipbox
54 223.296 m
65.16 213.852 l
76.32 203.251 l
87.48 193.153 l
98.64 184.147 l
109.8 177.435 l
120.96 171.132 l
132.12 163.848 l
143.28 152.908 l
154.44 131.678 l
165.6 112.966 l
176.76 101.251 l
187.92 91.7219 l
199.08 85.4781 l
210.24 80.5426 l
221.4 76.8961 l
232.56 74.3132 l
243.72 72.4477 l
254.88 70.2091 l
266.04 68.6701 l
277.2 67.283 l
288.36 65.9173 l
299.52 64.851 l
310.68 63.7293 l
321.84 62.8762 l
333 62.0077 l
344.16 61.2924 l
355.32 60.4446 l
366.48 59.9755 l
377.64 59.2451 l
388.8 58.5999 l
stroke
grestore
gsave
334.8 223.2 54 36 clipbox
54 223.296 m
65.16 223.296 l
76.32 223.296 l
87.48 223.296 l
98.64 203.311 l
109.8 189.538 l
120.96 180.782 l
132.12 172.647 l
143.28 166.68 l
154.44 155.584 l
165.6 142.958 l
176.76 130.586 l
187.92 117.225 l
199.08 106.824 l
210.24 99.0256 l
221.4 93.9397 l
232.56 90.5733 l
243.72 87.5729 l
254.88 84.8129 l
266.04 82.6026 l
277.2 80.7677 l
288.36 78.8571 l
299.52 77.1679 l
310.68 75.591 l
321.84 74.3708 l
333 73.3605 l
344.16 72.1457 l
355.32 71.3412 l
366.48 70.3762 l
377.64 69.478 l
388.8 68.8369 l
stroke
grestore
gsave
334.8 223.2 54 36 clipbox
54 223.296 m
65.16 223.296 l
76.32 208.522 l
87.48 194.798 l
98.64 186.067 l
109.8 175.877 l
120.96 173.425 l
132.12 159.315 l
143.28 141.976 l
154.44 128.965 l
165.6 117.439 l
176.76 110.047 l
187.92 102.662 l
199.08 98.8573 l
210.24 94.0136 l
221.4 90.5982 l
232.56 87.3912 l
243.72 84.9625 l
254.88 82.9009 l
266.04 81.1006 l
277.2 79.472 l
288.36 77.9593 l
299.52 76.476 l
310.68 75.2698 l
321.84 74.166 l
333 73.017 l
344.16 72.0389 l
355.32 71.18 l
366.48 70.539 l
377.64 69.8185 l
388.8 69.0196 l
stroke
grestore
gsave
334.8 223.2 54 36 clipbox
54 223.296 m
65.16 223.296 l
76.32 208.63 l
87.48 194.871 l
98.64 185.851 l
109.8 175.94 l
120.96 173.365 l
132.12 162.762 l
143.28 150.92 l
154.44 141.569 l
165.6 127.841 l
176.76 114.955 l
187.92 107.119 l
199.08 100.281 l
210.24 95.0318 l
221.4 91.7104 l
232.56 88.5192 l
243.72 86.3122 l
254.88 84.6474 l
266.04 83.2904 l
277.2 81.7612 l
288.36 80.3996 l
299.52 79.4562 l
310.68 78.4687 l
321.84 77.5482 l
333 76.6809 l
344.16 75.9954 l
355.32 75.3054 l
366.48 74.5733 l
377.64 73.77 l
388.8 73.3973 l
stroke
grestore
gsave
334.8 223.2 54 36 clipbox
54 223.296 m
65.16 223.296 l
76.32 223.296 l
87.48 223.296 l
98.64 223.296 l
109.8 211.989 l
120.96 203.801 l
132.12 195.02 l
143.28 186.941 l
154.44 177.378 l
165.6 171.45 l
176.76 154.48 l
187.92 143.459 l
199.08 136.363 l
210.24 128.743 l
221.4 122.19 l
232.56 116.224 l
243.72 110.996 l
254.88 104.53 l
266.04 100.007 l
277.2 96.5629 l
288.36 93.0027 l
299.52 89.677 l
310.68 86.7251 l
321.84 84.4524 l
333 82.1979 l
344.16 80.3211 l
355.32 78.6564 l
366.48 77.1637 l
377.64 75.4881 l
388.8 74.3485 l
stroke
grestore
0.500 setlinewidth
0 setlinejoin
[] 0 setdash
0.000 setgray
gsave
334.8 223.2 54 36 clipbox
/o {
gsave
newpath
translate
0.5 setlinewidth
0 setlinejoin
0 setlinecap
-2.77556e-16 -3.53553 m
3.53553 0 l
1.66533e-16 3.53553 l
-3.53553 4.44089e-16 l
cl
gsave
1.000 0.000 0.000 setrgbcolor
fill
grestore
stroke
grestore
} bind def
54 223.296 o
65.16 223.296 o
76.32 212.829 o
87.48 203.763 o
98.64 195.283 o
109.8 187.205 o
120.96 172.497 o
132.12 166.291 o
143.28 154.647 o
154.44 133.618 o
165.6 114.626 o
176.76 103.095 o
187.92 95.3576 o
199.08 88.3914 o
210.24 84.2383 o
221.4 80.5173 o
232.56 77.4039 o
243.72 74.6127 o
254.88 72.4841 o
266.04 70.5702 o
277.2 68.7947 o
288.36 67.3 o
299.52 65.7073 o
310.68 64.5814 o
321.84 63.392 o
333 62.3433 o
344.16 61.5183 o
355.32 60.6552 o
366.48 59.7952 o
377.64 59.1681 o
388.8 58.4561 o
grestore
gsave
334.8 223.2 54 36 clipbox
/o {
gsave
newpath
translate
0.5 setlinewidth
0 setlinejoin
0 setlinecap
-2.77556e-16 -3.53553 m
3.53553 0 l
1.66533e-16 3.53553 l
-3.53553 4.44089e-16 l
cl
gsave
0.000 0.500 0.000 setrgbcolor
fill
grestore
stroke
grestore
} bind def
54 223.296 o
65.16 223.296 o
76.32 223.296 o
87.48 202.605 o
98.64 180.867 o
109.8 166.793 o
120.96 164.213 o
132.12 156.279 o
143.28 131.064 o
154.44 113.854 o
165.6 103.112 o
176.76 95.2602 o
187.92 88.522 o
199.08 84.0332 o
210.24 80.6721 o
221.4 77.6202 o
232.56 75.1219 o
243.72 73.1149 o
254.88 71.2377 o
266.04 69.2682 o
277.2 67.6847 o
288.36 66.4535 o
299.52 65.0896 o
310.68 64.2243 o
321.84 63.2471 o
333 62.3926 o
344.16 61.6238 o
355.32 60.8887 o
366.48 60.2554 o
377.64 59.3731 o
388.8 58.8187 o
grestore
1.000 setlinewidth
2 setlinecap
gsave
54 259.2 m
388.8 259.2 l
stroke
grestore
gsave
388.8 36 m
388.8 259.2 l
stroke
grestore
gsave
54 36 m
388.8 36 l
stroke
grestore
gsave
54 36 m
54 259.2 l
stroke
grestore
0.500 setlinewidth
1 setlinejoin
0 setlinecap
gsave
/o {
gsave
newpath
translate
0.5 setlinewidth
1 setlinejoin
0 setlinecap
0 0 m
0 4 l
gsave
0.000 setgray
fill
grestore
stroke
grestore
} bind def
54 36 o
grestore
gsave
/o {
gsave
newpath
translate
0.5 setlinewidth
1 setlinejoin
0 setlinecap
0 0 m
0 -4 l
gsave
0.000 setgray
fill
grestore
stroke
grestore
} bind def
54 259.2 o
grestore
/BitstreamVeraSans-Roman findfont
10.000 scalefont
setfont
gsave
51.476562 24.406250 translate
0.000000 rotate
0.000000 0.000000 m /zero glyphshow
grestore
gsave
/o {
gsave
newpath
translate
0.5 setlinewidth
1 setlinejoin
0 setlinecap
0 0 m
0 4 l
gsave
0.000 setgray
fill
grestore
stroke
grestore
} bind def
109.8 36 o
grestore
gsave
/o {
gsave
newpath
translate
0.5 setlinewidth
1 setlinejoin
0 setlinecap
0 0 m
0 -4 l
gsave
0.000 setgray
fill
grestore
stroke
grestore
} bind def
109.8 259.2 o
grestore
gsave
107.440625 24.406250 translate
0.000000 rotate
0.000000 0.000000 m /five glyphshow
grestore
gsave
/o {
gsave
newpath
translate
0.5 setlinewidth
1 setlinejoin
0 setlinecap
0 0 m
0 4 l
gsave
0.000 setgray
fill
grestore
stroke
grestore
} bind def
165.6 36 o
grestore
gsave
/o {
gsave
newpath
translate
0.5 setlinewidth
1 setlinejoin
0 setlinecap
0 0 m
0 -4 l
gsave
0.000 setgray
fill
grestore
stroke
grestore
} bind def
165.6 259.2 o
grestore
gsave
160.115625 24.406250 translate
0.000000 rotate
0.000000 0.000000 m /one glyphshow
6.362305 0.000000 m /zero glyphshow
grestore
gsave
/o {
gsave
newpath
translate
0.5 setlinewidth
1 setlinejoin
0 setlinecap
0 0 m
0 4 l
gsave
0.000 setgray
fill
grestore
stroke
grestore
} bind def
221.4 36 o
grestore
gsave
/o {
gsave
newpath
translate
0.5 setlinewidth
1 setlinejoin
0 setlinecap
0 0 m
0 -4 l
gsave
0.000 setgray
fill
grestore
stroke
grestore
} bind def
221.4 259.2 o
grestore
gsave
216.025000 24.406250 translate
0.000000 rotate
0.000000 0.000000 m /one glyphshow
6.362305 0.000000 m /five glyphshow
grestore
gsave
/o {
gsave
newpath
translate
0.5 setlinewidth
1 setlinejoin
0 setlinecap
0 0 m
0 4 l
gsave
0.000 setgray
fill
grestore
stroke
grestore
} bind def
277.2 36 o
grestore
gsave
/o {
gsave
newpath
translate
0.5 setlinewidth
1 setlinejoin
0 setlinecap
0 0 m
0 -4 l
gsave
0.000 setgray
fill
grestore
stroke
grestore
} bind def
277.2 259.2 o
grestore
gsave
271.535937 24.406250 translate
0.000000 rotate
0.000000 0.000000 m /two glyphshow
6.362305 0.000000 m /zero glyphshow
grestore
gsave
/o {
gsave
newpath
translate
0.5 setlinewidth
1 setlinejoin
0 setlinecap
0 0 m
0 4 l
gsave
0.000 setgray
fill
grestore
stroke
grestore
} bind def
333 36 o
grestore
gsave
/o {
gsave
newpath
translate
0.5 setlinewidth
1 setlinejoin
0 setlinecap
0 0 m
0 -4 l
gsave
0.000 setgray
fill
grestore
stroke
grestore
} bind def
333 259.2 o
grestore
gsave
327.445312 24.406250 translate
0.000000 rotate
0.000000 0.000000 m /two glyphshow
6.362305 0.000000 m /five glyphshow
grestore
gsave
/o {
gsave
newpath
translate
0.5 setlinewidth
1 setlinejoin
0 setlinecap
0 0 m
0 4 l
gsave
0.000 setgray
fill
grestore
stroke
grestore
} bind def
388.8 36 o
grestore
gsave
/o {
gsave
newpath
translate
0.5 setlinewidth
1 setlinejoin
0 setlinecap
0 0 m
0 -4 l
gsave
0.000 setgray
fill
grestore
stroke
grestore
} bind def
388.8 259.2 o
grestore
gsave
383.151563 24.406250 translate
0.000000 rotate
0.000000 0.000000 m /three glyphshow
6.362305 0.000000 m /zero glyphshow
grestore
gsave
194.603125 9.734375 translate
0.000000 rotate
0.000000 0.000000 m /T glyphshow
5.858398 0.000000 m /i glyphshow
8.636719 0.000000 m /m glyphshow
18.377930 0.000000 m /e glyphshow
24.530273 0.000000 m /space glyphshow
27.708984 0.000000 m /parenleft glyphshow
31.610352 0.000000 m /m glyphshow
41.351562 0.000000 m /i glyphshow
44.129883 0.000000 m /n glyphshow
50.467773 0.000000 m /parenright glyphshow
grestore
gsave
/o {
gsave
newpath
translate
0.5 setlinewidth
1 setlinejoin
0 setlinecap
0 0 m
4 0 l
gsave
0.000 setgray
fill
grestore
stroke
grestore
} bind def
54 36 o
grestore
gsave
/o {
gsave
newpath
translate
0.5 setlinewidth
1 setlinejoin
0 setlinecap
0 0 m
-4 0 l
gsave
0.000 setgray
fill
grestore
stroke
grestore
} bind def
388.8 36 o
grestore
gsave
45.375000 33.242188 translate
0.000000 rotate
0.000000 0.000000 m /two glyphshow
grestore
gsave
/o {
gsave
newpath
translate
0.5 setlinewidth
1 setlinejoin
0 setlinecap
0 0 m
4 0 l
gsave
0.000 setgray
fill
grestore
stroke
grestore
} bind def
54 91.8 o
grestore
gsave
/o {
gsave
newpath
translate
0.5 setlinewidth
1 setlinejoin
0 setlinecap
0 0 m
-4 0 l
gsave
0.000 setgray
fill
grestore
stroke
grestore
} bind def
388.8 91.8 o
grestore
gsave
44.687500 89.042187 translate
0.000000 rotate
0.000000 0.000000 m /four glyphshow
grestore
gsave
/o {
gsave
newpath
translate
0.5 setlinewidth
1 setlinejoin
0 setlinecap
0 0 m
4 0 l
gsave
0.000 setgray
fill
grestore
stroke
grestore
} bind def
54 147.6 o
grestore
gsave
/o {
gsave
newpath
translate
0.5 setlinewidth
1 setlinejoin
0 setlinecap
0 0 m
-4 0 l
gsave
0.000 setgray
fill
grestore
stroke
grestore
} bind def
388.8 147.6 o
grestore
gsave
44.968750 144.842187 translate
0.000000 rotate
0.000000 0.000000 m /six glyphshow
grestore
gsave
/o {
gsave
newpath
translate
0.5 setlinewidth
1 setlinejoin
0 setlinecap
0 0 m
4 0 l
gsave
0.000 setgray
fill
grestore
stroke
grestore
} bind def
54 203.4 o
grestore
gsave
/o {
gsave
newpath
translate
0.5 setlinewidth
1 setlinejoin
0 setlinecap
0 0 m
-4 0 l
gsave
0.000 setgray
fill
grestore
stroke
grestore
} bind def
388.8 203.4 o
grestore
gsave
45.000000 200.642187 translate
0.000000 rotate
0.000000 0.000000 m /eight glyphshow
grestore
gsave
/o {
gsave
newpath
translate
0.5 setlinewidth
1 setlinejoin
0 setlinecap
0 0 m
4 0 l
gsave
0.000 setgray
fill
grestore
stroke
grestore
} bind def
54 259.2 o
grestore
gsave
/o {
gsave
newpath
translate
0.5 setlinewidth
1 setlinejoin
0 setlinecap
0 0 m
-4 0 l
gsave
0.000 setgray
fill
grestore
stroke
grestore
} bind def
388.8 259.2 o
grestore
gsave
39.031250 256.442187 translate
0.000000 rotate
0.000000 0.000000 m /one glyphshow
6.362305 0.000000 m /zero glyphshow
grestore
gsave
31.953125 128.826562 translate
90.000000 rotate
0.000000 0.000000 m /E glyphshow
6.318359 0.000000 m /n glyphshow
12.656250 0.000000 m /t glyphshow
16.577148 0.000000 m /r glyphshow
20.438477 0.000000 m /o glyphshow
26.556641 0.000000 m /p glyphshow
32.904297 0.000000 m /y glyphshow
grestore
1.000 setlinewidth
0 setlinejoin
0.300 setgray
gsave
227.063 194.725 m
382.4 194.725 l
384 194.725 384.8 195.525 384.8 197.125 c
384.8 248.8 l
384.8 250.4 384 251.2 382.4 251.2 c
227.063 251.2 l
225.463 251.2 224.663 250.4 224.663 248.8 c
224.663 197.125 l
224.663 195.525 225.463 194.725 227.063 194.725 c
cl
gsave
fill
grestore
stroke
grestore
0.000 setgray
gsave
225.063 196.725 m
380.4 196.725 l
382 196.725 382.8 197.525 382.8 199.125 c
382.8 250.8 l
382.8 252.4 382 253.2 380.4 253.2 c
225.063 253.2 l
223.463 253.2 222.663 252.4 222.663 250.8 c
222.663 199.125 l
222.663 197.525 223.463 196.725 225.063 196.725 c
cl
gsave
1.000 setgray
fill
grestore
stroke
grestore
1 setlinejoin
[1 3] 0 setdash
0.000 0.000 1.000 setrgbcolor
gsave
231.063 243.475 m
247.863 243.475 l
stroke
grestore
0.000 setgray
/BitstreamVeraSans-Roman findfont
12.000 scalefont
setfont
gsave
261.062500 239.275000 translate
0.000000 rotate
0.000000 0.000000 m /R glyphshow
8.087891 0.000000 m /a glyphshow
15.441406 0.000000 m /n glyphshow
23.046875 0.000000 m /d glyphshow
30.664062 0.000000 m /o glyphshow
38.005859 0.000000 m /m glyphshow
49.695312 0.000000 m /space glyphshow
53.509766 0.000000 m /p glyphshow
61.126953 0.000000 m /l glyphshow
64.460938 0.000000 m /a glyphshow
71.814453 0.000000 m /c glyphshow
78.412109 0.000000 m /e glyphshow
85.794922 0.000000 m /m glyphshow
97.484375 0.000000 m /e glyphshow
104.867188 0.000000 m /n glyphshow
112.472656 0.000000 m /t glyphshow
grestore
0.500 setlinewidth
0 setlinejoin
[] 0 setdash
gsave
/o {
gsave
newpath
translate
0.5 setlinewidth
0 setlinejoin
0 setlinecap
-2.77556e-16 -3.53553 m
3.53553 0 l
1.66533e-16 3.53553 l
-3.53553 4.44089e-16 l
cl
gsave
1.000 0.000 0.000 setrgbcolor
fill
grestore
stroke
grestore
} bind def
231.063 225.85 o
247.863 225.85 o
grestore
gsave
261.062500 221.650000 translate
0.000000 rotate
0.000000 0.000000 m /M glyphshow
10.353516 0.000000 m /I glyphshow
13.892578 0.000000 m /space glyphshow
17.707031 0.000000 m /v glyphshow
24.808594 0.000000 m /i glyphshow
28.142578 0.000000 m /a glyphshow
35.496094 0.000000 m /space glyphshow
39.310547 0.000000 m /g glyphshow
46.927734 0.000000 m /r glyphshow
51.861328 0.000000 m /i glyphshow
55.195312 0.000000 m /d glyphshow
62.812500 0.000000 m /s glyphshow
grestore
gsave
/o {
gsave
newpath
translate
0.5 setlinewidth
0 setlinejoin
0 setlinecap
-2.77556e-16 -3.53553 m
3.53553 0 l
1.66533e-16 3.53553 l
-3.53553 4.44089e-16 l
cl
gsave
0.000 0.500 0.000 setrgbcolor
fill
grestore
stroke
grestore
} bind def
231.063 208.225 o
247.863 208.225 o
grestore
gsave
261.062500 204.025000 translate
0.000000 rotate
0.000000 0.000000 m /M glyphshow
10.353516 0.000000 m /I glyphshow
13.892578 0.000000 m /space glyphshow
17.707031 0.000000 m /v glyphshow
24.808594 0.000000 m /i glyphshow
28.142578 0.000000 m /a glyphshow
35.496094 0.000000 m /space glyphshow
39.310547 0.000000 m /B glyphshow
47.542969 0.000000 m /a glyphshow
54.896484 0.000000 m /y glyphshow
61.998047 0.000000 m /e glyphshow
69.380859 0.000000 m /s glyphshow
75.632812 0.000000 m /space glyphshow
79.447266 0.000000 m /O glyphshow
88.892578 0.000000 m /p glyphshow
96.509766 0.000000 m /t glyphshow
grestore

end
showpage
