%!PS-Adobe-3.0 EPSF-3.0
%%Title: EnKFupdate100.eps
%%Creator: matplotlib version 1.4.3, http://matplotlib.org/
%%CreationDate: Sun Dec 13 23:43:55 2015
%%Orientation: portrait
%%BoundingBox: 90 252 522 540
%%EndComments
%%BeginProlog
/mpldict 8 dict def
mpldict begin
/m { moveto } bind def
/l { lineto } bind def
/r { rlineto } bind def
/c { curveto } bind def
/cl { closepath } bind def
/box {
m
1 index 0 r
0 exch r
neg 0 r
cl
} bind def
/clipbox {
box
clip
newpath
} bind def
%!PS-Adobe-3.0 Resource-Font
%%Title: Bitstream Vera Sans
%%Copyright: Copyright (c) 2003 by Bitstream, Inc. All Rights Reserved.
%%Creator: Converted from TrueType to type 3 by PPR
25 dict begin
/_d{bind def}bind def
/_m{moveto}_d
/_l{lineto}_d
/_cl{closepath eofill}_d
/_c{curveto}_d
/_sc{7 -1 roll{setcachedevice}{pop pop pop pop pop pop}ifelse}_d
/_e{exec}_d
/FontName /BitstreamVeraSans-Roman def
/PaintType 0 def
/FontMatrix[.001 0 0 .001 0 0]def
/FontBBox[-183 -236 1287 928]def
/FontType 3 def
/Encoding [ /space /parenleft /parenright /period /zero /one /two /three /four /five /six /eight /equal /F /I /R /a /b /c /d /e /i /k /l /m /n /o /q /r /s /t /u /y /minus ] def
/FontInfo 10 dict dup begin
/FamilyName (Bitstream Vera Sans) def
/FullName (Bitstream Vera Sans) def
/Notice (Copyright (c) 2003 by Bitstream, Inc. All Rights Reserved. Bitstream Vera is a trademark of Bitstream, Inc.) def
/Weight (Roman) def
/Version (Release 1.10) def
/ItalicAngle 0.0 def
/isFixedPitch false def
/UnderlinePosition -213 def
/UnderlineThickness 143 def
end readonly def
/CharStrings 34 dict dup begin
/space{318 0 0 0 0 0 _sc
}_d
/parenleft{390 0 86 -131 310 759 _sc
310 759 _m
266 683 234 609 213 536 _c
191 463 181 389 181 314 _c
181 238 191 164 213 91 _c
234 17 266 -56 310 -131 _c
232 -131 _l
183 -54 146 20 122 94 _c
98 168 86 241 86 314 _c
86 386 98 459 122 533 _c
146 607 182 682 232 759 _c
310 759 _l
_cl}_d
/parenright{390 0 80 -131 304 759 _sc
80 759 _m
158 759 _l
206 682 243 607 267 533 _c
291 459 304 386 304 314 _c
304 241 291 168 267 94 _c
243 20 206 -54 158 -131 _c
80 -131 _l
123 -56 155 17 177 91 _c
198 164 209 238 209 314 _c
209 389 198 463 177 536 _c
155 609 123 683 80 759 _c
_cl}_d
/period{318 0 107 0 210 124 _sc
107 124 _m
210 124 _l
210 0 _l
107 0 _l
107 124 _l
_cl}_d
/zero{636 0 66 -13 570 742 _sc
318 664 _m
267 664 229 639 203 589 _c
177 539 165 464 165 364 _c
165 264 177 189 203 139 _c
229 89 267 64 318 64 _c
369 64 407 89 433 139 _c
458 189 471 264 471 364 _c
471 464 458 539 433 589 _c
407 639 369 664 318 664 _c
318 742 _m
399 742 461 709 505 645 _c
548 580 570 486 570 364 _c
570 241 548 147 505 83 _c
461 19 399 -13 318 -13 _c
236 -13 173 19 130 83 _c
87 147 66 241 66 364 _c
66 486 87 580 130 645 _c
173 709 236 742 318 742 _c
_cl}_d
/one{636 0 110 0 544 729 _sc
124 83 _m
285 83 _l
285 639 _l
110 604 _l
110 694 _l
284 729 _l
383 729 _l
383 83 _l
544 83 _l
544 0 _l
124 0 _l
124 83 _l
_cl}_d
/two{{636 0 73 0 536 742 _sc
192 83 _m
536 83 _l
536 0 _l
73 0 _l
73 83 _l
110 121 161 173 226 239 _c
290 304 331 346 348 365 _c
380 400 402 430 414 455 _c
426 479 433 504 433 528 _c
433 566 419 598 392 622 _c
365 646 330 659 286 659 _c
255 659 222 653 188 643 _c
154 632 117 616 78 594 _c
78 694 _l
118 710 155 722 189 730 _c
223 738 255 742 284 742 _c
}_e{359 742 419 723 464 685 _c
509 647 532 597 532 534 _c
532 504 526 475 515 449 _c
504 422 484 390 454 354 _c
446 344 420 317 376 272 _c
332 227 271 164 192 83 _c
_cl}_e}_d
/three{{636 0 76 -13 556 742 _sc
406 393 _m
453 383 490 362 516 330 _c
542 298 556 258 556 212 _c
556 140 531 84 482 45 _c
432 6 362 -13 271 -13 _c
240 -13 208 -10 176 -4 _c
144 1 110 10 76 22 _c
76 117 _l
103 101 133 89 166 81 _c
198 73 232 69 268 69 _c
330 69 377 81 409 105 _c
441 129 458 165 458 212 _c
458 254 443 288 413 312 _c
383 336 341 349 287 349 _c
}_e{202 349 _l
202 430 _l
291 430 _l
339 430 376 439 402 459 _c
428 478 441 506 441 543 _c
441 580 427 609 401 629 _c
374 649 336 659 287 659 _c
260 659 231 656 200 650 _c
169 644 135 635 98 623 _c
98 711 _l
135 721 170 729 203 734 _c
235 739 266 742 296 742 _c
370 742 429 725 473 691 _c
517 657 539 611 539 553 _c
539 513 527 479 504 451 _c
481 423 448 403 406 393 _c
_cl}_e}_d
/four{636 0 49 0 580 729 _sc
378 643 _m
129 254 _l
378 254 _l
378 643 _l
352 729 _m
476 729 _l
476 254 _l
580 254 _l
580 172 _l
476 172 _l
476 0 _l
378 0 _l
378 172 _l
49 172 _l
49 267 _l
352 729 _l
_cl}_d
/five{{636 0 77 -13 549 729 _sc
108 729 _m
495 729 _l
495 646 _l
198 646 _l
198 467 _l
212 472 227 476 241 478 _c
255 480 270 482 284 482 _c
365 482 429 459 477 415 _c
525 370 549 310 549 234 _c
549 155 524 94 475 51 _c
426 8 357 -13 269 -13 _c
238 -13 207 -10 175 -6 _c
143 -1 111 6 77 17 _c
77 116 _l
106 100 136 88 168 80 _c
199 72 232 69 267 69 _c
}_e{323 69 368 83 401 113 _c
433 143 450 183 450 234 _c
450 284 433 324 401 354 _c
368 384 323 399 267 399 _c
241 399 214 396 188 390 _c
162 384 135 375 108 363 _c
108 729 _l
_cl}_e}_d
/six{{636 0 70 -13 573 742 _sc
330 404 _m
286 404 251 388 225 358 _c
199 328 186 286 186 234 _c
186 181 199 139 225 109 _c
251 79 286 64 330 64 _c
374 64 409 79 435 109 _c
461 139 474 181 474 234 _c
474 286 461 328 435 358 _c
409 388 374 404 330 404 _c
526 713 _m
526 623 _l
501 635 476 644 451 650 _c
425 656 400 659 376 659 _c
310 659 260 637 226 593 _c
}_e{192 549 172 482 168 394 _c
187 422 211 444 240 459 _c
269 474 301 482 336 482 _c
409 482 467 459 509 415 _c
551 371 573 310 573 234 _c
573 159 550 99 506 54 _c
462 9 403 -13 330 -13 _c
246 -13 181 19 137 83 _c
92 147 70 241 70 364 _c
70 479 97 571 152 639 _c
206 707 280 742 372 742 _c
396 742 421 739 447 735 _c
472 730 498 723 526 713 _c
_cl}_e}_d
/eight{{636 0 68 -13 568 742 _sc
318 346 _m
271 346 234 333 207 308 _c
180 283 167 249 167 205 _c
167 161 180 126 207 101 _c
234 76 271 64 318 64 _c
364 64 401 76 428 102 _c
455 127 469 161 469 205 _c
469 249 455 283 429 308 _c
402 333 365 346 318 346 _c
219 388 _m
177 398 144 418 120 447 _c
96 476 85 511 85 553 _c
85 611 105 657 147 691 _c
188 725 245 742 318 742 _c
}_e{390 742 447 725 489 691 _c
530 657 551 611 551 553 _c
551 511 539 476 515 447 _c
491 418 459 398 417 388 _c
464 377 501 355 528 323 _c
554 291 568 251 568 205 _c
568 134 546 80 503 43 _c
459 5 398 -13 318 -13 _c
237 -13 175 5 132 43 _c
89 80 68 134 68 205 _c
68 251 81 291 108 323 _c
134 355 171 377 219 388 _c
183 544 _m
183 506 194 476 218 455 _c
}_e{242 434 275 424 318 424 _c
360 424 393 434 417 455 _c
441 476 453 506 453 544 _c
453 582 441 611 417 632 _c
393 653 360 664 318 664 _c
275 664 242 653 218 632 _c
194 611 183 582 183 544 _c
_cl}_e}_d
/equal{838 0 106 172 732 454 _sc
106 454 _m
732 454 _l
732 372 _l
106 372 _l
106 454 _l
106 255 _m
732 255 _l
732 172 _l
106 172 _l
106 255 _l
_cl}_d
/F{575 0 98 0 517 729 _sc
98 729 _m
517 729 _l
517 646 _l
197 646 _l
197 431 _l
486 431 _l
486 348 _l
197 348 _l
197 0 _l
98 0 _l
98 729 _l
_cl}_d
/I{295 0 98 0 197 729 _sc
98 729 _m
197 729 _l
197 0 _l
98 0 _l
98 729 _l
_cl}_d
/R{{695 0 98 0 666 729 _sc
444 342 _m
465 334 486 319 506 296 _c
526 272 546 240 566 199 _c
666 0 _l
560 0 _l
467 187 _l
443 235 419 268 397 284 _c
374 300 343 308 304 308 _c
197 308 _l
197 0 _l
98 0 _l
98 729 _l
321 729 _l
404 729 466 711 507 677 _c
548 642 569 589 569 519 _c
569 473 558 434 537 404 _c
515 374 484 353 444 342 _c
197 648 _m
197 389 _l
321 389 _l
}_e{368 389 404 400 428 422 _c
452 444 465 476 465 519 _c
465 561 452 593 428 615 _c
404 637 368 648 321 648 _c
197 648 _l
_cl}_e}_d
/a{{613 0 60 -13 522 560 _sc
343 275 _m
270 275 220 266 192 250 _c
164 233 150 205 150 165 _c
150 133 160 107 181 89 _c
202 70 231 61 267 61 _c
317 61 357 78 387 114 _c
417 149 432 196 432 255 _c
432 275 _l
343 275 _l
522 312 _m
522 0 _l
432 0 _l
432 83 _l
411 49 385 25 355 10 _c
325 -5 287 -13 243 -13 _c
187 -13 142 2 109 33 _c
76 64 60 106 60 159 _c
}_e{60 220 80 266 122 298 _c
163 329 224 345 306 345 _c
432 345 _l
432 354 _l
432 395 418 427 391 450 _c
364 472 326 484 277 484 _c
245 484 215 480 185 472 _c
155 464 127 453 100 439 _c
100 522 _l
132 534 164 544 195 550 _c
226 556 256 560 286 560 _c
365 560 424 539 463 498 _c
502 457 522 395 522 312 _c
_cl}_e}_d
/b{{635 0 91 -13 580 760 _sc
487 273 _m
487 339 473 390 446 428 _c
418 466 381 485 334 485 _c
286 485 249 466 222 428 _c
194 390 181 339 181 273 _c
181 207 194 155 222 117 _c
249 79 286 61 334 61 _c
381 61 418 79 446 117 _c
473 155 487 207 487 273 _c
181 464 _m
199 496 223 520 252 536 _c
281 552 316 560 356 560 _c
422 560 476 533 518 481 _c
559 428 580 359 580 273 _c
}_e{580 187 559 117 518 65 _c
476 13 422 -13 356 -13 _c
316 -13 281 -5 252 10 _c
223 25 199 49 181 82 _c
181 0 _l
91 0 _l
91 760 _l
181 760 _l
181 464 _l
_cl}_e}_d
/c{{550 0 55 -13 488 560 _sc
488 526 _m
488 442 _l
462 456 437 466 411 473 _c
385 480 360 484 334 484 _c
276 484 230 465 198 428 _c
166 391 150 339 150 273 _c
150 206 166 154 198 117 _c
230 80 276 62 334 62 _c
360 62 385 65 411 72 _c
437 79 462 90 488 104 _c
488 21 _l
462 9 436 0 410 -5 _c
383 -10 354 -13 324 -13 _c
242 -13 176 12 128 64 _c
}_e{79 115 55 185 55 273 _c
55 362 79 432 128 483 _c
177 534 244 560 330 560 _c
358 560 385 557 411 551 _c
437 545 463 537 488 526 _c
_cl}_e}_d
/d{{635 0 55 -13 544 760 _sc
454 464 _m
454 760 _l
544 760 _l
544 0 _l
454 0 _l
454 82 _l
435 49 411 25 382 10 _c
353 -5 319 -13 279 -13 _c
213 -13 159 13 117 65 _c
75 117 55 187 55 273 _c
55 359 75 428 117 481 _c
159 533 213 560 279 560 _c
319 560 353 552 382 536 _c
411 520 435 496 454 464 _c
148 273 _m
148 207 161 155 188 117 _c
215 79 253 61 301 61 _c
}_e{348 61 385 79 413 117 _c
440 155 454 207 454 273 _c
454 339 440 390 413 428 _c
385 466 348 485 301 485 _c
253 485 215 466 188 428 _c
161 390 148 339 148 273 _c
_cl}_e}_d
/e{{615 0 55 -13 562 560 _sc
562 296 _m
562 252 _l
149 252 _l
153 190 171 142 205 110 _c
238 78 284 62 344 62 _c
378 62 412 66 444 74 _c
476 82 509 95 541 113 _c
541 28 _l
509 14 476 3 442 -3 _c
408 -9 373 -13 339 -13 _c
251 -13 182 12 131 62 _c
80 112 55 181 55 268 _c
55 357 79 428 127 481 _c
175 533 241 560 323 560 _c
397 560 455 536 498 489 _c
}_e{540 441 562 377 562 296 _c
472 322 _m
471 371 457 410 431 440 _c
404 469 368 484 324 484 _c
274 484 234 469 204 441 _c
174 413 156 373 152 322 _c
472 322 _l
_cl}_e}_d
/i{278 0 94 0 184 760 _sc
94 547 _m
184 547 _l
184 0 _l
94 0 _l
94 547 _l
94 760 _m
184 760 _l
184 646 _l
94 646 _l
94 760 _l
_cl}_d
/k{579 0 91 0 576 760 _sc
91 760 _m
181 760 _l
181 311 _l
449 547 _l
564 547 _l
274 291 _l
576 0 _l
459 0 _l
181 267 _l
181 0 _l
91 0 _l
91 760 _l
_cl}_d
/l{278 0 94 0 184 760 _sc
94 760 _m
184 760 _l
184 0 _l
94 0 _l
94 760 _l
_cl}_d
/m{{974 0 91 0 889 560 _sc
520 442 _m
542 482 569 511 600 531 _c
631 550 668 560 711 560 _c
767 560 811 540 842 500 _c
873 460 889 403 889 330 _c
889 0 _l
799 0 _l
799 327 _l
799 379 789 418 771 444 _c
752 469 724 482 686 482 _c
639 482 602 466 575 435 _c
548 404 535 362 535 309 _c
535 0 _l
445 0 _l
445 327 _l
445 379 435 418 417 444 _c
398 469 369 482 331 482 _c
}_e{285 482 248 466 221 435 _c
194 404 181 362 181 309 _c
181 0 _l
91 0 _l
91 547 _l
181 547 _l
181 462 _l
201 495 226 520 255 536 _c
283 552 317 560 357 560 _c
397 560 430 550 458 530 _c
486 510 506 480 520 442 _c
_cl}_e}_d
/n{634 0 91 0 549 560 _sc
549 330 _m
549 0 _l
459 0 _l
459 327 _l
459 379 448 417 428 443 _c
408 469 378 482 338 482 _c
289 482 251 466 223 435 _c
195 404 181 362 181 309 _c
181 0 _l
91 0 _l
91 547 _l
181 547 _l
181 462 _l
202 494 227 519 257 535 _c
286 551 320 560 358 560 _c
420 560 468 540 500 501 _c
532 462 549 405 549 330 _c
_cl}_d
/o{612 0 55 -13 557 560 _sc
306 484 _m
258 484 220 465 192 427 _c
164 389 150 338 150 273 _c
150 207 163 156 191 118 _c
219 80 257 62 306 62 _c
354 62 392 80 420 118 _c
448 156 462 207 462 273 _c
462 337 448 389 420 427 _c
392 465 354 484 306 484 _c
306 560 _m
384 560 445 534 490 484 _c
534 433 557 363 557 273 _c
557 183 534 113 490 63 _c
445 12 384 -13 306 -13 _c
227 -13 165 12 121 63 _c
77 113 55 183 55 273 _c
55 363 77 433 121 484 _c
165 534 227 560 306 560 _c
_cl}_d
/q{{635 0 55 -207 544 560 _sc
148 273 _m
148 207 161 155 188 117 _c
215 79 253 61 301 61 _c
348 61 385 79 413 117 _c
440 155 454 207 454 273 _c
454 339 440 390 413 428 _c
385 466 348 485 301 485 _c
253 485 215 466 188 428 _c
161 390 148 339 148 273 _c
454 82 _m
435 49 411 25 382 10 _c
353 -5 319 -13 279 -13 _c
213 -13 159 13 117 65 _c
75 117 55 187 55 273 _c
}_e{55 359 75 428 117 481 _c
159 533 213 560 279 560 _c
319 560 353 552 382 536 _c
411 520 435 496 454 464 _c
454 547 _l
544 547 _l
544 -207 _l
454 -207 _l
454 82 _l
_cl}_e}_d
/r{411 0 91 0 411 560 _sc
411 463 _m
401 469 390 473 378 476 _c
366 478 353 480 339 480 _c
288 480 249 463 222 430 _c
194 397 181 350 181 288 _c
181 0 _l
91 0 _l
91 547 _l
181 547 _l
181 462 _l
199 495 224 520 254 536 _c
284 552 321 560 365 560 _c
371 560 378 559 386 559 _c
393 558 401 557 411 555 _c
411 463 _l
_cl}_d
/s{{521 0 54 -13 472 560 _sc
443 531 _m
443 446 _l
417 458 391 468 364 475 _c
336 481 308 485 279 485 _c
234 485 200 478 178 464 _c
156 450 145 430 145 403 _c
145 382 153 366 169 354 _c
185 342 217 330 265 320 _c
296 313 _l
360 299 405 279 432 255 _c
458 230 472 195 472 151 _c
472 100 452 60 412 31 _c
372 1 316 -13 246 -13 _c
216 -13 186 -10 154 -5 _c
}_e{122 0 89 8 54 20 _c
54 113 _l
87 95 120 82 152 74 _c
184 65 216 61 248 61 _c
290 61 323 68 346 82 _c
368 96 380 117 380 144 _c
380 168 371 187 355 200 _c
339 213 303 226 247 238 _c
216 245 _l
160 257 119 275 95 299 _c
70 323 58 356 58 399 _c
58 450 76 490 112 518 _c
148 546 200 560 268 560 _c
301 560 332 557 362 552 _c
391 547 418 540 443 531 _c
}_e{_cl}_e}_d
/t{392 0 27 0 368 702 _sc
183 702 _m
183 547 _l
368 547 _l
368 477 _l
183 477 _l
183 180 _l
183 135 189 106 201 94 _c
213 81 238 75 276 75 _c
368 75 _l
368 0 _l
276 0 _l
206 0 158 13 132 39 _c
106 65 93 112 93 180 _c
93 477 _l
27 477 _l
27 547 _l
93 547 _l
93 702 _l
183 702 _l
_cl}_d
/u{634 0 85 -13 543 547 _sc
85 216 _m
85 547 _l
175 547 _l
175 219 _l
175 167 185 129 205 103 _c
225 77 255 64 296 64 _c
344 64 383 79 411 110 _c
439 141 453 183 453 237 _c
453 547 _l
543 547 _l
543 0 _l
453 0 _l
453 84 _l
431 50 405 26 377 10 _c
348 -5 315 -13 277 -13 _c
214 -13 166 6 134 45 _c
101 83 85 140 85 216 _c
_cl}_d
/y{592 0 30 -207 562 547 _sc
322 -50 _m
296 -114 271 -157 247 -177 _c
223 -197 191 -207 151 -207 _c
79 -207 _l
79 -132 _l
132 -132 _l
156 -132 175 -126 189 -114 _c
203 -102 218 -75 235 -31 _c
251 9 _l
30 547 _l
125 547 _l
296 119 _l
467 547 _l
562 547 _l
322 -50 _l
_cl}_d
/minus{838 0 106 272 732 355 _sc
106 355 _m
732 355 _l
732 272 _l
106 272 _l
106 355 _l
_cl}_d
end readonly def

/BuildGlyph
 {exch begin
 CharStrings exch
 2 copy known not{pop /.notdef}if
 true 3 1 roll get exec
 end}_d

/BuildChar {
 1 index /Encoding get exch get
 1 index /BuildGlyph get exec
}_d

FontName currentdict end definefont pop
end
%%EndProlog
mpldict begin
90 252 translate
432 288 0 0 clipbox
gsave
0 0 m
432 0 l
432 288 l
0 288 l
cl
1.000 setgray
fill
grestore
gsave
40.3875 176.4 m
199.223 176.4 l
199.223 263.2 l
40.3875 263.2 l
cl
1.000 setgray
fill
grestore
1.000 setlinewidth
0 setlinejoin
0 setlinecap
[] 0 setdash
0.000 setgray
gsave
158.8 86.8 40.39 176.4 clipbox
40.5331 176.4 m
45.82 176.4 l
45.82 216.907 l
40.5331 216.907 l
cl
gsave
0.000 0.000 1.000 setrgbcolor
fill
grestore
stroke
grestore
gsave
158.8 86.8 40.39 176.4 clipbox
45.82 176.4 m
51.1069 176.4 l
51.1069 228.48 l
45.82 228.48 l
cl
gsave
0.000 0.000 1.000 setrgbcolor
fill
grestore
stroke
grestore
gsave
158.8 86.8 40.39 176.4 clipbox
51.1069 176.4 m
56.3938 176.4 l
56.3938 229.927 l
51.1069 229.927 l
cl
gsave
0.000 0.000 1.000 setrgbcolor
fill
grestore
stroke
grestore
gsave
158.8 86.8 40.39 176.4 clipbox
56.3938 176.4 m
61.6807 176.4 l
61.6807 224.14 l
56.3938 224.14 l
cl
gsave
0.000 0.000 1.000 setrgbcolor
fill
grestore
stroke
grestore
gsave
158.8 86.8 40.39 176.4 clipbox
61.6807 176.4 m
66.9676 176.4 l
66.9676 221.247 l
61.6807 221.247 l
cl
gsave
0.000 0.000 1.000 setrgbcolor
fill
grestore
stroke
grestore
gsave
158.8 86.8 40.39 176.4 clipbox
66.9676 176.4 m
72.2545 176.4 l
72.2545 232.82 l
66.9676 232.82 l
cl
gsave
0.000 0.000 1.000 setrgbcolor
fill
grestore
stroke
grestore
gsave
158.8 86.8 40.39 176.4 clipbox
72.2545 176.4 m
77.5415 176.4 l
77.5415 234.267 l
72.2545 234.267 l
cl
gsave
0.000 0.000 1.000 setrgbcolor
fill
grestore
stroke
grestore
gsave
158.8 86.8 40.39 176.4 clipbox
77.5415 176.4 m
82.8284 176.4 l
82.8284 227.033 l
77.5415 227.033 l
cl
gsave
0.000 0.000 1.000 setrgbcolor
fill
grestore
stroke
grestore
gsave
158.8 86.8 40.39 176.4 clipbox
82.8284 176.4 m
88.1153 176.4 l
88.1153 222.693 l
82.8284 222.693 l
cl
gsave
0.000 0.000 1.000 setrgbcolor
fill
grestore
stroke
grestore
gsave
158.8 86.8 40.39 176.4 clipbox
88.1153 176.4 m
93.4022 176.4 l
93.4022 221.247 l
88.1153 221.247 l
cl
gsave
0.000 0.000 1.000 setrgbcolor
fill
grestore
stroke
grestore
gsave
158.8 86.8 40.39 176.4 clipbox
93.4022 176.4 m
98.6891 176.4 l
98.6891 221.247 l
93.4022 221.247 l
cl
gsave
0.000 0.000 1.000 setrgbcolor
fill
grestore
stroke
grestore
gsave
158.8 86.8 40.39 176.4 clipbox
98.6891 176.4 m
103.976 176.4 l
103.976 231.373 l
98.6891 231.373 l
cl
gsave
0.000 0.000 1.000 setrgbcolor
fill
grestore
stroke
grestore
gsave
158.8 86.8 40.39 176.4 clipbox
103.976 176.4 m
109.263 176.4 l
109.263 229.927 l
103.976 229.927 l
cl
gsave
0.000 0.000 1.000 setrgbcolor
fill
grestore
stroke
grestore
gsave
158.8 86.8 40.39 176.4 clipbox
109.263 176.4 m
114.55 176.4 l
114.55 225.587 l
109.263 225.587 l
cl
gsave
0.000 0.000 1.000 setrgbcolor
fill
grestore
stroke
grestore
gsave
158.8 86.8 40.39 176.4 clipbox
114.55 176.4 m
119.837 176.4 l
119.837 225.587 l
114.55 225.587 l
cl
gsave
0.000 0.000 1.000 setrgbcolor
fill
grestore
stroke
grestore
gsave
158.8 86.8 40.39 176.4 clipbox
119.837 176.4 m
125.124 176.4 l
125.124 214.013 l
119.837 214.013 l
cl
gsave
0.000 0.000 1.000 setrgbcolor
fill
grestore
stroke
grestore
gsave
158.8 86.8 40.39 176.4 clipbox
125.124 176.4 m
130.411 176.4 l
130.411 235.713 l
125.124 235.713 l
cl
gsave
0.000 0.000 1.000 setrgbcolor
fill
grestore
stroke
grestore
gsave
158.8 86.8 40.39 176.4 clipbox
130.411 176.4 m
135.697 176.4 l
135.697 218.353 l
130.411 218.353 l
cl
gsave
0.000 0.000 1.000 setrgbcolor
fill
grestore
stroke
grestore
gsave
158.8 86.8 40.39 176.4 clipbox
135.697 176.4 m
140.984 176.4 l
140.984 231.373 l
135.697 231.373 l
cl
gsave
0.000 0.000 1.000 setrgbcolor
fill
grestore
stroke
grestore
gsave
158.8 86.8 40.39 176.4 clipbox
140.984 176.4 m
146.271 176.4 l
146.271 225.587 l
140.984 225.587 l
cl
gsave
0.000 0.000 1.000 setrgbcolor
fill
grestore
stroke
grestore
gsave
158.8 86.8 40.39 176.4 clipbox
146.271 176.4 m
151.558 176.4 l
151.558 234.267 l
146.271 234.267 l
cl
gsave
0.000 0.000 1.000 setrgbcolor
fill
grestore
stroke
grestore
gsave
158.8 86.8 40.39 176.4 clipbox
151.558 176.4 m
156.845 176.4 l
156.845 219.8 l
151.558 219.8 l
cl
gsave
0.000 0.000 1.000 setrgbcolor
fill
grestore
stroke
grestore
gsave
158.8 86.8 40.39 176.4 clipbox
156.845 176.4 m
162.132 176.4 l
162.132 221.247 l
156.845 221.247 l
cl
gsave
0.000 0.000 1.000 setrgbcolor
fill
grestore
stroke
grestore
gsave
158.8 86.8 40.39 176.4 clipbox
162.132 176.4 m
167.419 176.4 l
167.419 221.247 l
162.132 221.247 l
cl
gsave
0.000 0.000 1.000 setrgbcolor
fill
grestore
stroke
grestore
gsave
158.8 86.8 40.39 176.4 clipbox
167.419 176.4 m
172.706 176.4 l
172.706 215.46 l
167.419 215.46 l
cl
gsave
0.000 0.000 1.000 setrgbcolor
fill
grestore
stroke
grestore
gsave
158.8 86.8 40.39 176.4 clipbox
172.706 176.4 m
177.993 176.4 l
177.993 215.46 l
172.706 215.46 l
cl
gsave
0.000 0.000 1.000 setrgbcolor
fill
grestore
stroke
grestore
gsave
158.8 86.8 40.39 176.4 clipbox
177.993 176.4 m
183.28 176.4 l
183.28 216.907 l
177.993 216.907 l
cl
gsave
0.000 0.000 1.000 setrgbcolor
fill
grestore
stroke
grestore
gsave
158.8 86.8 40.39 176.4 clipbox
183.28 176.4 m
188.567 176.4 l
188.567 214.013 l
183.28 214.013 l
cl
gsave
0.000 0.000 1.000 setrgbcolor
fill
grestore
stroke
grestore
gsave
158.8 86.8 40.39 176.4 clipbox
188.567 176.4 m
193.854 176.4 l
193.854 241.5 l
188.567 241.5 l
cl
gsave
0.000 0.000 1.000 setrgbcolor
fill
grestore
stroke
grestore
gsave
158.8 86.8 40.39 176.4 clipbox
193.854 176.4 m
199.14 176.4 l
199.14 221.247 l
193.854 221.247 l
cl
gsave
0.000 0.000 1.000 setrgbcolor
fill
grestore
stroke
grestore
1 setlinejoin
2 setlinecap
1.000 0.000 0.000 setrgbcolor
gsave
158.8 86.8 40.39 176.4 clipbox
85.6114 176.4 m
85.6114 241.5 l
stroke
grestore
0 setlinejoin
0.000 setgray
gsave
40.3875 263.2 m
199.223 263.2 l
stroke
grestore
gsave
199.223 176.4 m
199.223 263.2 l
stroke
grestore
gsave
40.3875 176.4 m
199.223 176.4 l
stroke
grestore
gsave
40.3875 176.4 m
40.3875 263.2 l
stroke
grestore
0.500 setlinewidth
1 setlinejoin
0 setlinecap
gsave
/o {
gsave
newpath
translate
0.5 setlinewidth
1 setlinejoin
0 setlinecap
0 0 m
0 4 l
gsave
0.000 setgray
fill
grestore
stroke
grestore
} bind def
40.3875 176.4 o
grestore
gsave
/o {
gsave
newpath
translate
0.5 setlinewidth
1 setlinejoin
0 setlinecap
0 0 m
0 -4 l
gsave
0.000 setgray
fill
grestore
stroke
grestore
} bind def
40.3875 263.2 o
grestore
/BitstreamVeraSans-Roman findfont
10.000 scalefont
setfont
gsave
33.950000 164.806250 translate
0.000000 rotate
0.000000 0.000000 m /minus glyphshow
8.378906 0.000000 m /three glyphshow
grestore
gsave
/o {
gsave
newpath
translate
0.5 setlinewidth
1 setlinejoin
0 setlinecap
0 0 m
0 4 l
gsave
0.000 setgray
fill
grestore
stroke
grestore
} bind def
119.805 176.4 o
grestore
gsave
/o {
gsave
newpath
translate
0.5 setlinewidth
1 setlinejoin
0 setlinecap
0 0 m
0 -4 l
gsave
0.000 setgray
fill
grestore
stroke
grestore
} bind def
119.805 263.2 o
grestore
gsave
117.282031 164.806250 translate
0.000000 rotate
0.000000 0.000000 m /zero glyphshow
grestore
gsave
/o {
gsave
newpath
translate
0.5 setlinewidth
1 setlinejoin
0 setlinecap
0 0 m
0 4 l
gsave
0.000 setgray
fill
grestore
stroke
grestore
} bind def
93.3328 176.4 o
grestore
gsave
/o {
gsave
newpath
translate
0.5 setlinewidth
1 setlinejoin
0 setlinecap
0 0 m
0 -4 l
gsave
0.000 setgray
fill
grestore
stroke
grestore
} bind def
93.3328 263.2 o
grestore
gsave
86.957813 164.806250 translate
0.000000 rotate
0.000000 0.000000 m /minus glyphshow
8.378906 0.000000 m /one glyphshow
grestore
gsave
/o {
gsave
newpath
translate
0.5 setlinewidth
1 setlinejoin
0 setlinecap
0 0 m
0 4 l
gsave
0.000 setgray
fill
grestore
stroke
grestore
} bind def
146.278 176.4 o
grestore
gsave
/o {
gsave
newpath
translate
0.5 setlinewidth
1 setlinejoin
0 setlinecap
0 0 m
0 -4 l
gsave
0.000 setgray
fill
grestore
stroke
grestore
} bind def
146.278 263.2 o
grestore
gsave
144.106250 164.806250 translate
0.000000 rotate
0.000000 0.000000 m /one glyphshow
grestore
gsave
/o {
gsave
newpath
translate
0.5 setlinewidth
1 setlinejoin
0 setlinecap
0 0 m
0 4 l
gsave
0.000 setgray
fill
grestore
stroke
grestore
} bind def
199.223 176.4 o
grestore
gsave
/o {
gsave
newpath
translate
0.5 setlinewidth
1 setlinejoin
0 setlinecap
0 0 m
0 -4 l
gsave
0.000 setgray
fill
grestore
stroke
grestore
} bind def
199.223 263.2 o
grestore
gsave
196.825000 164.806250 translate
0.000000 rotate
0.000000 0.000000 m /three glyphshow
grestore
gsave
64.399219 150.134375 translate
0.000000 rotate
0.000000 0.000000 m /space glyphshow
3.178711 0.000000 m /R glyphshow
9.626953 0.000000 m /e glyphshow
15.779297 0.000000 m /l glyphshow
18.557617 0.000000 m /e glyphshow
24.709961 0.000000 m /a glyphshow
30.837891 0.000000 m /s glyphshow
36.047852 0.000000 m /e glyphshow
42.200195 0.000000 m /space glyphshow
45.378906 0.000000 m /l glyphshow
48.157227 0.000000 m /o glyphshow
54.275391 0.000000 m /c glyphshow
59.773438 0.000000 m /a glyphshow
65.901367 0.000000 m /t glyphshow
69.822266 0.000000 m /i glyphshow
72.600586 0.000000 m /o glyphshow
78.718750 0.000000 m /n glyphshow
85.056641 0.000000 m /space glyphshow
88.235352 0.000000 m /parenleft glyphshow
92.136719 0.000000 m /k glyphshow
97.927734 0.000000 m /m glyphshow
107.668945 0.000000 m /parenright glyphshow
grestore
gsave
/o {
gsave
newpath
translate
0.5 setlinewidth
1 setlinejoin
0 setlinecap
0 0 m
4 0 l
gsave
0.000 setgray
fill
grestore
stroke
grestore
} bind def
40.3875 176.4 o
grestore
gsave
/o {
gsave
newpath
translate
0.5 setlinewidth
1 setlinejoin
0 setlinecap
0 0 m
-4 0 l
gsave
0.000 setgray
fill
grestore
stroke
grestore
} bind def
199.223 176.4 o
grestore
gsave
31.340625 173.642188 translate
0.000000 rotate
0.000000 0.000000 m /zero glyphshow
grestore
gsave
/o {
gsave
newpath
translate
0.5 setlinewidth
1 setlinejoin
0 setlinecap
0 0 m
4 0 l
gsave
0.000 setgray
fill
grestore
stroke
grestore
} bind def
40.3875 205.333 o
grestore
gsave
/o {
gsave
newpath
translate
0.5 setlinewidth
1 setlinejoin
0 setlinecap
0 0 m
-4 0 l
gsave
0.000 setgray
fill
grestore
stroke
grestore
} bind def
199.223 205.333 o
grestore
gsave
25.059375 202.575521 translate
0.000000 rotate
0.000000 0.000000 m /two glyphshow
6.362305 0.000000 m /zero glyphshow
grestore
gsave
/o {
gsave
newpath
translate
0.5 setlinewidth
1 setlinejoin
0 setlinecap
0 0 m
4 0 l
gsave
0.000 setgray
fill
grestore
stroke
grestore
} bind def
40.3875 234.267 o
grestore
gsave
/o {
gsave
newpath
translate
0.5 setlinewidth
1 setlinejoin
0 setlinecap
0 0 m
-4 0 l
gsave
0.000 setgray
fill
grestore
stroke
grestore
} bind def
199.223 234.267 o
grestore
gsave
24.809375 231.508854 translate
0.000000 rotate
0.000000 0.000000 m /four glyphshow
6.362305 0.000000 m /zero glyphshow
grestore
gsave
/o {
gsave
newpath
translate
0.5 setlinewidth
1 setlinejoin
0 setlinecap
0 0 m
4 0 l
gsave
0.000 setgray
fill
grestore
stroke
grestore
} bind def
40.3875 263.2 o
grestore
gsave
/o {
gsave
newpath
translate
0.5 setlinewidth
1 setlinejoin
0 setlinecap
0 0 m
-4 0 l
gsave
0.000 setgray
fill
grestore
stroke
grestore
} bind def
199.223 263.2 o
grestore
gsave
25.028125 260.442188 translate
0.000000 rotate
0.000000 0.000000 m /six glyphshow
6.362305 0.000000 m /zero glyphshow
grestore
gsave
17.731250 194.628125 translate
90.000000 rotate
0.000000 0.000000 m /F glyphshow
5.001953 0.000000 m /r glyphshow
8.863281 0.000000 m /e glyphshow
15.015625 0.000000 m /q glyphshow
21.363281 0.000000 m /u glyphshow
27.701172 0.000000 m /e glyphshow
33.853516 0.000000 m /n glyphshow
40.191406 0.000000 m /c glyphshow
45.689453 0.000000 m /y glyphshow
grestore
/BitstreamVeraSans-Roman findfont
12.000 scalefont
setfont
gsave
67.610156 268.200000 translate
0.000000 rotate
0.000000 0.000000 m /I glyphshow
3.539062 0.000000 m /n glyphshow
11.144531 0.000000 m /i glyphshow
14.478516 0.000000 m /t glyphshow
19.183594 0.000000 m /i glyphshow
22.517578 0.000000 m /a glyphshow
29.871094 0.000000 m /l glyphshow
33.205078 0.000000 m /space glyphshow
37.019531 0.000000 m /d glyphshow
44.636719 0.000000 m /i glyphshow
47.970703 0.000000 m /s glyphshow
54.222656 0.000000 m /t glyphshow
58.927734 0.000000 m /r glyphshow
63.861328 0.000000 m /i glyphshow
67.195312 0.000000 m /b glyphshow
74.812500 0.000000 m /u glyphshow
82.417969 0.000000 m /t glyphshow
87.123047 0.000000 m /i glyphshow
90.457031 0.000000 m /o glyphshow
97.798828 0.000000 m /n glyphshow
grestore
gsave
250.987 176.4 m
409.823 176.4 l
409.823 263.2 l
250.987 263.2 l
cl
1.000 setgray
fill
grestore
1.000 setlinewidth
0 setlinejoin
gsave
158.8 86.8 251 176.4 clipbox
19.0853 176.4 m
24.5796 176.4 l
24.5796 176.979 l
19.0853 176.979 l
cl
gsave
0.000 0.000 1.000 setrgbcolor
fill
grestore
stroke
grestore
gsave
158.8 86.8 251 176.4 clipbox
24.5796 176.4 m
30.074 176.4 l
30.074 176.4 l
24.5796 176.4 l
cl
gsave
0.000 0.000 1.000 setrgbcolor
fill
grestore
stroke
grestore
gsave
158.8 86.8 251 176.4 clipbox
30.074 176.4 m
35.5683 176.4 l
35.5683 176.4 l
30.074 176.4 l
cl
gsave
0.000 0.000 1.000 setrgbcolor
fill
grestore
stroke
grestore
gsave
158.8 86.8 251 176.4 clipbox
35.5683 176.4 m
41.0626 176.4 l
41.0626 176.4 l
35.5683 176.4 l
cl
gsave
0.000 0.000 1.000 setrgbcolor
fill
grestore
stroke
grestore
gsave
158.8 86.8 251 176.4 clipbox
41.0626 176.4 m
46.557 176.4 l
46.557 176.4 l
41.0626 176.4 l
cl
gsave
0.000 0.000 1.000 setrgbcolor
fill
grestore
stroke
grestore
gsave
158.8 86.8 251 176.4 clipbox
46.557 176.4 m
52.0513 176.4 l
52.0513 176.4 l
46.557 176.4 l
cl
gsave
0.000 0.000 1.000 setrgbcolor
fill
grestore
stroke
grestore
gsave
158.8 86.8 251 176.4 clipbox
52.0513 176.4 m
57.5456 176.4 l
57.5456 176.4 l
52.0513 176.4 l
cl
gsave
0.000 0.000 1.000 setrgbcolor
fill
grestore
stroke
grestore
gsave
158.8 86.8 251 176.4 clipbox
57.5456 176.4 m
63.04 176.4 l
63.04 176.4 l
57.5456 176.4 l
cl
gsave
0.000 0.000 1.000 setrgbcolor
fill
grestore
stroke
grestore
gsave
158.8 86.8 251 176.4 clipbox
63.04 176.4 m
68.5343 176.4 l
68.5343 176.4 l
63.04 176.4 l
cl
gsave
0.000 0.000 1.000 setrgbcolor
fill
grestore
stroke
grestore
gsave
158.8 86.8 251 176.4 clipbox
68.5343 176.4 m
74.0286 176.4 l
74.0286 176.4 l
68.5343 176.4 l
cl
gsave
0.000 0.000 1.000 setrgbcolor
fill
grestore
stroke
grestore
gsave
158.8 86.8 251 176.4 clipbox
74.0286 176.4 m
79.523 176.4 l
79.523 176.4 l
74.0286 176.4 l
cl
gsave
0.000 0.000 1.000 setrgbcolor
fill
grestore
stroke
grestore
gsave
158.8 86.8 251 176.4 clipbox
79.523 176.4 m
85.0173 176.4 l
85.0173 176.4 l
79.523 176.4 l
cl
gsave
0.000 0.000 1.000 setrgbcolor
fill
grestore
stroke
grestore
gsave
158.8 86.8 251 176.4 clipbox
85.0173 176.4 m
90.5117 176.4 l
90.5117 176.4 l
85.0173 176.4 l
cl
gsave
0.000 0.000 1.000 setrgbcolor
fill
grestore
stroke
grestore
gsave
158.8 86.8 251 176.4 clipbox
90.5117 176.4 m
96.006 176.4 l
96.006 176.4 l
90.5117 176.4 l
cl
gsave
0.000 0.000 1.000 setrgbcolor
fill
grestore
stroke
grestore
gsave
158.8 86.8 251 176.4 clipbox
96.006 176.4 m
101.5 176.4 l
101.5 176.4 l
96.006 176.4 l
cl
gsave
0.000 0.000 1.000 setrgbcolor
fill
grestore
stroke
grestore
gsave
158.8 86.8 251 176.4 clipbox
101.5 176.4 m
106.995 176.4 l
106.995 176.4 l
101.5 176.4 l
cl
gsave
0.000 0.000 1.000 setrgbcolor
fill
grestore
stroke
grestore
gsave
158.8 86.8 251 176.4 clipbox
106.995 176.4 m
112.489 176.4 l
112.489 176.4 l
106.995 176.4 l
cl
gsave
0.000 0.000 1.000 setrgbcolor
fill
grestore
stroke
grestore
gsave
158.8 86.8 251 176.4 clipbox
112.489 176.4 m
117.983 176.4 l
117.983 176.4 l
112.489 176.4 l
cl
gsave
0.000 0.000 1.000 setrgbcolor
fill
grestore
stroke
grestore
gsave
158.8 86.8 251 176.4 clipbox
117.983 176.4 m
123.478 176.4 l
123.478 176.979 l
117.983 176.979 l
cl
gsave
0.000 0.000 1.000 setrgbcolor
fill
grestore
stroke
grestore
gsave
158.8 86.8 251 176.4 clipbox
123.478 176.4 m
128.972 176.4 l
128.972 176.4 l
123.478 176.4 l
cl
gsave
0.000 0.000 1.000 setrgbcolor
fill
grestore
stroke
grestore
gsave
158.8 86.8 251 176.4 clipbox
128.972 176.4 m
134.466 176.4 l
134.466 176.4 l
128.972 176.4 l
cl
gsave
0.000 0.000 1.000 setrgbcolor
fill
grestore
stroke
grestore
gsave
158.8 86.8 251 176.4 clipbox
134.466 176.4 m
139.961 176.4 l
139.961 176.4 l
134.466 176.4 l
cl
gsave
0.000 0.000 1.000 setrgbcolor
fill
grestore
stroke
grestore
gsave
158.8 86.8 251 176.4 clipbox
139.961 176.4 m
145.455 176.4 l
145.455 176.4 l
139.961 176.4 l
cl
gsave
0.000 0.000 1.000 setrgbcolor
fill
grestore
stroke
grestore
gsave
158.8 86.8 251 176.4 clipbox
145.455 176.4 m
150.949 176.4 l
150.949 176.4 l
145.455 176.4 l
cl
gsave
0.000 0.000 1.000 setrgbcolor
fill
grestore
stroke
grestore
gsave
158.8 86.8 251 176.4 clipbox
150.949 176.4 m
156.444 176.4 l
156.444 176.4 l
150.949 176.4 l
cl
gsave
0.000 0.000 1.000 setrgbcolor
fill
grestore
stroke
grestore
gsave
158.8 86.8 251 176.4 clipbox
156.444 176.4 m
161.938 176.4 l
161.938 176.4 l
156.444 176.4 l
cl
gsave
0.000 0.000 1.000 setrgbcolor
fill
grestore
stroke
grestore
gsave
158.8 86.8 251 176.4 clipbox
161.938 176.4 m
167.432 176.4 l
167.432 176.4 l
161.938 176.4 l
cl
gsave
0.000 0.000 1.000 setrgbcolor
fill
grestore
stroke
grestore
gsave
158.8 86.8 251 176.4 clipbox
167.432 176.4 m
172.927 176.4 l
172.927 176.4 l
167.432 176.4 l
cl
gsave
0.000 0.000 1.000 setrgbcolor
fill
grestore
stroke
grestore
gsave
158.8 86.8 251 176.4 clipbox
172.927 176.4 m
178.421 176.4 l
178.421 176.4 l
172.927 176.4 l
cl
gsave
0.000 0.000 1.000 setrgbcolor
fill
grestore
stroke
grestore
gsave
158.8 86.8 251 176.4 clipbox
178.421 176.4 m
183.915 176.4 l
183.915 176.4 l
178.421 176.4 l
cl
gsave
0.000 0.000 1.000 setrgbcolor
fill
grestore
stroke
grestore
gsave
158.8 86.8 251 176.4 clipbox
183.915 176.4 m
189.41 176.4 l
189.41 176.4 l
183.915 176.4 l
cl
gsave
0.000 0.000 1.000 setrgbcolor
fill
grestore
stroke
grestore
gsave
158.8 86.8 251 176.4 clipbox
189.41 176.4 m
194.904 176.4 l
194.904 176.4 l
189.41 176.4 l
cl
gsave
0.000 0.000 1.000 setrgbcolor
fill
grestore
stroke
grestore
gsave
158.8 86.8 251 176.4 clipbox
194.904 176.4 m
200.398 176.4 l
200.398 176.4 l
194.904 176.4 l
cl
gsave
0.000 0.000 1.000 setrgbcolor
fill
grestore
stroke
grestore
gsave
158.8 86.8 251 176.4 clipbox
200.398 176.4 m
205.893 176.4 l
205.893 176.4 l
200.398 176.4 l
cl
gsave
0.000 0.000 1.000 setrgbcolor
fill
grestore
stroke
grestore
gsave
158.8 86.8 251 176.4 clipbox
205.893 176.4 m
211.387 176.4 l
211.387 176.4 l
205.893 176.4 l
cl
gsave
0.000 0.000 1.000 setrgbcolor
fill
grestore
stroke
grestore
gsave
158.8 86.8 251 176.4 clipbox
211.387 176.4 m
216.881 176.4 l
216.881 176.4 l
211.387 176.4 l
cl
gsave
0.000 0.000 1.000 setrgbcolor
fill
grestore
stroke
grestore
gsave
158.8 86.8 251 176.4 clipbox
216.881 176.4 m
222.376 176.4 l
222.376 176.4 l
216.881 176.4 l
cl
gsave
0.000 0.000 1.000 setrgbcolor
fill
grestore
stroke
grestore
gsave
158.8 86.8 251 176.4 clipbox
222.376 176.4 m
227.87 176.4 l
227.87 176.4 l
222.376 176.4 l
cl
gsave
0.000 0.000 1.000 setrgbcolor
fill
grestore
stroke
grestore
gsave
158.8 86.8 251 176.4 clipbox
227.87 176.4 m
233.364 176.4 l
233.364 176.4 l
227.87 176.4 l
cl
gsave
0.000 0.000 1.000 setrgbcolor
fill
grestore
stroke
grestore
gsave
158.8 86.8 251 176.4 clipbox
233.364 176.4 m
238.859 176.4 l
238.859 176.4 l
233.364 176.4 l
cl
gsave
0.000 0.000 1.000 setrgbcolor
fill
grestore
stroke
grestore
gsave
158.8 86.8 251 176.4 clipbox
238.859 176.4 m
244.353 176.4 l
244.353 176.4 l
238.859 176.4 l
cl
gsave
0.000 0.000 1.000 setrgbcolor
fill
grestore
stroke
grestore
gsave
158.8 86.8 251 176.4 clipbox
244.353 176.4 m
249.847 176.4 l
249.847 176.4 l
244.353 176.4 l
cl
gsave
0.000 0.000 1.000 setrgbcolor
fill
grestore
stroke
grestore
gsave
158.8 86.8 251 176.4 clipbox
249.847 176.4 m
255.342 176.4 l
255.342 179.293 l
249.847 179.293 l
cl
gsave
0.000 0.000 1.000 setrgbcolor
fill
grestore
stroke
grestore
gsave
158.8 86.8 251 176.4 clipbox
255.342 176.4 m
260.836 176.4 l
260.836 185.659 l
255.342 185.659 l
cl
gsave
0.000 0.000 1.000 setrgbcolor
fill
grestore
stroke
grestore
gsave
158.8 86.8 251 176.4 clipbox
260.836 176.4 m
266.33 176.4 l
266.33 190.288 l
260.836 190.288 l
cl
gsave
0.000 0.000 1.000 setrgbcolor
fill
grestore
stroke
grestore
gsave
158.8 86.8 251 176.4 clipbox
266.33 176.4 m
271.825 176.4 l
271.825 205.912 l
266.33 205.912 l
cl
gsave
0.000 0.000 1.000 setrgbcolor
fill
grestore
stroke
grestore
gsave
158.8 86.8 251 176.4 clipbox
271.825 176.4 m
277.319 176.4 l
277.319 209.963 l
271.825 209.963 l
cl
gsave
0.000 0.000 1.000 setrgbcolor
fill
grestore
stroke
grestore
gsave
158.8 86.8 251 176.4 clipbox
277.319 176.4 m
282.813 176.4 l
282.813 231.373 l
277.319 231.373 l
cl
gsave
0.000 0.000 1.000 setrgbcolor
fill
grestore
stroke
grestore
gsave
158.8 86.8 251 176.4 clipbox
282.813 176.4 m
288.308 176.4 l
288.308 237.16 l
282.813 237.16 l
cl
gsave
0.000 0.000 1.000 setrgbcolor
fill
grestore
stroke
grestore
gsave
158.8 86.8 251 176.4 clipbox
288.308 176.4 m
293.802 176.4 l
293.802 246.419 l
288.308 246.419 l
cl
gsave
0.000 0.000 1.000 setrgbcolor
fill
grestore
stroke
grestore
gsave
158.8 86.8 251 176.4 clipbox
293.802 176.4 m
299.296 176.4 l
299.296 246.997 l
293.802 246.997 l
cl
gsave
0.000 0.000 1.000 setrgbcolor
fill
grestore
stroke
grestore
gsave
158.8 86.8 251 176.4 clipbox
299.296 176.4 m
304.791 176.4 l
304.791 245.84 l
299.296 245.84 l
cl
gsave
0.000 0.000 1.000 setrgbcolor
fill
grestore
stroke
grestore
gsave
158.8 86.8 251 176.4 clipbox
304.791 176.4 m
310.285 176.4 l
310.285 239.475 l
304.791 239.475 l
cl
gsave
0.000 0.000 1.000 setrgbcolor
fill
grestore
stroke
grestore
gsave
158.8 86.8 251 176.4 clipbox
310.285 176.4 m
315.779 176.4 l
315.779 216.907 l
310.285 216.907 l
cl
gsave
0.000 0.000 1.000 setrgbcolor
fill
grestore
stroke
grestore
gsave
158.8 86.8 251 176.4 clipbox
315.779 176.4 m
321.274 176.4 l
321.274 203.597 l
315.779 203.597 l
cl
gsave
0.000 0.000 1.000 setrgbcolor
fill
grestore
stroke
grestore
gsave
158.8 86.8 251 176.4 clipbox
321.274 176.4 m
326.768 176.4 l
326.768 187.973 l
321.274 187.973 l
cl
gsave
0.000 0.000 1.000 setrgbcolor
fill
grestore
stroke
grestore
gsave
158.8 86.8 251 176.4 clipbox
326.768 176.4 m
332.262 176.4 l
332.262 181.029 l
326.768 181.029 l
cl
gsave
0.000 0.000 1.000 setrgbcolor
fill
grestore
stroke
grestore
gsave
158.8 86.8 251 176.4 clipbox
332.262 176.4 m
337.757 176.4 l
337.757 179.293 l
332.262 179.293 l
cl
gsave
0.000 0.000 1.000 setrgbcolor
fill
grestore
stroke
grestore
gsave
158.8 86.8 251 176.4 clipbox
337.757 176.4 m
343.251 176.4 l
343.251 179.293 l
337.757 179.293 l
cl
gsave
0.000 0.000 1.000 setrgbcolor
fill
grestore
stroke
grestore
gsave
158.8 86.8 251 176.4 clipbox
343.251 176.4 m
348.745 176.4 l
348.745 176.979 l
343.251 176.979 l
cl
gsave
0.000 0.000 1.000 setrgbcolor
fill
grestore
stroke
grestore
gsave
158.8 86.8 251 176.4 clipbox
348.745 176.4 m
354.24 176.4 l
354.24 178.136 l
348.745 178.136 l
cl
gsave
0.000 0.000 1.000 setrgbcolor
fill
grestore
stroke
grestore
gsave
158.8 86.8 251 176.4 clipbox
354.24 176.4 m
359.734 176.4 l
359.734 176.979 l
354.24 176.979 l
cl
gsave
0.000 0.000 1.000 setrgbcolor
fill
grestore
stroke
grestore
gsave
158.8 86.8 251 176.4 clipbox
359.734 176.4 m
365.228 176.4 l
365.228 177.557 l
359.734 177.557 l
cl
gsave
0.000 0.000 1.000 setrgbcolor
fill
grestore
stroke
grestore
gsave
158.8 86.8 251 176.4 clipbox
365.228 176.4 m
370.723 176.4 l
370.723 176.979 l
365.228 176.979 l
cl
gsave
0.000 0.000 1.000 setrgbcolor
fill
grestore
stroke
grestore
gsave
158.8 86.8 251 176.4 clipbox
370.723 176.4 m
376.217 176.4 l
376.217 176.979 l
370.723 176.979 l
cl
gsave
0.000 0.000 1.000 setrgbcolor
fill
grestore
stroke
grestore
gsave
158.8 86.8 251 176.4 clipbox
376.217 176.4 m
381.712 176.4 l
381.712 176.979 l
376.217 176.979 l
cl
gsave
0.000 0.000 1.000 setrgbcolor
fill
grestore
stroke
grestore
gsave
158.8 86.8 251 176.4 clipbox
381.712 176.4 m
387.206 176.4 l
387.206 176.979 l
381.712 176.979 l
cl
gsave
0.000 0.000 1.000 setrgbcolor
fill
grestore
stroke
grestore
gsave
158.8 86.8 251 176.4 clipbox
387.206 176.4 m
392.7 176.4 l
392.7 176.979 l
387.206 176.979 l
cl
gsave
0.000 0.000 1.000 setrgbcolor
fill
grestore
stroke
grestore
gsave
158.8 86.8 251 176.4 clipbox
392.7 176.4 m
398.195 176.4 l
398.195 176.979 l
392.7 176.979 l
cl
gsave
0.000 0.000 1.000 setrgbcolor
fill
grestore
stroke
grestore
gsave
158.8 86.8 251 176.4 clipbox
398.195 176.4 m
403.689 176.4 l
403.689 176.4 l
398.195 176.4 l
cl
gsave
0.000 0.000 1.000 setrgbcolor
fill
grestore
stroke
grestore
gsave
158.8 86.8 251 176.4 clipbox
403.689 176.4 m
409.183 176.4 l
409.183 176.4 l
403.689 176.4 l
cl
gsave
0.000 0.000 1.000 setrgbcolor
fill
grestore
stroke
grestore
gsave
158.8 86.8 251 176.4 clipbox
409.183 176.4 m
414.678 176.4 l
414.678 176.979 l
409.183 176.979 l
cl
gsave
0.000 0.000 1.000 setrgbcolor
fill
grestore
stroke
grestore
gsave
158.8 86.8 251 176.4 clipbox
414.678 176.4 m
420.172 176.4 l
420.172 176.4 l
414.678 176.4 l
cl
gsave
0.000 0.000 1.000 setrgbcolor
fill
grestore
stroke
grestore
gsave
158.8 86.8 251 176.4 clipbox
420.172 176.4 m
425.666 176.4 l
425.666 176.979 l
420.172 176.979 l
cl
gsave
0.000 0.000 1.000 setrgbcolor
fill
grestore
stroke
grestore
gsave
158.8 86.8 251 176.4 clipbox
425.666 176.4 m
431.161 176.4 l
431.161 176.4 l
425.666 176.4 l
cl
gsave
0.000 0.000 1.000 setrgbcolor
fill
grestore
stroke
grestore
gsave
158.8 86.8 251 176.4 clipbox
431.161 176.4 m
436.655 176.4 l
436.655 176.4 l
431.161 176.4 l
cl
gsave
0.000 0.000 1.000 setrgbcolor
fill
grestore
stroke
grestore
gsave
158.8 86.8 251 176.4 clipbox
436.655 176.4 m
442.149 176.4 l
442.149 176.4 l
436.655 176.4 l
cl
gsave
0.000 0.000 1.000 setrgbcolor
fill
grestore
stroke
grestore
gsave
158.8 86.8 251 176.4 clipbox
442.149 176.4 m
447.644 176.4 l
447.644 176.4 l
442.149 176.4 l
cl
gsave
0.000 0.000 1.000 setrgbcolor
fill
grestore
stroke
grestore
gsave
158.8 86.8 251 176.4 clipbox
447.644 176.4 m
453.138 176.4 l
453.138 176.4 l
447.644 176.4 l
cl
gsave
0.000 0.000 1.000 setrgbcolor
fill
grestore
stroke
grestore
gsave
158.8 86.8 251 176.4 clipbox
453.138 176.4 m
458.632 176.4 l
458.632 176.979 l
453.138 176.979 l
cl
gsave
0.000 0.000 1.000 setrgbcolor
fill
grestore
stroke
grestore
gsave
158.8 86.8 251 176.4 clipbox
458.632 176.4 m
464.127 176.4 l
464.127 176.4 l
458.632 176.4 l
cl
gsave
0.000 0.000 1.000 setrgbcolor
fill
grestore
stroke
grestore
gsave
158.8 86.8 251 176.4 clipbox
464.127 176.4 m
469.621 176.4 l
469.621 176.4 l
464.127 176.4 l
cl
gsave
0.000 0.000 1.000 setrgbcolor
fill
grestore
stroke
grestore
gsave
158.8 86.8 251 176.4 clipbox
469.621 176.4 m
475.115 176.4 l
475.115 176.4 l
469.621 176.4 l
cl
gsave
0.000 0.000 1.000 setrgbcolor
fill
grestore
stroke
grestore
gsave
158.8 86.8 251 176.4 clipbox
475.115 176.4 m
480.61 176.4 l
480.61 176.4 l
475.115 176.4 l
cl
gsave
0.000 0.000 1.000 setrgbcolor
fill
grestore
stroke
grestore
gsave
158.8 86.8 251 176.4 clipbox
480.61 176.4 m
486.104 176.4 l
486.104 176.4 l
480.61 176.4 l
cl
gsave
0.000 0.000 1.000 setrgbcolor
fill
grestore
stroke
grestore
gsave
158.8 86.8 251 176.4 clipbox
486.104 176.4 m
491.598 176.4 l
491.598 176.4 l
486.104 176.4 l
cl
gsave
0.000 0.000 1.000 setrgbcolor
fill
grestore
stroke
grestore
gsave
158.8 86.8 251 176.4 clipbox
491.598 176.4 m
497.093 176.4 l
497.093 176.4 l
491.598 176.4 l
cl
gsave
0.000 0.000 1.000 setrgbcolor
fill
grestore
stroke
grestore
gsave
158.8 86.8 251 176.4 clipbox
497.093 176.4 m
502.587 176.4 l
502.587 176.4 l
497.093 176.4 l
cl
gsave
0.000 0.000 1.000 setrgbcolor
fill
grestore
stroke
grestore
gsave
158.8 86.8 251 176.4 clipbox
502.587 176.4 m
508.081 176.4 l
508.081 176.4 l
502.587 176.4 l
cl
gsave
0.000 0.000 1.000 setrgbcolor
fill
grestore
stroke
grestore
gsave
158.8 86.8 251 176.4 clipbox
508.081 176.4 m
513.576 176.4 l
513.576 176.4 l
508.081 176.4 l
cl
gsave
0.000 0.000 1.000 setrgbcolor
fill
grestore
stroke
grestore
gsave
158.8 86.8 251 176.4 clipbox
513.576 176.4 m
519.07 176.4 l
519.07 176.4 l
513.576 176.4 l
cl
gsave
0.000 0.000 1.000 setrgbcolor
fill
grestore
stroke
grestore
gsave
158.8 86.8 251 176.4 clipbox
519.07 176.4 m
524.564 176.4 l
524.564 176.4 l
519.07 176.4 l
cl
gsave
0.000 0.000 1.000 setrgbcolor
fill
grestore
stroke
grestore
gsave
158.8 86.8 251 176.4 clipbox
524.564 176.4 m
530.059 176.4 l
530.059 176.4 l
524.564 176.4 l
cl
gsave
0.000 0.000 1.000 setrgbcolor
fill
grestore
stroke
grestore
gsave
158.8 86.8 251 176.4 clipbox
530.059 176.4 m
535.553 176.4 l
535.553 176.4 l
530.059 176.4 l
cl
gsave
0.000 0.000 1.000 setrgbcolor
fill
grestore
stroke
grestore
gsave
158.8 86.8 251 176.4 clipbox
535.553 176.4 m
541.047 176.4 l
541.047 176.4 l
535.553 176.4 l
cl
gsave
0.000 0.000 1.000 setrgbcolor
fill
grestore
stroke
grestore
gsave
158.8 86.8 251 176.4 clipbox
541.047 176.4 m
546.542 176.4 l
546.542 176.4 l
541.047 176.4 l
cl
gsave
0.000 0.000 1.000 setrgbcolor
fill
grestore
stroke
grestore
gsave
158.8 86.8 251 176.4 clipbox
546.542 176.4 m
552.036 176.4 l
552.036 176.4 l
546.542 176.4 l
cl
gsave
0.000 0.000 1.000 setrgbcolor
fill
grestore
stroke
grestore
gsave
158.8 86.8 251 176.4 clipbox
552.036 176.4 m
557.53 176.4 l
557.53 176.4 l
552.036 176.4 l
cl
gsave
0.000 0.000 1.000 setrgbcolor
fill
grestore
stroke
grestore
gsave
158.8 86.8 251 176.4 clipbox
557.53 176.4 m
563.025 176.4 l
563.025 176.4 l
557.53 176.4 l
cl
gsave
0.000 0.000 1.000 setrgbcolor
fill
grestore
stroke
grestore
gsave
158.8 86.8 251 176.4 clipbox
563.025 176.4 m
568.519 176.4 l
568.519 176.979 l
563.025 176.979 l
cl
gsave
0.000 0.000 1.000 setrgbcolor
fill
grestore
stroke
grestore
1 setlinejoin
2 setlinecap
1.000 0.000 0.000 setrgbcolor
gsave
158.8 86.8 251 176.4 clipbox
279.664 176.4 m
279.664 246.997 l
stroke
grestore
0 setlinejoin
0.000 setgray
gsave
250.987 263.2 m
409.823 263.2 l
stroke
grestore
gsave
409.823 176.4 m
409.823 263.2 l
stroke
grestore
gsave
250.987 176.4 m
409.823 176.4 l
stroke
grestore
gsave
250.987 176.4 m
250.987 263.2 l
stroke
grestore
0.500 setlinewidth
1 setlinejoin
0 setlinecap
gsave
/o {
gsave
newpath
translate
0.5 setlinewidth
1 setlinejoin
0 setlinecap
0 0 m
0 4 l
gsave
0.000 setgray
fill
grestore
stroke
grestore
} bind def
250.987 176.4 o
grestore
gsave
/o {
gsave
newpath
translate
0.5 setlinewidth
1 setlinejoin
0 setlinecap
0 0 m
0 -4 l
gsave
0.000 setgray
fill
grestore
stroke
grestore
} bind def
250.987 263.2 o
grestore
/BitstreamVeraSans-Roman findfont
10.000 scalefont
setfont
gsave
239.659375 164.806250 translate
0.000000 rotate
0.000000 0.000000 m /minus glyphshow
8.378906 0.000000 m /one glyphshow
14.741211 0.000000 m /period glyphshow
17.919922 0.000000 m /four glyphshow
grestore
gsave
/o {
gsave
newpath
translate
0.5 setlinewidth
1 setlinejoin
0 setlinecap
0 0 m
0 4 l
gsave
0.000 setgray
fill
grestore
stroke
grestore
} bind def
303.933 176.4 o
grestore
gsave
/o {
gsave
newpath
translate
0.5 setlinewidth
1 setlinejoin
0 setlinecap
0 0 m
0 -4 l
gsave
0.000 setgray
fill
grestore
stroke
grestore
} bind def
303.933 263.2 o
grestore
gsave
292.823438 164.806250 translate
0.000000 rotate
0.000000 0.000000 m /minus glyphshow
8.378906 0.000000 m /one glyphshow
14.741211 0.000000 m /period glyphshow
17.919922 0.000000 m /two glyphshow
grestore
gsave
/o {
gsave
newpath
translate
0.5 setlinewidth
1 setlinejoin
0 setlinecap
0 0 m
0 4 l
gsave
0.000 setgray
fill
grestore
stroke
grestore
} bind def
356.878 176.4 o
grestore
gsave
/o {
gsave
newpath
translate
0.5 setlinewidth
1 setlinejoin
0 setlinecap
0 0 m
0 -4 l
gsave
0.000 setgray
fill
grestore
stroke
grestore
} bind def
356.878 263.2 o
grestore
gsave
345.596875 164.806250 translate
0.000000 rotate
0.000000 0.000000 m /minus glyphshow
8.378906 0.000000 m /one glyphshow
14.741211 0.000000 m /period glyphshow
17.919922 0.000000 m /zero glyphshow
grestore
gsave
/o {
gsave
newpath
translate
0.5 setlinewidth
1 setlinejoin
0 setlinecap
0 0 m
0 4 l
gsave
0.000 setgray
fill
grestore
stroke
grestore
} bind def
409.823 176.4 o
grestore
gsave
/o {
gsave
newpath
translate
0.5 setlinewidth
1 setlinejoin
0 setlinecap
0 0 m
0 -4 l
gsave
0.000 setgray
fill
grestore
stroke
grestore
} bind def
409.823 263.2 o
grestore
gsave
398.550000 164.806250 translate
0.000000 rotate
0.000000 0.000000 m /minus glyphshow
8.378906 0.000000 m /zero glyphshow
14.741211 0.000000 m /period glyphshow
17.919922 0.000000 m /eight glyphshow
grestore
gsave
274.999219 150.134375 translate
0.000000 rotate
0.000000 0.000000 m /space glyphshow
3.178711 0.000000 m /R glyphshow
9.626953 0.000000 m /e glyphshow
15.779297 0.000000 m /l glyphshow
18.557617 0.000000 m /e glyphshow
24.709961 0.000000 m /a glyphshow
30.837891 0.000000 m /s glyphshow
36.047852 0.000000 m /e glyphshow
42.200195 0.000000 m /space glyphshow
45.378906 0.000000 m /l glyphshow
48.157227 0.000000 m /o glyphshow
54.275391 0.000000 m /c glyphshow
59.773438 0.000000 m /a glyphshow
65.901367 0.000000 m /t glyphshow
69.822266 0.000000 m /i glyphshow
72.600586 0.000000 m /o glyphshow
78.718750 0.000000 m /n glyphshow
85.056641 0.000000 m /space glyphshow
88.235352 0.000000 m /parenleft glyphshow
92.136719 0.000000 m /k glyphshow
97.927734 0.000000 m /m glyphshow
107.668945 0.000000 m /parenright glyphshow
grestore
gsave
/o {
gsave
newpath
translate
0.5 setlinewidth
1 setlinejoin
0 setlinecap
0 0 m
4 0 l
gsave
0.000 setgray
fill
grestore
stroke
grestore
} bind def
250.987 176.4 o
grestore
gsave
/o {
gsave
newpath
translate
0.5 setlinewidth
1 setlinejoin
0 setlinecap
0 0 m
-4 0 l
gsave
0.000 setgray
fill
grestore
stroke
grestore
} bind def
409.823 176.4 o
grestore
gsave
241.940625 173.642188 translate
0.000000 rotate
0.000000 0.000000 m /zero glyphshow
grestore
gsave
/o {
gsave
newpath
translate
0.5 setlinewidth
1 setlinejoin
0 setlinecap
0 0 m
4 0 l
gsave
0.000 setgray
fill
grestore
stroke
grestore
} bind def
250.987 205.333 o
grestore
gsave
/o {
gsave
newpath
translate
0.5 setlinewidth
1 setlinejoin
0 setlinecap
0 0 m
-4 0 l
gsave
0.000 setgray
fill
grestore
stroke
grestore
} bind def
409.823 205.333 o
grestore
gsave
235.690625 202.575521 translate
0.000000 rotate
0.000000 0.000000 m /five glyphshow
6.362305 0.000000 m /zero glyphshow
grestore
gsave
/o {
gsave
newpath
translate
0.5 setlinewidth
1 setlinejoin
0 setlinecap
0 0 m
4 0 l
gsave
0.000 setgray
fill
grestore
stroke
grestore
} bind def
250.987 234.267 o
grestore
gsave
/o {
gsave
newpath
translate
0.5 setlinewidth
1 setlinejoin
0 setlinecap
0 0 m
-4 0 l
gsave
0.000 setgray
fill
grestore
stroke
grestore
} bind def
409.823 234.267 o
grestore
gsave
229.659375 231.508854 translate
0.000000 rotate
0.000000 0.000000 m /one glyphshow
6.362305 0.000000 m /zero glyphshow
12.724609 0.000000 m /zero glyphshow
grestore
gsave
/o {
gsave
newpath
translate
0.5 setlinewidth
1 setlinejoin
0 setlinecap
0 0 m
4 0 l
gsave
0.000 setgray
fill
grestore
stroke
grestore
} bind def
250.987 263.2 o
grestore
gsave
/o {
gsave
newpath
translate
0.5 setlinewidth
1 setlinejoin
0 setlinecap
0 0 m
-4 0 l
gsave
0.000 setgray
fill
grestore
stroke
grestore
} bind def
409.823 263.2 o
grestore
gsave
229.659375 260.442188 translate
0.000000 rotate
0.000000 0.000000 m /one glyphshow
6.362305 0.000000 m /five glyphshow
12.724609 0.000000 m /zero glyphshow
grestore
gsave
222.581250 194.628125 translate
90.000000 rotate
0.000000 0.000000 m /F glyphshow
5.001953 0.000000 m /r glyphshow
8.863281 0.000000 m /e glyphshow
15.015625 0.000000 m /q glyphshow
21.363281 0.000000 m /u glyphshow
27.701172 0.000000 m /e glyphshow
33.853516 0.000000 m /n glyphshow
40.191406 0.000000 m /c glyphshow
45.689453 0.000000 m /y glyphshow
grestore
/BitstreamVeraSans-Roman findfont
12.000 scalefont
setfont
gsave
298.858594 268.200000 translate
0.000000 rotate
0.000000 0.000000 m /t glyphshow
4.705078 0.000000 m /space glyphshow
8.519531 0.000000 m /equal glyphshow
18.574219 0.000000 m /space glyphshow
22.388672 0.000000 m /one glyphshow
30.023438 0.000000 m /zero glyphshow
37.658203 0.000000 m /space glyphshow
41.472656 0.000000 m /m glyphshow
53.162109 0.000000 m /i glyphshow
56.496094 0.000000 m /n glyphshow
grestore
gsave
40.3875 37.8 m
199.223 37.8 l
199.223 124.6 l
40.3875 124.6 l
cl
1.000 setgray
fill
grestore
1.000 setlinewidth
0 setlinejoin
gsave
158.8 86.8 40.39 37.8 clipbox
50.3662 37.8 m
50.6004 37.8 l
50.6004 39.2467 l
50.3662 39.2467 l
cl
gsave
0.000 0.000 1.000 setrgbcolor
fill
grestore
stroke
grestore
gsave
158.8 86.8 40.39 37.8 clipbox
50.6004 37.8 m
50.8346 37.8 l
50.8346 37.8 l
50.6004 37.8 l
cl
gsave
0.000 0.000 1.000 setrgbcolor
fill
grestore
stroke
grestore
gsave
158.8 86.8 40.39 37.8 clipbox
50.8346 37.8 m
51.0687 37.8 l
51.0687 37.8 l
50.8346 37.8 l
cl
gsave
0.000 0.000 1.000 setrgbcolor
fill
grestore
stroke
grestore
gsave
158.8 86.8 40.39 37.8 clipbox
51.0687 37.8 m
51.3029 37.8 l
51.3029 37.8 l
51.0687 37.8 l
cl
gsave
0.000 0.000 1.000 setrgbcolor
fill
grestore
stroke
grestore
gsave
158.8 86.8 40.39 37.8 clipbox
51.3029 37.8 m
51.5371 37.8 l
51.5371 37.8 l
51.3029 37.8 l
cl
gsave
0.000 0.000 1.000 setrgbcolor
fill
grestore
stroke
grestore
gsave
158.8 86.8 40.39 37.8 clipbox
51.5371 37.8 m
51.7713 37.8 l
51.7713 37.8 l
51.5371 37.8 l
cl
gsave
0.000 0.000 1.000 setrgbcolor
fill
grestore
stroke
grestore
gsave
158.8 86.8 40.39 37.8 clipbox
51.7713 37.8 m
52.0055 37.8 l
52.0055 37.8 l
51.7713 37.8 l
cl
gsave
0.000 0.000 1.000 setrgbcolor
fill
grestore
stroke
grestore
gsave
158.8 86.8 40.39 37.8 clipbox
52.0055 37.8 m
52.2397 37.8 l
52.2397 37.8 l
52.0055 37.8 l
cl
gsave
0.000 0.000 1.000 setrgbcolor
fill
grestore
stroke
grestore
gsave
158.8 86.8 40.39 37.8 clipbox
52.2397 37.8 m
52.4738 37.8 l
52.4738 37.8 l
52.2397 37.8 l
cl
gsave
0.000 0.000 1.000 setrgbcolor
fill
grestore
stroke
grestore
gsave
158.8 86.8 40.39 37.8 clipbox
52.4738 37.8 m
52.708 37.8 l
52.708 37.8 l
52.4738 37.8 l
cl
gsave
0.000 0.000 1.000 setrgbcolor
fill
grestore
stroke
grestore
gsave
158.8 86.8 40.39 37.8 clipbox
52.708 37.8 m
52.9422 37.8 l
52.9422 37.8 l
52.708 37.8 l
cl
gsave
0.000 0.000 1.000 setrgbcolor
fill
grestore
stroke
grestore
gsave
158.8 86.8 40.39 37.8 clipbox
52.9422 37.8 m
53.1764 37.8 l
53.1764 37.8 l
52.9422 37.8 l
cl
gsave
0.000 0.000 1.000 setrgbcolor
fill
grestore
stroke
grestore
gsave
158.8 86.8 40.39 37.8 clipbox
53.1764 37.8 m
53.4106 37.8 l
53.4106 37.8 l
53.1764 37.8 l
cl
gsave
0.000 0.000 1.000 setrgbcolor
fill
grestore
stroke
grestore
gsave
158.8 86.8 40.39 37.8 clipbox
53.4106 37.8 m
53.6448 37.8 l
53.6448 37.8 l
53.4106 37.8 l
cl
gsave
0.000 0.000 1.000 setrgbcolor
fill
grestore
stroke
grestore
gsave
158.8 86.8 40.39 37.8 clipbox
53.6448 37.8 m
53.879 37.8 l
53.879 37.8 l
53.6448 37.8 l
cl
gsave
0.000 0.000 1.000 setrgbcolor
fill
grestore
stroke
grestore
gsave
158.8 86.8 40.39 37.8 clipbox
53.879 37.8 m
54.1131 37.8 l
54.1131 37.8 l
53.879 37.8 l
cl
gsave
0.000 0.000 1.000 setrgbcolor
fill
grestore
stroke
grestore
gsave
158.8 86.8 40.39 37.8 clipbox
54.1131 37.8 m
54.3473 37.8 l
54.3473 37.8 l
54.1131 37.8 l
cl
gsave
0.000 0.000 1.000 setrgbcolor
fill
grestore
stroke
grestore
gsave
158.8 86.8 40.39 37.8 clipbox
54.3473 37.8 m
54.5815 37.8 l
54.5815 37.8 l
54.3473 37.8 l
cl
gsave
0.000 0.000 1.000 setrgbcolor
fill
grestore
stroke
grestore
gsave
158.8 86.8 40.39 37.8 clipbox
54.5815 37.8 m
54.8157 37.8 l
54.8157 37.8 l
54.5815 37.8 l
cl
gsave
0.000 0.000 1.000 setrgbcolor
fill
grestore
stroke
grestore
gsave
158.8 86.8 40.39 37.8 clipbox
54.8157 37.8 m
55.0499 37.8 l
55.0499 37.8 l
54.8157 37.8 l
cl
gsave
0.000 0.000 1.000 setrgbcolor
fill
grestore
stroke
grestore
gsave
158.8 86.8 40.39 37.8 clipbox
55.0499 37.8 m
55.2841 37.8 l
55.2841 37.8 l
55.0499 37.8 l
cl
gsave
0.000 0.000 1.000 setrgbcolor
fill
grestore
stroke
grestore
gsave
158.8 86.8 40.39 37.8 clipbox
55.2841 37.8 m
55.5182 37.8 l
55.5182 37.8 l
55.2841 37.8 l
cl
gsave
0.000 0.000 1.000 setrgbcolor
fill
grestore
stroke
grestore
gsave
158.8 86.8 40.39 37.8 clipbox
55.5182 37.8 m
55.7524 37.8 l
55.7524 37.8 l
55.5182 37.8 l
cl
gsave
0.000 0.000 1.000 setrgbcolor
fill
grestore
stroke
grestore
gsave
158.8 86.8 40.39 37.8 clipbox
55.7524 37.8 m
55.9866 37.8 l
55.9866 39.2467 l
55.7524 39.2467 l
cl
gsave
0.000 0.000 1.000 setrgbcolor
fill
grestore
stroke
grestore
gsave
158.8 86.8 40.39 37.8 clipbox
55.9866 37.8 m
56.2208 37.8 l
56.2208 37.8 l
55.9866 37.8 l
cl
gsave
0.000 0.000 1.000 setrgbcolor
fill
grestore
stroke
grestore
gsave
158.8 86.8 40.39 37.8 clipbox
56.2208 37.8 m
56.455 37.8 l
56.455 37.8 l
56.2208 37.8 l
cl
gsave
0.000 0.000 1.000 setrgbcolor
fill
grestore
stroke
grestore
gsave
158.8 86.8 40.39 37.8 clipbox
56.455 37.8 m
56.6892 37.8 l
56.6892 37.8 l
56.455 37.8 l
cl
gsave
0.000 0.000 1.000 setrgbcolor
fill
grestore
stroke
grestore
gsave
158.8 86.8 40.39 37.8 clipbox
56.6892 37.8 m
56.9234 37.8 l
56.9234 37.8 l
56.6892 37.8 l
cl
gsave
0.000 0.000 1.000 setrgbcolor
fill
grestore
stroke
grestore
gsave
158.8 86.8 40.39 37.8 clipbox
56.9234 37.8 m
57.1575 37.8 l
57.1575 37.8 l
56.9234 37.8 l
cl
gsave
0.000 0.000 1.000 setrgbcolor
fill
grestore
stroke
grestore
gsave
158.8 86.8 40.39 37.8 clipbox
57.1575 37.8 m
57.3917 37.8 l
57.3917 37.8 l
57.1575 37.8 l
cl
gsave
0.000 0.000 1.000 setrgbcolor
fill
grestore
stroke
grestore
gsave
158.8 86.8 40.39 37.8 clipbox
57.3917 37.8 m
57.6259 37.8 l
57.6259 37.8 l
57.3917 37.8 l
cl
gsave
0.000 0.000 1.000 setrgbcolor
fill
grestore
stroke
grestore
gsave
158.8 86.8 40.39 37.8 clipbox
57.6259 37.8 m
57.8601 37.8 l
57.8601 37.8 l
57.6259 37.8 l
cl
gsave
0.000 0.000 1.000 setrgbcolor
fill
grestore
stroke
grestore
gsave
158.8 86.8 40.39 37.8 clipbox
57.8601 37.8 m
58.0943 37.8 l
58.0943 37.8 l
57.8601 37.8 l
cl
gsave
0.000 0.000 1.000 setrgbcolor
fill
grestore
stroke
grestore
gsave
158.8 86.8 40.39 37.8 clipbox
58.0943 37.8 m
58.3285 37.8 l
58.3285 37.8 l
58.0943 37.8 l
cl
gsave
0.000 0.000 1.000 setrgbcolor
fill
grestore
stroke
grestore
gsave
158.8 86.8 40.39 37.8 clipbox
58.3285 37.8 m
58.5626 37.8 l
58.5626 37.8 l
58.3285 37.8 l
cl
gsave
0.000 0.000 1.000 setrgbcolor
fill
grestore
stroke
grestore
gsave
158.8 86.8 40.39 37.8 clipbox
58.5626 37.8 m
58.7968 37.8 l
58.7968 37.8 l
58.5626 37.8 l
cl
gsave
0.000 0.000 1.000 setrgbcolor
fill
grestore
stroke
grestore
gsave
158.8 86.8 40.39 37.8 clipbox
58.7968 37.8 m
59.031 37.8 l
59.031 37.8 l
58.7968 37.8 l
cl
gsave
0.000 0.000 1.000 setrgbcolor
fill
grestore
stroke
grestore
gsave
158.8 86.8 40.39 37.8 clipbox
59.031 37.8 m
59.2652 37.8 l
59.2652 37.8 l
59.031 37.8 l
cl
gsave
0.000 0.000 1.000 setrgbcolor
fill
grestore
stroke
grestore
gsave
158.8 86.8 40.39 37.8 clipbox
59.2652 37.8 m
59.4994 37.8 l
59.4994 37.8 l
59.2652 37.8 l
cl
gsave
0.000 0.000 1.000 setrgbcolor
fill
grestore
stroke
grestore
gsave
158.8 86.8 40.39 37.8 clipbox
59.4994 37.8 m
59.7336 37.8 l
59.7336 37.8 l
59.4994 37.8 l
cl
gsave
0.000 0.000 1.000 setrgbcolor
fill
grestore
stroke
grestore
gsave
158.8 86.8 40.39 37.8 clipbox
59.7336 37.8 m
59.9678 37.8 l
59.9678 37.8 l
59.7336 37.8 l
cl
gsave
0.000 0.000 1.000 setrgbcolor
fill
grestore
stroke
grestore
gsave
158.8 86.8 40.39 37.8 clipbox
59.9678 37.8 m
60.2019 37.8 l
60.2019 37.8 l
59.9678 37.8 l
cl
gsave
0.000 0.000 1.000 setrgbcolor
fill
grestore
stroke
grestore
gsave
158.8 86.8 40.39 37.8 clipbox
60.2019 37.8 m
60.4361 37.8 l
60.4361 37.8 l
60.2019 37.8 l
cl
gsave
0.000 0.000 1.000 setrgbcolor
fill
grestore
stroke
grestore
gsave
158.8 86.8 40.39 37.8 clipbox
60.4361 37.8 m
60.6703 37.8 l
60.6703 37.8 l
60.4361 37.8 l
cl
gsave
0.000 0.000 1.000 setrgbcolor
fill
grestore
stroke
grestore
gsave
158.8 86.8 40.39 37.8 clipbox
60.6703 37.8 m
60.9045 37.8 l
60.9045 39.2467 l
60.6703 39.2467 l
cl
gsave
0.000 0.000 1.000 setrgbcolor
fill
grestore
stroke
grestore
gsave
158.8 86.8 40.39 37.8 clipbox
60.9045 37.8 m
61.1387 37.8 l
61.1387 37.8 l
60.9045 37.8 l
cl
gsave
0.000 0.000 1.000 setrgbcolor
fill
grestore
stroke
grestore
gsave
158.8 86.8 40.39 37.8 clipbox
61.1387 37.8 m
61.3729 37.8 l
61.3729 37.8 l
61.1387 37.8 l
cl
gsave
0.000 0.000 1.000 setrgbcolor
fill
grestore
stroke
grestore
gsave
158.8 86.8 40.39 37.8 clipbox
61.3729 37.8 m
61.607 37.8 l
61.607 37.8 l
61.3729 37.8 l
cl
gsave
0.000 0.000 1.000 setrgbcolor
fill
grestore
stroke
grestore
gsave
158.8 86.8 40.39 37.8 clipbox
61.607 37.8 m
61.8412 37.8 l
61.8412 37.8 l
61.607 37.8 l
cl
gsave
0.000 0.000 1.000 setrgbcolor
fill
grestore
stroke
grestore
gsave
158.8 86.8 40.39 37.8 clipbox
61.8412 37.8 m
62.0754 37.8 l
62.0754 39.2467 l
61.8412 39.2467 l
cl
gsave
0.000 0.000 1.000 setrgbcolor
fill
grestore
stroke
grestore
gsave
158.8 86.8 40.39 37.8 clipbox
62.0754 37.8 m
62.3096 37.8 l
62.3096 37.8 l
62.0754 37.8 l
cl
gsave
0.000 0.000 1.000 setrgbcolor
fill
grestore
stroke
grestore
gsave
158.8 86.8 40.39 37.8 clipbox
62.3096 37.8 m
62.5438 37.8 l
62.5438 37.8 l
62.3096 37.8 l
cl
gsave
0.000 0.000 1.000 setrgbcolor
fill
grestore
stroke
grestore
gsave
158.8 86.8 40.39 37.8 clipbox
62.5438 37.8 m
62.778 37.8 l
62.778 40.6933 l
62.5438 40.6933 l
cl
gsave
0.000 0.000 1.000 setrgbcolor
fill
grestore
stroke
grestore
gsave
158.8 86.8 40.39 37.8 clipbox
62.778 37.8 m
63.0122 37.8 l
63.0122 40.6933 l
62.778 40.6933 l
cl
gsave
0.000 0.000 1.000 setrgbcolor
fill
grestore
stroke
grestore
gsave
158.8 86.8 40.39 37.8 clipbox
63.0122 37.8 m
63.2463 37.8 l
63.2463 39.2467 l
63.0122 39.2467 l
cl
gsave
0.000 0.000 1.000 setrgbcolor
fill
grestore
stroke
grestore
gsave
158.8 86.8 40.39 37.8 clipbox
63.2463 37.8 m
63.4805 37.8 l
63.4805 40.6933 l
63.2463 40.6933 l
cl
gsave
0.000 0.000 1.000 setrgbcolor
fill
grestore
stroke
grestore
gsave
158.8 86.8 40.39 37.8 clipbox
63.4805 37.8 m
63.7147 37.8 l
63.7147 42.14 l
63.4805 42.14 l
cl
gsave
0.000 0.000 1.000 setrgbcolor
fill
grestore
stroke
grestore
gsave
158.8 86.8 40.39 37.8 clipbox
63.7147 37.8 m
63.9489 37.8 l
63.9489 43.5867 l
63.7147 43.5867 l
cl
gsave
0.000 0.000 1.000 setrgbcolor
fill
grestore
stroke
grestore
gsave
158.8 86.8 40.39 37.8 clipbox
63.9489 37.8 m
64.1831 37.8 l
64.1831 49.3733 l
63.9489 49.3733 l
cl
gsave
0.000 0.000 1.000 setrgbcolor
fill
grestore
stroke
grestore
gsave
158.8 86.8 40.39 37.8 clipbox
64.1831 37.8 m
64.4173 37.8 l
64.4173 40.6933 l
64.1831 40.6933 l
cl
gsave
0.000 0.000 1.000 setrgbcolor
fill
grestore
stroke
grestore
gsave
158.8 86.8 40.39 37.8 clipbox
64.4173 37.8 m
64.6514 37.8 l
64.6514 53.7133 l
64.4173 53.7133 l
cl
gsave
0.000 0.000 1.000 setrgbcolor
fill
grestore
stroke
grestore
gsave
158.8 86.8 40.39 37.8 clipbox
64.6514 37.8 m
64.8856 37.8 l
64.8856 60.9467 l
64.6514 60.9467 l
cl
gsave
0.000 0.000 1.000 setrgbcolor
fill
grestore
stroke
grestore
gsave
158.8 86.8 40.39 37.8 clipbox
64.8856 37.8 m
65.1198 37.8 l
65.1198 56.6067 l
64.8856 56.6067 l
cl
gsave
0.000 0.000 1.000 setrgbcolor
fill
grestore
stroke
grestore
gsave
158.8 86.8 40.39 37.8 clipbox
65.1198 37.8 m
65.354 37.8 l
65.354 56.6067 l
65.1198 56.6067 l
cl
gsave
0.000 0.000 1.000 setrgbcolor
fill
grestore
stroke
grestore
gsave
158.8 86.8 40.39 37.8 clipbox
65.354 37.8 m
65.5882 37.8 l
65.5882 63.84 l
65.354 63.84 l
cl
gsave
0.000 0.000 1.000 setrgbcolor
fill
grestore
stroke
grestore
gsave
158.8 86.8 40.39 37.8 clipbox
65.5882 37.8 m
65.8224 37.8 l
65.8224 78.3067 l
65.5882 78.3067 l
cl
gsave
0.000 0.000 1.000 setrgbcolor
fill
grestore
stroke
grestore
gsave
158.8 86.8 40.39 37.8 clipbox
65.8224 37.8 m
66.0566 37.8 l
66.0566 69.6267 l
65.8224 69.6267 l
cl
gsave
0.000 0.000 1.000 setrgbcolor
fill
grestore
stroke
grestore
gsave
158.8 86.8 40.39 37.8 clipbox
66.0566 37.8 m
66.2907 37.8 l
66.2907 89.88 l
66.0566 89.88 l
cl
gsave
0.000 0.000 1.000 setrgbcolor
fill
grestore
stroke
grestore
gsave
158.8 86.8 40.39 37.8 clipbox
66.2907 37.8 m
66.5249 37.8 l
66.5249 75.4133 l
66.2907 75.4133 l
cl
gsave
0.000 0.000 1.000 setrgbcolor
fill
grestore
stroke
grestore
gsave
158.8 86.8 40.39 37.8 clipbox
66.5249 37.8 m
66.7591 37.8 l
66.7591 100.007 l
66.5249 100.007 l
cl
gsave
0.000 0.000 1.000 setrgbcolor
fill
grestore
stroke
grestore
gsave
158.8 86.8 40.39 37.8 clipbox
66.7591 37.8 m
66.9933 37.8 l
66.9933 100.007 l
66.7591 100.007 l
cl
gsave
0.000 0.000 1.000 setrgbcolor
fill
grestore
stroke
grestore
gsave
158.8 86.8 40.39 37.8 clipbox
66.9933 37.8 m
67.2275 37.8 l
67.2275 98.56 l
66.9933 98.56 l
cl
gsave
0.000 0.000 1.000 setrgbcolor
fill
grestore
stroke
grestore
gsave
158.8 86.8 40.39 37.8 clipbox
67.2275 37.8 m
67.4617 37.8 l
67.4617 117.367 l
67.2275 117.367 l
cl
gsave
0.000 0.000 1.000 setrgbcolor
fill
grestore
stroke
grestore
gsave
158.8 86.8 40.39 37.8 clipbox
67.4617 37.8 m
67.6958 37.8 l
67.6958 98.56 l
67.4617 98.56 l
cl
gsave
0.000 0.000 1.000 setrgbcolor
fill
grestore
stroke
grestore
gsave
158.8 86.8 40.39 37.8 clipbox
67.6958 37.8 m
67.93 37.8 l
67.93 113.027 l
67.6958 113.027 l
cl
gsave
0.000 0.000 1.000 setrgbcolor
fill
grestore
stroke
grestore
gsave
158.8 86.8 40.39 37.8 clipbox
67.93 37.8 m
68.1642 37.8 l
68.1642 92.7733 l
67.93 92.7733 l
cl
gsave
0.000 0.000 1.000 setrgbcolor
fill
grestore
stroke
grestore
gsave
158.8 86.8 40.39 37.8 clipbox
68.1642 37.8 m
68.3984 37.8 l
68.3984 121.707 l
68.1642 121.707 l
cl
gsave
0.000 0.000 1.000 setrgbcolor
fill
grestore
stroke
grestore
gsave
158.8 86.8 40.39 37.8 clipbox
68.3984 37.8 m
68.6326 37.8 l
68.6326 104.347 l
68.3984 104.347 l
cl
gsave
0.000 0.000 1.000 setrgbcolor
fill
grestore
stroke
grestore
gsave
158.8 86.8 40.39 37.8 clipbox
68.6326 37.8 m
68.8668 37.8 l
68.8668 110.133 l
68.6326 110.133 l
cl
gsave
0.000 0.000 1.000 setrgbcolor
fill
grestore
stroke
grestore
gsave
158.8 86.8 40.39 37.8 clipbox
68.8668 37.8 m
69.101 37.8 l
69.101 98.56 l
68.8668 98.56 l
cl
gsave
0.000 0.000 1.000 setrgbcolor
fill
grestore
stroke
grestore
gsave
158.8 86.8 40.39 37.8 clipbox
69.101 37.8 m
69.3351 37.8 l
69.3351 97.1133 l
69.101 97.1133 l
cl
gsave
0.000 0.000 1.000 setrgbcolor
fill
grestore
stroke
grestore
gsave
158.8 86.8 40.39 37.8 clipbox
69.3351 37.8 m
69.5693 37.8 l
69.5693 88.4333 l
69.3351 88.4333 l
cl
gsave
0.000 0.000 1.000 setrgbcolor
fill
grestore
stroke
grestore
gsave
158.8 86.8 40.39 37.8 clipbox
69.5693 37.8 m
69.8035 37.8 l
69.8035 98.56 l
69.5693 98.56 l
cl
gsave
0.000 0.000 1.000 setrgbcolor
fill
grestore
stroke
grestore
gsave
158.8 86.8 40.39 37.8 clipbox
69.8035 37.8 m
70.0377 37.8 l
70.0377 79.7533 l
69.8035 79.7533 l
cl
gsave
0.000 0.000 1.000 setrgbcolor
fill
grestore
stroke
grestore
gsave
158.8 86.8 40.39 37.8 clipbox
70.0377 37.8 m
70.2719 37.8 l
70.2719 66.7333 l
70.0377 66.7333 l
cl
gsave
0.000 0.000 1.000 setrgbcolor
fill
grestore
stroke
grestore
gsave
158.8 86.8 40.39 37.8 clipbox
70.2719 37.8 m
70.5061 37.8 l
70.5061 86.9867 l
70.2719 86.9867 l
cl
gsave
0.000 0.000 1.000 setrgbcolor
fill
grestore
stroke
grestore
gsave
158.8 86.8 40.39 37.8 clipbox
70.5061 37.8 m
70.7402 37.8 l
70.7402 73.9667 l
70.5061 73.9667 l
cl
gsave
0.000 0.000 1.000 setrgbcolor
fill
grestore
stroke
grestore
gsave
158.8 86.8 40.39 37.8 clipbox
70.7402 37.8 m
70.9744 37.8 l
70.9744 55.16 l
70.7402 55.16 l
cl
gsave
0.000 0.000 1.000 setrgbcolor
fill
grestore
stroke
grestore
gsave
158.8 86.8 40.39 37.8 clipbox
70.9744 37.8 m
71.2086 37.8 l
71.2086 50.82 l
70.9744 50.82 l
cl
gsave
0.000 0.000 1.000 setrgbcolor
fill
grestore
stroke
grestore
gsave
158.8 86.8 40.39 37.8 clipbox
71.2086 37.8 m
71.4428 37.8 l
71.4428 52.2667 l
71.2086 52.2667 l
cl
gsave
0.000 0.000 1.000 setrgbcolor
fill
grestore
stroke
grestore
gsave
158.8 86.8 40.39 37.8 clipbox
71.4428 37.8 m
71.677 37.8 l
71.677 46.48 l
71.4428 46.48 l
cl
gsave
0.000 0.000 1.000 setrgbcolor
fill
grestore
stroke
grestore
gsave
158.8 86.8 40.39 37.8 clipbox
71.677 37.8 m
71.9112 37.8 l
71.9112 39.2467 l
71.677 39.2467 l
cl
gsave
0.000 0.000 1.000 setrgbcolor
fill
grestore
stroke
grestore
gsave
158.8 86.8 40.39 37.8 clipbox
71.9112 37.8 m
72.1454 37.8 l
72.1454 45.0333 l
71.9112 45.0333 l
cl
gsave
0.000 0.000 1.000 setrgbcolor
fill
grestore
stroke
grestore
gsave
158.8 86.8 40.39 37.8 clipbox
72.1454 37.8 m
72.3795 37.8 l
72.3795 39.2467 l
72.1454 39.2467 l
cl
gsave
0.000 0.000 1.000 setrgbcolor
fill
grestore
stroke
grestore
gsave
158.8 86.8 40.39 37.8 clipbox
72.3795 37.8 m
72.6137 37.8 l
72.6137 39.2467 l
72.3795 39.2467 l
cl
gsave
0.000 0.000 1.000 setrgbcolor
fill
grestore
stroke
grestore
gsave
158.8 86.8 40.39 37.8 clipbox
72.6137 37.8 m
72.8479 37.8 l
72.8479 39.2467 l
72.6137 39.2467 l
cl
gsave
0.000 0.000 1.000 setrgbcolor
fill
grestore
stroke
grestore
gsave
158.8 86.8 40.39 37.8 clipbox
72.8479 37.8 m
73.0821 37.8 l
73.0821 40.6933 l
72.8479 40.6933 l
cl
gsave
0.000 0.000 1.000 setrgbcolor
fill
grestore
stroke
grestore
gsave
158.8 86.8 40.39 37.8 clipbox
73.0821 37.8 m
73.3163 37.8 l
73.3163 42.14 l
73.0821 42.14 l
cl
gsave
0.000 0.000 1.000 setrgbcolor
fill
grestore
stroke
grestore
gsave
158.8 86.8 40.39 37.8 clipbox
73.3163 37.8 m
73.5505 37.8 l
73.5505 37.8 l
73.3163 37.8 l
cl
gsave
0.000 0.000 1.000 setrgbcolor
fill
grestore
stroke
grestore
gsave
158.8 86.8 40.39 37.8 clipbox
73.5505 37.8 m
73.7846 37.8 l
73.7846 39.2467 l
73.5505 39.2467 l
cl
gsave
0.000 0.000 1.000 setrgbcolor
fill
grestore
stroke
grestore
1 setlinejoin
2 setlinecap
1.000 0.000 0.000 setrgbcolor
gsave
158.8 86.8 40.39 37.8 clipbox
69.0639 37.8 m
69.0639 121.707 l
stroke
grestore
0 setlinejoin
0.000 setgray
gsave
40.3875 124.6 m
199.223 124.6 l
stroke
grestore
gsave
199.223 37.8 m
199.223 124.6 l
stroke
grestore
gsave
40.3875 37.8 m
199.223 37.8 l
stroke
grestore
gsave
40.3875 37.8 m
40.3875 124.6 l
stroke
grestore
0.500 setlinewidth
1 setlinejoin
0 setlinecap
gsave
/o {
gsave
newpath
translate
0.5 setlinewidth
1 setlinejoin
0 setlinecap
0 0 m
0 4 l
gsave
0.000 setgray
fill
grestore
stroke
grestore
} bind def
40.3875 37.8 o
grestore
gsave
/o {
gsave
newpath
translate
0.5 setlinewidth
1 setlinejoin
0 setlinecap
0 0 m
0 -4 l
gsave
0.000 setgray
fill
grestore
stroke
grestore
} bind def
40.3875 124.6 o
grestore
/BitstreamVeraSans-Roman findfont
10.000 scalefont
setfont
gsave
29.059375 26.206250 translate
0.000000 rotate
0.000000 0.000000 m /minus glyphshow
8.378906 0.000000 m /one glyphshow
14.741211 0.000000 m /period glyphshow
17.919922 0.000000 m /four glyphshow
grestore
gsave
/o {
gsave
newpath
translate
0.5 setlinewidth
1 setlinejoin
0 setlinecap
0 0 m
0 4 l
gsave
0.000 setgray
fill
grestore
stroke
grestore
} bind def
93.3328 37.8 o
grestore
gsave
/o {
gsave
newpath
translate
0.5 setlinewidth
1 setlinejoin
0 setlinecap
0 0 m
0 -4 l
gsave
0.000 setgray
fill
grestore
stroke
grestore
} bind def
93.3328 124.6 o
grestore
gsave
82.223438 26.206250 translate
0.000000 rotate
0.000000 0.000000 m /minus glyphshow
8.378906 0.000000 m /one glyphshow
14.741211 0.000000 m /period glyphshow
17.919922 0.000000 m /two glyphshow
grestore
gsave
/o {
gsave
newpath
translate
0.5 setlinewidth
1 setlinejoin
0 setlinecap
0 0 m
0 4 l
gsave
0.000 setgray
fill
grestore
stroke
grestore
} bind def
146.278 37.8 o
grestore
gsave
/o {
gsave
newpath
translate
0.5 setlinewidth
1 setlinejoin
0 setlinecap
0 0 m
0 -4 l
gsave
0.000 setgray
fill
grestore
stroke
grestore
} bind def
146.278 124.6 o
grestore
gsave
134.996875 26.206250 translate
0.000000 rotate
0.000000 0.000000 m /minus glyphshow
8.378906 0.000000 m /one glyphshow
14.741211 0.000000 m /period glyphshow
17.919922 0.000000 m /zero glyphshow
grestore
gsave
/o {
gsave
newpath
translate
0.5 setlinewidth
1 setlinejoin
0 setlinecap
0 0 m
0 4 l
gsave
0.000 setgray
fill
grestore
stroke
grestore
} bind def
199.223 37.8 o
grestore
gsave
/o {
gsave
newpath
translate
0.5 setlinewidth
1 setlinejoin
0 setlinecap
0 0 m
0 -4 l
gsave
0.000 setgray
fill
grestore
stroke
grestore
} bind def
199.223 124.6 o
grestore
gsave
187.950000 26.206250 translate
0.000000 rotate
0.000000 0.000000 m /minus glyphshow
8.378906 0.000000 m /zero glyphshow
14.741211 0.000000 m /period glyphshow
17.919922 0.000000 m /eight glyphshow
grestore
gsave
64.399219 11.534375 translate
0.000000 rotate
0.000000 0.000000 m /space glyphshow
3.178711 0.000000 m /R glyphshow
9.626953 0.000000 m /e glyphshow
15.779297 0.000000 m /l glyphshow
18.557617 0.000000 m /e glyphshow
24.709961 0.000000 m /a glyphshow
30.837891 0.000000 m /s glyphshow
36.047852 0.000000 m /e glyphshow
42.200195 0.000000 m /space glyphshow
45.378906 0.000000 m /l glyphshow
48.157227 0.000000 m /o glyphshow
54.275391 0.000000 m /c glyphshow
59.773438 0.000000 m /a glyphshow
65.901367 0.000000 m /t glyphshow
69.822266 0.000000 m /i glyphshow
72.600586 0.000000 m /o glyphshow
78.718750 0.000000 m /n glyphshow
85.056641 0.000000 m /space glyphshow
88.235352 0.000000 m /parenleft glyphshow
92.136719 0.000000 m /k glyphshow
97.927734 0.000000 m /m glyphshow
107.668945 0.000000 m /parenright glyphshow
grestore
gsave
/o {
gsave
newpath
translate
0.5 setlinewidth
1 setlinejoin
0 setlinecap
0 0 m
4 0 l
gsave
0.000 setgray
fill
grestore
stroke
grestore
} bind def
40.3875 37.8 o
grestore
gsave
/o {
gsave
newpath
translate
0.5 setlinewidth
1 setlinejoin
0 setlinecap
0 0 m
-4 0 l
gsave
0.000 setgray
fill
grestore
stroke
grestore
} bind def
199.223 37.8 o
grestore
gsave
31.340625 35.042188 translate
0.000000 rotate
0.000000 0.000000 m /zero glyphshow
grestore
gsave
/o {
gsave
newpath
translate
0.5 setlinewidth
1 setlinejoin
0 setlinecap
0 0 m
4 0 l
gsave
0.000 setgray
fill
grestore
stroke
grestore
} bind def
40.3875 66.7333 o
grestore
gsave
/o {
gsave
newpath
translate
0.5 setlinewidth
1 setlinejoin
0 setlinecap
0 0 m
-4 0 l
gsave
0.000 setgray
fill
grestore
stroke
grestore
} bind def
199.223 66.7333 o
grestore
gsave
25.059375 63.975521 translate
0.000000 rotate
0.000000 0.000000 m /two glyphshow
6.362305 0.000000 m /zero glyphshow
grestore
gsave
/o {
gsave
newpath
translate
0.5 setlinewidth
1 setlinejoin
0 setlinecap
0 0 m
4 0 l
gsave
0.000 setgray
fill
grestore
stroke
grestore
} bind def
40.3875 95.6667 o
grestore
gsave
/o {
gsave
newpath
translate
0.5 setlinewidth
1 setlinejoin
0 setlinecap
0 0 m
-4 0 l
gsave
0.000 setgray
fill
grestore
stroke
grestore
} bind def
199.223 95.6667 o
grestore
gsave
24.809375 92.908854 translate
0.000000 rotate
0.000000 0.000000 m /four glyphshow
6.362305 0.000000 m /zero glyphshow
grestore
gsave
/o {
gsave
newpath
translate
0.5 setlinewidth
1 setlinejoin
0 setlinecap
0 0 m
4 0 l
gsave
0.000 setgray
fill
grestore
stroke
grestore
} bind def
40.3875 124.6 o
grestore
gsave
/o {
gsave
newpath
translate
0.5 setlinewidth
1 setlinejoin
0 setlinecap
0 0 m
-4 0 l
gsave
0.000 setgray
fill
grestore
stroke
grestore
} bind def
199.223 124.6 o
grestore
gsave
25.028125 121.842188 translate
0.000000 rotate
0.000000 0.000000 m /six glyphshow
6.362305 0.000000 m /zero glyphshow
grestore
gsave
17.731250 56.028125 translate
90.000000 rotate
0.000000 0.000000 m /F glyphshow
5.001953 0.000000 m /r glyphshow
8.863281 0.000000 m /e glyphshow
15.015625 0.000000 m /q glyphshow
21.363281 0.000000 m /u glyphshow
27.701172 0.000000 m /e glyphshow
33.853516 0.000000 m /n glyphshow
40.191406 0.000000 m /c glyphshow
45.689453 0.000000 m /y glyphshow
grestore
/BitstreamVeraSans-Roman findfont
12.000 scalefont
setfont
gsave
88.258594 129.600000 translate
0.000000 rotate
0.000000 0.000000 m /t glyphshow
4.705078 0.000000 m /space glyphshow
8.519531 0.000000 m /equal glyphshow
18.574219 0.000000 m /space glyphshow
22.388672 0.000000 m /two glyphshow
30.023438 0.000000 m /zero glyphshow
37.658203 0.000000 m /space glyphshow
41.472656 0.000000 m /m glyphshow
53.162109 0.000000 m /i glyphshow
56.496094 0.000000 m /n glyphshow
grestore
gsave
250.987 37.8 m
409.823 37.8 l
409.823 124.6 l
250.987 124.6 l
cl
1.000 setgray
fill
grestore
1.000 setlinewidth
0 setlinejoin
gsave
158.8 86.8 251 37.8 clipbox
266.558 37.8 m
266.711 37.8 l
266.711 39.2467 l
266.558 39.2467 l
cl
gsave
0.000 0.000 1.000 setrgbcolor
fill
grestore
stroke
grestore
gsave
158.8 86.8 251 37.8 clipbox
266.711 37.8 m
266.865 37.8 l
266.865 37.8 l
266.711 37.8 l
cl
gsave
0.000 0.000 1.000 setrgbcolor
fill
grestore
stroke
grestore
gsave
158.8 86.8 251 37.8 clipbox
266.865 37.8 m
267.019 37.8 l
267.019 37.8 l
266.865 37.8 l
cl
gsave
0.000 0.000 1.000 setrgbcolor
fill
grestore
stroke
grestore
gsave
158.8 86.8 251 37.8 clipbox
267.019 37.8 m
267.172 37.8 l
267.172 37.8 l
267.019 37.8 l
cl
gsave
0.000 0.000 1.000 setrgbcolor
fill
grestore
stroke
grestore
gsave
158.8 86.8 251 37.8 clipbox
267.172 37.8 m
267.326 37.8 l
267.326 37.8 l
267.172 37.8 l
cl
gsave
0.000 0.000 1.000 setrgbcolor
fill
grestore
stroke
grestore
gsave
158.8 86.8 251 37.8 clipbox
267.326 37.8 m
267.479 37.8 l
267.479 37.8 l
267.326 37.8 l
cl
gsave
0.000 0.000 1.000 setrgbcolor
fill
grestore
stroke
grestore
gsave
158.8 86.8 251 37.8 clipbox
267.479 37.8 m
267.633 37.8 l
267.633 37.8 l
267.479 37.8 l
cl
gsave
0.000 0.000 1.000 setrgbcolor
fill
grestore
stroke
grestore
gsave
158.8 86.8 251 37.8 clipbox
267.633 37.8 m
267.786 37.8 l
267.786 37.8 l
267.633 37.8 l
cl
gsave
0.000 0.000 1.000 setrgbcolor
fill
grestore
stroke
grestore
gsave
158.8 86.8 251 37.8 clipbox
267.786 37.8 m
267.94 37.8 l
267.94 37.8 l
267.786 37.8 l
cl
gsave
0.000 0.000 1.000 setrgbcolor
fill
grestore
stroke
grestore
gsave
158.8 86.8 251 37.8 clipbox
267.94 37.8 m
268.093 37.8 l
268.093 37.8 l
267.94 37.8 l
cl
gsave
0.000 0.000 1.000 setrgbcolor
fill
grestore
stroke
grestore
gsave
158.8 86.8 251 37.8 clipbox
268.093 37.8 m
268.247 37.8 l
268.247 37.8 l
268.093 37.8 l
cl
gsave
0.000 0.000 1.000 setrgbcolor
fill
grestore
stroke
grestore
gsave
158.8 86.8 251 37.8 clipbox
268.247 37.8 m
268.401 37.8 l
268.401 37.8 l
268.247 37.8 l
cl
gsave
0.000 0.000 1.000 setrgbcolor
fill
grestore
stroke
grestore
gsave
158.8 86.8 251 37.8 clipbox
268.401 37.8 m
268.554 37.8 l
268.554 37.8 l
268.401 37.8 l
cl
gsave
0.000 0.000 1.000 setrgbcolor
fill
grestore
stroke
grestore
gsave
158.8 86.8 251 37.8 clipbox
268.554 37.8 m
268.708 37.8 l
268.708 37.8 l
268.554 37.8 l
cl
gsave
0.000 0.000 1.000 setrgbcolor
fill
grestore
stroke
grestore
gsave
158.8 86.8 251 37.8 clipbox
268.708 37.8 m
268.861 37.8 l
268.861 37.8 l
268.708 37.8 l
cl
gsave
0.000 0.000 1.000 setrgbcolor
fill
grestore
stroke
grestore
gsave
158.8 86.8 251 37.8 clipbox
268.861 37.8 m
269.015 37.8 l
269.015 37.8 l
268.861 37.8 l
cl
gsave
0.000 0.000 1.000 setrgbcolor
fill
grestore
stroke
grestore
gsave
158.8 86.8 251 37.8 clipbox
269.015 37.8 m
269.168 37.8 l
269.168 37.8 l
269.015 37.8 l
cl
gsave
0.000 0.000 1.000 setrgbcolor
fill
grestore
stroke
grestore
gsave
158.8 86.8 251 37.8 clipbox
269.168 37.8 m
269.322 37.8 l
269.322 37.8 l
269.168 37.8 l
cl
gsave
0.000 0.000 1.000 setrgbcolor
fill
grestore
stroke
grestore
gsave
158.8 86.8 251 37.8 clipbox
269.322 37.8 m
269.475 37.8 l
269.475 37.8 l
269.322 37.8 l
cl
gsave
0.000 0.000 1.000 setrgbcolor
fill
grestore
stroke
grestore
gsave
158.8 86.8 251 37.8 clipbox
269.475 37.8 m
269.629 37.8 l
269.629 37.8 l
269.475 37.8 l
cl
gsave
0.000 0.000 1.000 setrgbcolor
fill
grestore
stroke
grestore
gsave
158.8 86.8 251 37.8 clipbox
269.629 37.8 m
269.783 37.8 l
269.783 37.8 l
269.629 37.8 l
cl
gsave
0.000 0.000 1.000 setrgbcolor
fill
grestore
stroke
grestore
gsave
158.8 86.8 251 37.8 clipbox
269.783 37.8 m
269.936 37.8 l
269.936 37.8 l
269.783 37.8 l
cl
gsave
0.000 0.000 1.000 setrgbcolor
fill
grestore
stroke
grestore
gsave
158.8 86.8 251 37.8 clipbox
269.936 37.8 m
270.09 37.8 l
270.09 37.8 l
269.936 37.8 l
cl
gsave
0.000 0.000 1.000 setrgbcolor
fill
grestore
stroke
grestore
gsave
158.8 86.8 251 37.8 clipbox
270.09 37.8 m
270.243 37.8 l
270.243 37.8 l
270.09 37.8 l
cl
gsave
0.000 0.000 1.000 setrgbcolor
fill
grestore
stroke
grestore
gsave
158.8 86.8 251 37.8 clipbox
270.243 37.8 m
270.397 37.8 l
270.397 37.8 l
270.243 37.8 l
cl
gsave
0.000 0.000 1.000 setrgbcolor
fill
grestore
stroke
grestore
gsave
158.8 86.8 251 37.8 clipbox
270.397 37.8 m
270.55 37.8 l
270.55 37.8 l
270.397 37.8 l
cl
gsave
0.000 0.000 1.000 setrgbcolor
fill
grestore
stroke
grestore
gsave
158.8 86.8 251 37.8 clipbox
270.55 37.8 m
270.704 37.8 l
270.704 37.8 l
270.55 37.8 l
cl
gsave
0.000 0.000 1.000 setrgbcolor
fill
grestore
stroke
grestore
gsave
158.8 86.8 251 37.8 clipbox
270.704 37.8 m
270.857 37.8 l
270.857 37.8 l
270.704 37.8 l
cl
gsave
0.000 0.000 1.000 setrgbcolor
fill
grestore
stroke
grestore
gsave
158.8 86.8 251 37.8 clipbox
270.857 37.8 m
271.011 37.8 l
271.011 37.8 l
270.857 37.8 l
cl
gsave
0.000 0.000 1.000 setrgbcolor
fill
grestore
stroke
grestore
gsave
158.8 86.8 251 37.8 clipbox
271.011 37.8 m
271.165 37.8 l
271.165 37.8 l
271.011 37.8 l
cl
gsave
0.000 0.000 1.000 setrgbcolor
fill
grestore
stroke
grestore
gsave
158.8 86.8 251 37.8 clipbox
271.165 37.8 m
271.318 37.8 l
271.318 37.8 l
271.165 37.8 l
cl
gsave
0.000 0.000 1.000 setrgbcolor
fill
grestore
stroke
grestore
gsave
158.8 86.8 251 37.8 clipbox
271.318 37.8 m
271.472 37.8 l
271.472 37.8 l
271.318 37.8 l
cl
gsave
0.000 0.000 1.000 setrgbcolor
fill
grestore
stroke
grestore
gsave
158.8 86.8 251 37.8 clipbox
271.472 37.8 m
271.625 37.8 l
271.625 37.8 l
271.472 37.8 l
cl
gsave
0.000 0.000 1.000 setrgbcolor
fill
grestore
stroke
grestore
gsave
158.8 86.8 251 37.8 clipbox
271.625 37.8 m
271.779 37.8 l
271.779 37.8 l
271.625 37.8 l
cl
gsave
0.000 0.000 1.000 setrgbcolor
fill
grestore
stroke
grestore
gsave
158.8 86.8 251 37.8 clipbox
271.779 37.8 m
271.932 37.8 l
271.932 39.2467 l
271.779 39.2467 l
cl
gsave
0.000 0.000 1.000 setrgbcolor
fill
grestore
stroke
grestore
gsave
158.8 86.8 251 37.8 clipbox
271.932 37.8 m
272.086 37.8 l
272.086 37.8 l
271.932 37.8 l
cl
gsave
0.000 0.000 1.000 setrgbcolor
fill
grestore
stroke
grestore
gsave
158.8 86.8 251 37.8 clipbox
272.086 37.8 m
272.239 37.8 l
272.239 37.8 l
272.086 37.8 l
cl
gsave
0.000 0.000 1.000 setrgbcolor
fill
grestore
stroke
grestore
gsave
158.8 86.8 251 37.8 clipbox
272.239 37.8 m
272.393 37.8 l
272.393 39.2467 l
272.239 39.2467 l
cl
gsave
0.000 0.000 1.000 setrgbcolor
fill
grestore
stroke
grestore
gsave
158.8 86.8 251 37.8 clipbox
272.393 37.8 m
272.547 37.8 l
272.547 37.8 l
272.393 37.8 l
cl
gsave
0.000 0.000 1.000 setrgbcolor
fill
grestore
stroke
grestore
gsave
158.8 86.8 251 37.8 clipbox
272.547 37.8 m
272.7 37.8 l
272.7 39.2467 l
272.547 39.2467 l
cl
gsave
0.000 0.000 1.000 setrgbcolor
fill
grestore
stroke
grestore
gsave
158.8 86.8 251 37.8 clipbox
272.7 37.8 m
272.854 37.8 l
272.854 37.8 l
272.7 37.8 l
cl
gsave
0.000 0.000 1.000 setrgbcolor
fill
grestore
stroke
grestore
gsave
158.8 86.8 251 37.8 clipbox
272.854 37.8 m
273.007 37.8 l
273.007 37.8 l
272.854 37.8 l
cl
gsave
0.000 0.000 1.000 setrgbcolor
fill
grestore
stroke
grestore
gsave
158.8 86.8 251 37.8 clipbox
273.007 37.8 m
273.161 37.8 l
273.161 37.8 l
273.007 37.8 l
cl
gsave
0.000 0.000 1.000 setrgbcolor
fill
grestore
stroke
grestore
gsave
158.8 86.8 251 37.8 clipbox
273.161 37.8 m
273.314 37.8 l
273.314 37.8 l
273.161 37.8 l
cl
gsave
0.000 0.000 1.000 setrgbcolor
fill
grestore
stroke
grestore
gsave
158.8 86.8 251 37.8 clipbox
273.314 37.8 m
273.468 37.8 l
273.468 37.8 l
273.314 37.8 l
cl
gsave
0.000 0.000 1.000 setrgbcolor
fill
grestore
stroke
grestore
gsave
158.8 86.8 251 37.8 clipbox
273.468 37.8 m
273.622 37.8 l
273.622 37.8 l
273.468 37.8 l
cl
gsave
0.000 0.000 1.000 setrgbcolor
fill
grestore
stroke
grestore
gsave
158.8 86.8 251 37.8 clipbox
273.622 37.8 m
273.775 37.8 l
273.775 37.8 l
273.622 37.8 l
cl
gsave
0.000 0.000 1.000 setrgbcolor
fill
grestore
stroke
grestore
gsave
158.8 86.8 251 37.8 clipbox
273.775 37.8 m
273.929 37.8 l
273.929 37.8 l
273.775 37.8 l
cl
gsave
0.000 0.000 1.000 setrgbcolor
fill
grestore
stroke
grestore
gsave
158.8 86.8 251 37.8 clipbox
273.929 37.8 m
274.082 37.8 l
274.082 37.8 l
273.929 37.8 l
cl
gsave
0.000 0.000 1.000 setrgbcolor
fill
grestore
stroke
grestore
gsave
158.8 86.8 251 37.8 clipbox
274.082 37.8 m
274.236 37.8 l
274.236 39.2467 l
274.082 39.2467 l
cl
gsave
0.000 0.000 1.000 setrgbcolor
fill
grestore
stroke
grestore
gsave
158.8 86.8 251 37.8 clipbox
274.236 37.8 m
274.389 37.8 l
274.389 37.8 l
274.236 37.8 l
cl
gsave
0.000 0.000 1.000 setrgbcolor
fill
grestore
stroke
grestore
gsave
158.8 86.8 251 37.8 clipbox
274.389 37.8 m
274.543 37.8 l
274.543 40.6933 l
274.389 40.6933 l
cl
gsave
0.000 0.000 1.000 setrgbcolor
fill
grestore
stroke
grestore
gsave
158.8 86.8 251 37.8 clipbox
274.543 37.8 m
274.696 37.8 l
274.696 37.8 l
274.543 37.8 l
cl
gsave
0.000 0.000 1.000 setrgbcolor
fill
grestore
stroke
grestore
gsave
158.8 86.8 251 37.8 clipbox
274.696 37.8 m
274.85 37.8 l
274.85 39.2467 l
274.696 39.2467 l
cl
gsave
0.000 0.000 1.000 setrgbcolor
fill
grestore
stroke
grestore
gsave
158.8 86.8 251 37.8 clipbox
274.85 37.8 m
275.004 37.8 l
275.004 39.2467 l
274.85 39.2467 l
cl
gsave
0.000 0.000 1.000 setrgbcolor
fill
grestore
stroke
grestore
gsave
158.8 86.8 251 37.8 clipbox
275.004 37.8 m
275.157 37.8 l
275.157 39.2467 l
275.004 39.2467 l
cl
gsave
0.000 0.000 1.000 setrgbcolor
fill
grestore
stroke
grestore
gsave
158.8 86.8 251 37.8 clipbox
275.157 37.8 m
275.311 37.8 l
275.311 37.8 l
275.157 37.8 l
cl
gsave
0.000 0.000 1.000 setrgbcolor
fill
grestore
stroke
grestore
gsave
158.8 86.8 251 37.8 clipbox
275.311 37.8 m
275.464 37.8 l
275.464 42.14 l
275.311 42.14 l
cl
gsave
0.000 0.000 1.000 setrgbcolor
fill
grestore
stroke
grestore
gsave
158.8 86.8 251 37.8 clipbox
275.464 37.8 m
275.618 37.8 l
275.618 45.0333 l
275.464 45.0333 l
cl
gsave
0.000 0.000 1.000 setrgbcolor
fill
grestore
stroke
grestore
gsave
158.8 86.8 251 37.8 clipbox
275.618 37.8 m
275.771 37.8 l
275.771 43.5867 l
275.618 43.5867 l
cl
gsave
0.000 0.000 1.000 setrgbcolor
fill
grestore
stroke
grestore
gsave
158.8 86.8 251 37.8 clipbox
275.771 37.8 m
275.925 37.8 l
275.925 47.9267 l
275.771 47.9267 l
cl
gsave
0.000 0.000 1.000 setrgbcolor
fill
grestore
stroke
grestore
gsave
158.8 86.8 251 37.8 clipbox
275.925 37.8 m
276.078 37.8 l
276.078 52.2667 l
275.925 52.2667 l
cl
gsave
0.000 0.000 1.000 setrgbcolor
fill
grestore
stroke
grestore
gsave
158.8 86.8 251 37.8 clipbox
276.078 37.8 m
276.232 37.8 l
276.232 53.7133 l
276.078 53.7133 l
cl
gsave
0.000 0.000 1.000 setrgbcolor
fill
grestore
stroke
grestore
gsave
158.8 86.8 251 37.8 clipbox
276.232 37.8 m
276.386 37.8 l
276.386 60.9467 l
276.232 60.9467 l
cl
gsave
0.000 0.000 1.000 setrgbcolor
fill
grestore
stroke
grestore
gsave
158.8 86.8 251 37.8 clipbox
276.386 37.8 m
276.539 37.8 l
276.539 62.3933 l
276.386 62.3933 l
cl
gsave
0.000 0.000 1.000 setrgbcolor
fill
grestore
stroke
grestore
gsave
158.8 86.8 251 37.8 clipbox
276.539 37.8 m
276.693 37.8 l
276.693 58.0533 l
276.539 58.0533 l
cl
gsave
0.000 0.000 1.000 setrgbcolor
fill
grestore
stroke
grestore
gsave
158.8 86.8 251 37.8 clipbox
276.693 37.8 m
276.846 37.8 l
276.846 76.86 l
276.693 76.86 l
cl
gsave
0.000 0.000 1.000 setrgbcolor
fill
grestore
stroke
grestore
gsave
158.8 86.8 251 37.8 clipbox
276.846 37.8 m
277 37.8 l
277 68.18 l
276.846 68.18 l
cl
gsave
0.000 0.000 1.000 setrgbcolor
fill
grestore
stroke
grestore
gsave
158.8 86.8 251 37.8 clipbox
277 37.8 m
277.153 37.8 l
277.153 92.7733 l
277 92.7733 l
cl
gsave
0.000 0.000 1.000 setrgbcolor
fill
grestore
stroke
grestore
gsave
158.8 86.8 251 37.8 clipbox
277.153 37.8 m
277.307 37.8 l
277.307 72.52 l
277.153 72.52 l
cl
gsave
0.000 0.000 1.000 setrgbcolor
fill
grestore
stroke
grestore
gsave
158.8 86.8 251 37.8 clipbox
277.307 37.8 m
277.46 37.8 l
277.46 89.88 l
277.307 89.88 l
cl
gsave
0.000 0.000 1.000 setrgbcolor
fill
grestore
stroke
grestore
gsave
158.8 86.8 251 37.8 clipbox
277.46 37.8 m
277.614 37.8 l
277.614 113.027 l
277.46 113.027 l
cl
gsave
0.000 0.000 1.000 setrgbcolor
fill
grestore
stroke
grestore
gsave
158.8 86.8 251 37.8 clipbox
277.614 37.8 m
277.768 37.8 l
277.768 110.133 l
277.614 110.133 l
cl
gsave
0.000 0.000 1.000 setrgbcolor
fill
grestore
stroke
grestore
gsave
158.8 86.8 251 37.8 clipbox
277.768 37.8 m
277.921 37.8 l
277.921 107.24 l
277.768 107.24 l
cl
gsave
0.000 0.000 1.000 setrgbcolor
fill
grestore
stroke
grestore
gsave
158.8 86.8 251 37.8 clipbox
277.921 37.8 m
278.075 37.8 l
278.075 104.347 l
277.921 104.347 l
cl
gsave
0.000 0.000 1.000 setrgbcolor
fill
grestore
stroke
grestore
gsave
158.8 86.8 251 37.8 clipbox
278.075 37.8 m
278.228 37.8 l
278.228 100.007 l
278.075 100.007 l
cl
gsave
0.000 0.000 1.000 setrgbcolor
fill
grestore
stroke
grestore
gsave
158.8 86.8 251 37.8 clipbox
278.228 37.8 m
278.382 37.8 l
278.382 95.6667 l
278.228 95.6667 l
cl
gsave
0.000 0.000 1.000 setrgbcolor
fill
grestore
stroke
grestore
gsave
158.8 86.8 251 37.8 clipbox
278.382 37.8 m
278.535 37.8 l
278.535 113.027 l
278.382 113.027 l
cl
gsave
0.000 0.000 1.000 setrgbcolor
fill
grestore
stroke
grestore
gsave
158.8 86.8 251 37.8 clipbox
278.535 37.8 m
278.689 37.8 l
278.689 124.6 l
278.535 124.6 l
cl
gsave
0.000 0.000 1.000 setrgbcolor
fill
grestore
stroke
grestore
gsave
158.8 86.8 251 37.8 clipbox
278.689 37.8 m
278.842 37.8 l
278.842 111.58 l
278.689 111.58 l
cl
gsave
0.000 0.000 1.000 setrgbcolor
fill
grestore
stroke
grestore
gsave
158.8 86.8 251 37.8 clipbox
278.842 37.8 m
278.996 37.8 l
278.996 105.793 l
278.842 105.793 l
cl
gsave
0.000 0.000 1.000 setrgbcolor
fill
grestore
stroke
grestore
gsave
158.8 86.8 251 37.8 clipbox
278.996 37.8 m
279.15 37.8 l
279.15 92.7733 l
278.996 92.7733 l
cl
gsave
0.000 0.000 1.000 setrgbcolor
fill
grestore
stroke
grestore
gsave
158.8 86.8 251 37.8 clipbox
279.15 37.8 m
279.303 37.8 l
279.303 95.6667 l
279.15 95.6667 l
cl
gsave
0.000 0.000 1.000 setrgbcolor
fill
grestore
stroke
grestore
gsave
158.8 86.8 251 37.8 clipbox
279.303 37.8 m
279.457 37.8 l
279.457 86.9867 l
279.303 86.9867 l
cl
gsave
0.000 0.000 1.000 setrgbcolor
fill
grestore
stroke
grestore
gsave
158.8 86.8 251 37.8 clipbox
279.457 37.8 m
279.61 37.8 l
279.61 75.4133 l
279.457 75.4133 l
cl
gsave
0.000 0.000 1.000 setrgbcolor
fill
grestore
stroke
grestore
gsave
158.8 86.8 251 37.8 clipbox
279.61 37.8 m
279.764 37.8 l
279.764 79.7533 l
279.61 79.7533 l
cl
gsave
0.000 0.000 1.000 setrgbcolor
fill
grestore
stroke
grestore
gsave
158.8 86.8 251 37.8 clipbox
279.764 37.8 m
279.917 37.8 l
279.917 75.4133 l
279.764 75.4133 l
cl
gsave
0.000 0.000 1.000 setrgbcolor
fill
grestore
stroke
grestore
gsave
158.8 86.8 251 37.8 clipbox
279.917 37.8 m
280.071 37.8 l
280.071 62.3933 l
279.917 62.3933 l
cl
gsave
0.000 0.000 1.000 setrgbcolor
fill
grestore
stroke
grestore
gsave
158.8 86.8 251 37.8 clipbox
280.071 37.8 m
280.224 37.8 l
280.224 52.2667 l
280.071 52.2667 l
cl
gsave
0.000 0.000 1.000 setrgbcolor
fill
grestore
stroke
grestore
gsave
158.8 86.8 251 37.8 clipbox
280.224 37.8 m
280.378 37.8 l
280.378 49.3733 l
280.224 49.3733 l
cl
gsave
0.000 0.000 1.000 setrgbcolor
fill
grestore
stroke
grestore
gsave
158.8 86.8 251 37.8 clipbox
280.378 37.8 m
280.532 37.8 l
280.532 49.3733 l
280.378 49.3733 l
cl
gsave
0.000 0.000 1.000 setrgbcolor
fill
grestore
stroke
grestore
gsave
158.8 86.8 251 37.8 clipbox
280.532 37.8 m
280.685 37.8 l
280.685 52.2667 l
280.532 52.2667 l
cl
gsave
0.000 0.000 1.000 setrgbcolor
fill
grestore
stroke
grestore
gsave
158.8 86.8 251 37.8 clipbox
280.685 37.8 m
280.839 37.8 l
280.839 49.3733 l
280.685 49.3733 l
cl
gsave
0.000 0.000 1.000 setrgbcolor
fill
grestore
stroke
grestore
gsave
158.8 86.8 251 37.8 clipbox
280.839 37.8 m
280.992 37.8 l
280.992 39.2467 l
280.839 39.2467 l
cl
gsave
0.000 0.000 1.000 setrgbcolor
fill
grestore
stroke
grestore
gsave
158.8 86.8 251 37.8 clipbox
280.992 37.8 m
281.146 37.8 l
281.146 46.48 l
280.992 46.48 l
cl
gsave
0.000 0.000 1.000 setrgbcolor
fill
grestore
stroke
grestore
gsave
158.8 86.8 251 37.8 clipbox
281.146 37.8 m
281.299 37.8 l
281.299 40.6933 l
281.146 40.6933 l
cl
gsave
0.000 0.000 1.000 setrgbcolor
fill
grestore
stroke
grestore
gsave
158.8 86.8 251 37.8 clipbox
281.299 37.8 m
281.453 37.8 l
281.453 37.8 l
281.299 37.8 l
cl
gsave
0.000 0.000 1.000 setrgbcolor
fill
grestore
stroke
grestore
gsave
158.8 86.8 251 37.8 clipbox
281.453 37.8 m
281.607 37.8 l
281.607 42.14 l
281.453 42.14 l
cl
gsave
0.000 0.000 1.000 setrgbcolor
fill
grestore
stroke
grestore
gsave
158.8 86.8 251 37.8 clipbox
281.607 37.8 m
281.76 37.8 l
281.76 39.2467 l
281.607 39.2467 l
cl
gsave
0.000 0.000 1.000 setrgbcolor
fill
grestore
stroke
grestore
gsave
158.8 86.8 251 37.8 clipbox
281.76 37.8 m
281.914 37.8 l
281.914 39.2467 l
281.76 39.2467 l
cl
gsave
0.000 0.000 1.000 setrgbcolor
fill
grestore
stroke
grestore
1 setlinejoin
2 setlinecap
1.000 0.000 0.000 setrgbcolor
gsave
158.8 86.8 251 37.8 clipbox
279.664 37.8 m
279.664 124.6 l
stroke
grestore
0 setlinejoin
0.000 setgray
gsave
250.987 124.6 m
409.823 124.6 l
stroke
grestore
gsave
409.823 37.8 m
409.823 124.6 l
stroke
grestore
gsave
250.987 37.8 m
409.823 37.8 l
stroke
grestore
gsave
250.987 37.8 m
250.987 124.6 l
stroke
grestore
0.500 setlinewidth
1 setlinejoin
0 setlinecap
gsave
/o {
gsave
newpath
translate
0.5 setlinewidth
1 setlinejoin
0 setlinecap
0 0 m
0 4 l
gsave
0.000 setgray
fill
grestore
stroke
grestore
} bind def
250.987 37.8 o
grestore
gsave
/o {
gsave
newpath
translate
0.5 setlinewidth
1 setlinejoin
0 setlinecap
0 0 m
0 -4 l
gsave
0.000 setgray
fill
grestore
stroke
grestore
} bind def
250.987 124.6 o
grestore
/BitstreamVeraSans-Roman findfont
10.000 scalefont
setfont
gsave
239.659375 26.206250 translate
0.000000 rotate
0.000000 0.000000 m /minus glyphshow
8.378906 0.000000 m /one glyphshow
14.741211 0.000000 m /period glyphshow
17.919922 0.000000 m /four glyphshow
grestore
gsave
/o {
gsave
newpath
translate
0.5 setlinewidth
1 setlinejoin
0 setlinecap
0 0 m
0 4 l
gsave
0.000 setgray
fill
grestore
stroke
grestore
} bind def
303.933 37.8 o
grestore
gsave
/o {
gsave
newpath
translate
0.5 setlinewidth
1 setlinejoin
0 setlinecap
0 0 m
0 -4 l
gsave
0.000 setgray
fill
grestore
stroke
grestore
} bind def
303.933 124.6 o
grestore
gsave
292.823438 26.206250 translate
0.000000 rotate
0.000000 0.000000 m /minus glyphshow
8.378906 0.000000 m /one glyphshow
14.741211 0.000000 m /period glyphshow
17.919922 0.000000 m /two glyphshow
grestore
gsave
/o {
gsave
newpath
translate
0.5 setlinewidth
1 setlinejoin
0 setlinecap
0 0 m
0 4 l
gsave
0.000 setgray
fill
grestore
stroke
grestore
} bind def
356.878 37.8 o
grestore
gsave
/o {
gsave
newpath
translate
0.5 setlinewidth
1 setlinejoin
0 setlinecap
0 0 m
0 -4 l
gsave
0.000 setgray
fill
grestore
stroke
grestore
} bind def
356.878 124.6 o
grestore
gsave
345.596875 26.206250 translate
0.000000 rotate
0.000000 0.000000 m /minus glyphshow
8.378906 0.000000 m /one glyphshow
14.741211 0.000000 m /period glyphshow
17.919922 0.000000 m /zero glyphshow
grestore
gsave
/o {
gsave
newpath
translate
0.5 setlinewidth
1 setlinejoin
0 setlinecap
0 0 m
0 4 l
gsave
0.000 setgray
fill
grestore
stroke
grestore
} bind def
409.823 37.8 o
grestore
gsave
/o {
gsave
newpath
translate
0.5 setlinewidth
1 setlinejoin
0 setlinecap
0 0 m
0 -4 l
gsave
0.000 setgray
fill
grestore
stroke
grestore
} bind def
409.823 124.6 o
grestore
gsave
398.550000 26.206250 translate
0.000000 rotate
0.000000 0.000000 m /minus glyphshow
8.378906 0.000000 m /zero glyphshow
14.741211 0.000000 m /period glyphshow
17.919922 0.000000 m /eight glyphshow
grestore
gsave
274.999219 11.534375 translate
0.000000 rotate
0.000000 0.000000 m /space glyphshow
3.178711 0.000000 m /R glyphshow
9.626953 0.000000 m /e glyphshow
15.779297 0.000000 m /l glyphshow
18.557617 0.000000 m /e glyphshow
24.709961 0.000000 m /a glyphshow
30.837891 0.000000 m /s glyphshow
36.047852 0.000000 m /e glyphshow
42.200195 0.000000 m /space glyphshow
45.378906 0.000000 m /l glyphshow
48.157227 0.000000 m /o glyphshow
54.275391 0.000000 m /c glyphshow
59.773438 0.000000 m /a glyphshow
65.901367 0.000000 m /t glyphshow
69.822266 0.000000 m /i glyphshow
72.600586 0.000000 m /o glyphshow
78.718750 0.000000 m /n glyphshow
85.056641 0.000000 m /space glyphshow
88.235352 0.000000 m /parenleft glyphshow
92.136719 0.000000 m /k glyphshow
97.927734 0.000000 m /m glyphshow
107.668945 0.000000 m /parenright glyphshow
grestore
gsave
/o {
gsave
newpath
translate
0.5 setlinewidth
1 setlinejoin
0 setlinecap
0 0 m
4 0 l
gsave
0.000 setgray
fill
grestore
stroke
grestore
} bind def
250.987 37.8 o
grestore
gsave
/o {
gsave
newpath
translate
0.5 setlinewidth
1 setlinejoin
0 setlinecap
0 0 m
-4 0 l
gsave
0.000 setgray
fill
grestore
stroke
grestore
} bind def
409.823 37.8 o
grestore
gsave
241.940625 35.042188 translate
0.000000 rotate
0.000000 0.000000 m /zero glyphshow
grestore
gsave
/o {
gsave
newpath
translate
0.5 setlinewidth
1 setlinejoin
0 setlinecap
0 0 m
4 0 l
gsave
0.000 setgray
fill
grestore
stroke
grestore
} bind def
250.987 66.7333 o
grestore
gsave
/o {
gsave
newpath
translate
0.5 setlinewidth
1 setlinejoin
0 setlinecap
0 0 m
-4 0 l
gsave
0.000 setgray
fill
grestore
stroke
grestore
} bind def
409.823 66.7333 o
grestore
gsave
235.659375 63.975521 translate
0.000000 rotate
0.000000 0.000000 m /two glyphshow
6.362305 0.000000 m /zero glyphshow
grestore
gsave
/o {
gsave
newpath
translate
0.5 setlinewidth
1 setlinejoin
0 setlinecap
0 0 m
4 0 l
gsave
0.000 setgray
fill
grestore
stroke
grestore
} bind def
250.987 95.6667 o
grestore
gsave
/o {
gsave
newpath
translate
0.5 setlinewidth
1 setlinejoin
0 setlinecap
0 0 m
-4 0 l
gsave
0.000 setgray
fill
grestore
stroke
grestore
} bind def
409.823 95.6667 o
grestore
gsave
235.409375 92.908854 translate
0.000000 rotate
0.000000 0.000000 m /four glyphshow
6.362305 0.000000 m /zero glyphshow
grestore
gsave
/o {
gsave
newpath
translate
0.5 setlinewidth
1 setlinejoin
0 setlinecap
0 0 m
4 0 l
gsave
0.000 setgray
fill
grestore
stroke
grestore
} bind def
250.987 124.6 o
grestore
gsave
/o {
gsave
newpath
translate
0.5 setlinewidth
1 setlinejoin
0 setlinecap
0 0 m
-4 0 l
gsave
0.000 setgray
fill
grestore
stroke
grestore
} bind def
409.823 124.6 o
grestore
gsave
235.628125 121.842188 translate
0.000000 rotate
0.000000 0.000000 m /six glyphshow
6.362305 0.000000 m /zero glyphshow
grestore
gsave
228.331250 56.028125 translate
90.000000 rotate
0.000000 0.000000 m /F glyphshow
5.001953 0.000000 m /r glyphshow
8.863281 0.000000 m /e glyphshow
15.015625 0.000000 m /q glyphshow
21.363281 0.000000 m /u glyphshow
27.701172 0.000000 m /e glyphshow
33.853516 0.000000 m /n glyphshow
40.191406 0.000000 m /c glyphshow
45.689453 0.000000 m /y glyphshow
grestore
/BitstreamVeraSans-Roman findfont
12.000 scalefont
setfont
gsave
298.858594 129.600000 translate
0.000000 rotate
0.000000 0.000000 m /t glyphshow
4.705078 0.000000 m /space glyphshow
8.519531 0.000000 m /equal glyphshow
18.574219 0.000000 m /space glyphshow
22.388672 0.000000 m /three glyphshow
30.023438 0.000000 m /zero glyphshow
37.658203 0.000000 m /space glyphshow
41.472656 0.000000 m /m glyphshow
53.162109 0.000000 m /i glyphshow
56.496094 0.000000 m /n glyphshow
grestore

end
showpage
