%!PS-Adobe-3.0 EPSF-3.0
%%Title: first_sensor.eps
%%Creator: matplotlib version 1.4.3, http://matplotlib.org/
%%CreationDate: Sat Dec 12 02:00:29 2015
%%Orientation: portrait
%%BoundingBox: 90 252 522 540
%%EndComments
%%BeginProlog
/mpldict 8 dict def
mpldict begin
/m { moveto } bind def
/l { lineto } bind def
/r { rlineto } bind def
/c { curveto } bind def
/cl { closepath } bind def
/box {
m
1 index 0 r
0 exch r
neg 0 r
cl
} bind def
/clipbox {
box
clip
newpath
} bind def
%!PS-Adobe-3.0 Resource-Font
%%Title: Bitstream Vera Sans
%%Copyright: Copyright (c) 2003 by Bitstream, Inc. All Rights Reserved.
%%Creator: Converted from TrueType to type 3 by PPR
25 dict begin
/_d{bind def}bind def
/_m{moveto}_d
/_l{lineto}_d
/_cl{closepath eofill}_d
/_c{curveto}_d
/_sc{7 -1 roll{setcachedevice}{pop pop pop pop pop pop}ifelse}_d
/_e{exec}_d
/FontName /BitstreamVeraSans-Roman def
/PaintType 0 def
/FontMatrix[.001 0 0 .001 0 0]def
/FontBBox[-183 -236 1287 928]def
/FontType 3 def
/Encoding [ /space /period /zero /one /two /three /four /five /six /seven /eight /nine /e /f /i /n /o /r /s /t /minus ] def
/FontInfo 10 dict dup begin
/FamilyName (Bitstream Vera Sans) def
/FullName (Bitstream Vera Sans) def
/Notice (Copyright (c) 2003 by Bitstream, Inc. All Rights Reserved. Bitstream Vera is a trademark of Bitstream, Inc.) def
/Weight (Roman) def
/Version (Release 1.10) def
/ItalicAngle 0.0 def
/isFixedPitch false def
/UnderlinePosition -213 def
/UnderlineThickness 143 def
end readonly def
/CharStrings 21 dict dup begin
/space{318 0 0 0 0 0 _sc
}_d
/period{318 0 107 0 210 124 _sc
107 124 _m
210 124 _l
210 0 _l
107 0 _l
107 124 _l
_cl}_d
/zero{636 0 66 -13 570 742 _sc
318 664 _m
267 664 229 639 203 589 _c
177 539 165 464 165 364 _c
165 264 177 189 203 139 _c
229 89 267 64 318 64 _c
369 64 407 89 433 139 _c
458 189 471 264 471 364 _c
471 464 458 539 433 589 _c
407 639 369 664 318 664 _c
318 742 _m
399 742 461 709 505 645 _c
548 580 570 486 570 364 _c
570 241 548 147 505 83 _c
461 19 399 -13 318 -13 _c
236 -13 173 19 130 83 _c
87 147 66 241 66 364 _c
66 486 87 580 130 645 _c
173 709 236 742 318 742 _c
_cl}_d
/one{636 0 110 0 544 729 _sc
124 83 _m
285 83 _l
285 639 _l
110 604 _l
110 694 _l
284 729 _l
383 729 _l
383 83 _l
544 83 _l
544 0 _l
124 0 _l
124 83 _l
_cl}_d
/two{{636 0 73 0 536 742 _sc
192 83 _m
536 83 _l
536 0 _l
73 0 _l
73 83 _l
110 121 161 173 226 239 _c
290 304 331 346 348 365 _c
380 400 402 430 414 455 _c
426 479 433 504 433 528 _c
433 566 419 598 392 622 _c
365 646 330 659 286 659 _c
255 659 222 653 188 643 _c
154 632 117 616 78 594 _c
78 694 _l
118 710 155 722 189 730 _c
223 738 255 742 284 742 _c
}_e{359 742 419 723 464 685 _c
509 647 532 597 532 534 _c
532 504 526 475 515 449 _c
504 422 484 390 454 354 _c
446 344 420 317 376 272 _c
332 227 271 164 192 83 _c
_cl}_e}_d
/three{{636 0 76 -13 556 742 _sc
406 393 _m
453 383 490 362 516 330 _c
542 298 556 258 556 212 _c
556 140 531 84 482 45 _c
432 6 362 -13 271 -13 _c
240 -13 208 -10 176 -4 _c
144 1 110 10 76 22 _c
76 117 _l
103 101 133 89 166 81 _c
198 73 232 69 268 69 _c
330 69 377 81 409 105 _c
441 129 458 165 458 212 _c
458 254 443 288 413 312 _c
383 336 341 349 287 349 _c
}_e{202 349 _l
202 430 _l
291 430 _l
339 430 376 439 402 459 _c
428 478 441 506 441 543 _c
441 580 427 609 401 629 _c
374 649 336 659 287 659 _c
260 659 231 656 200 650 _c
169 644 135 635 98 623 _c
98 711 _l
135 721 170 729 203 734 _c
235 739 266 742 296 742 _c
370 742 429 725 473 691 _c
517 657 539 611 539 553 _c
539 513 527 479 504 451 _c
481 423 448 403 406 393 _c
_cl}_e}_d
/four{636 0 49 0 580 729 _sc
378 643 _m
129 254 _l
378 254 _l
378 643 _l
352 729 _m
476 729 _l
476 254 _l
580 254 _l
580 172 _l
476 172 _l
476 0 _l
378 0 _l
378 172 _l
49 172 _l
49 267 _l
352 729 _l
_cl}_d
/five{{636 0 77 -13 549 729 _sc
108 729 _m
495 729 _l
495 646 _l
198 646 _l
198 467 _l
212 472 227 476 241 478 _c
255 480 270 482 284 482 _c
365 482 429 459 477 415 _c
525 370 549 310 549 234 _c
549 155 524 94 475 51 _c
426 8 357 -13 269 -13 _c
238 -13 207 -10 175 -6 _c
143 -1 111 6 77 17 _c
77 116 _l
106 100 136 88 168 80 _c
199 72 232 69 267 69 _c
}_e{323 69 368 83 401 113 _c
433 143 450 183 450 234 _c
450 284 433 324 401 354 _c
368 384 323 399 267 399 _c
241 399 214 396 188 390 _c
162 384 135 375 108 363 _c
108 729 _l
_cl}_e}_d
/six{{636 0 70 -13 573 742 _sc
330 404 _m
286 404 251 388 225 358 _c
199 328 186 286 186 234 _c
186 181 199 139 225 109 _c
251 79 286 64 330 64 _c
374 64 409 79 435 109 _c
461 139 474 181 474 234 _c
474 286 461 328 435 358 _c
409 388 374 404 330 404 _c
526 713 _m
526 623 _l
501 635 476 644 451 650 _c
425 656 400 659 376 659 _c
310 659 260 637 226 593 _c
}_e{192 549 172 482 168 394 _c
187 422 211 444 240 459 _c
269 474 301 482 336 482 _c
409 482 467 459 509 415 _c
551 371 573 310 573 234 _c
573 159 550 99 506 54 _c
462 9 403 -13 330 -13 _c
246 -13 181 19 137 83 _c
92 147 70 241 70 364 _c
70 479 97 571 152 639 _c
206 707 280 742 372 742 _c
396 742 421 739 447 735 _c
472 730 498 723 526 713 _c
_cl}_e}_d
/seven{636 0 82 0 551 729 _sc
82 729 _m
551 729 _l
551 687 _l
286 0 _l
183 0 _l
432 646 _l
82 646 _l
82 729 _l
_cl}_d
/eight{{636 0 68 -13 568 742 _sc
318 346 _m
271 346 234 333 207 308 _c
180 283 167 249 167 205 _c
167 161 180 126 207 101 _c
234 76 271 64 318 64 _c
364 64 401 76 428 102 _c
455 127 469 161 469 205 _c
469 249 455 283 429 308 _c
402 333 365 346 318 346 _c
219 388 _m
177 398 144 418 120 447 _c
96 476 85 511 85 553 _c
85 611 105 657 147 691 _c
188 725 245 742 318 742 _c
}_e{390 742 447 725 489 691 _c
530 657 551 611 551 553 _c
551 511 539 476 515 447 _c
491 418 459 398 417 388 _c
464 377 501 355 528 323 _c
554 291 568 251 568 205 _c
568 134 546 80 503 43 _c
459 5 398 -13 318 -13 _c
237 -13 175 5 132 43 _c
89 80 68 134 68 205 _c
68 251 81 291 108 323 _c
134 355 171 377 219 388 _c
183 544 _m
183 506 194 476 218 455 _c
}_e{242 434 275 424 318 424 _c
360 424 393 434 417 455 _c
441 476 453 506 453 544 _c
453 582 441 611 417 632 _c
393 653 360 664 318 664 _c
275 664 242 653 218 632 _c
194 611 183 582 183 544 _c
_cl}_e}_d
/nine{{636 0 63 -13 566 742 _sc
110 15 _m
110 105 _l
134 93 159 84 185 78 _c
210 72 235 69 260 69 _c
324 69 374 90 408 134 _c
442 178 462 244 468 334 _c
448 306 424 284 396 269 _c
367 254 335 247 300 247 _c
226 247 168 269 126 313 _c
84 357 63 417 63 494 _c
63 568 85 628 129 674 _c
173 719 232 742 306 742 _c
390 742 455 709 499 645 _c
543 580 566 486 566 364 _c
}_e{566 248 538 157 484 89 _c
429 21 356 -13 264 -13 _c
239 -13 214 -10 189 -6 _c
163 -2 137 5 110 15 _c
306 324 _m
350 324 385 339 411 369 _c
437 399 450 441 450 494 _c
450 546 437 588 411 618 _c
385 648 350 664 306 664 _c
262 664 227 648 201 618 _c
175 588 162 546 162 494 _c
162 441 175 399 201 369 _c
227 339 262 324 306 324 _c
_cl}_e}_d
/e{{615 0 55 -13 562 560 _sc
562 296 _m
562 252 _l
149 252 _l
153 190 171 142 205 110 _c
238 78 284 62 344 62 _c
378 62 412 66 444 74 _c
476 82 509 95 541 113 _c
541 28 _l
509 14 476 3 442 -3 _c
408 -9 373 -13 339 -13 _c
251 -13 182 12 131 62 _c
80 112 55 181 55 268 _c
55 357 79 428 127 481 _c
175 533 241 560 323 560 _c
397 560 455 536 498 489 _c
}_e{540 441 562 377 562 296 _c
472 322 _m
471 371 457 410 431 440 _c
404 469 368 484 324 484 _c
274 484 234 469 204 441 _c
174 413 156 373 152 322 _c
472 322 _l
_cl}_e}_d
/f{352 0 23 0 371 760 _sc
371 760 _m
371 685 _l
285 685 _l
253 685 230 678 218 665 _c
205 652 199 629 199 595 _c
199 547 _l
347 547 _l
347 477 _l
199 477 _l
199 0 _l
109 0 _l
109 477 _l
23 477 _l
23 547 _l
109 547 _l
109 585 _l
109 645 123 690 151 718 _c
179 746 224 760 286 760 _c
371 760 _l
_cl}_d
/i{278 0 94 0 184 760 _sc
94 547 _m
184 547 _l
184 0 _l
94 0 _l
94 547 _l
94 760 _m
184 760 _l
184 646 _l
94 646 _l
94 760 _l
_cl}_d
/n{634 0 91 0 549 560 _sc
549 330 _m
549 0 _l
459 0 _l
459 327 _l
459 379 448 417 428 443 _c
408 469 378 482 338 482 _c
289 482 251 466 223 435 _c
195 404 181 362 181 309 _c
181 0 _l
91 0 _l
91 547 _l
181 547 _l
181 462 _l
202 494 227 519 257 535 _c
286 551 320 560 358 560 _c
420 560 468 540 500 501 _c
532 462 549 405 549 330 _c
_cl}_d
/o{612 0 55 -13 557 560 _sc
306 484 _m
258 484 220 465 192 427 _c
164 389 150 338 150 273 _c
150 207 163 156 191 118 _c
219 80 257 62 306 62 _c
354 62 392 80 420 118 _c
448 156 462 207 462 273 _c
462 337 448 389 420 427 _c
392 465 354 484 306 484 _c
306 560 _m
384 560 445 534 490 484 _c
534 433 557 363 557 273 _c
557 183 534 113 490 63 _c
445 12 384 -13 306 -13 _c
227 -13 165 12 121 63 _c
77 113 55 183 55 273 _c
55 363 77 433 121 484 _c
165 534 227 560 306 560 _c
_cl}_d
/r{411 0 91 0 411 560 _sc
411 463 _m
401 469 390 473 378 476 _c
366 478 353 480 339 480 _c
288 480 249 463 222 430 _c
194 397 181 350 181 288 _c
181 0 _l
91 0 _l
91 547 _l
181 547 _l
181 462 _l
199 495 224 520 254 536 _c
284 552 321 560 365 560 _c
371 560 378 559 386 559 _c
393 558 401 557 411 555 _c
411 463 _l
_cl}_d
/s{{521 0 54 -13 472 560 _sc
443 531 _m
443 446 _l
417 458 391 468 364 475 _c
336 481 308 485 279 485 _c
234 485 200 478 178 464 _c
156 450 145 430 145 403 _c
145 382 153 366 169 354 _c
185 342 217 330 265 320 _c
296 313 _l
360 299 405 279 432 255 _c
458 230 472 195 472 151 _c
472 100 452 60 412 31 _c
372 1 316 -13 246 -13 _c
216 -13 186 -10 154 -5 _c
}_e{122 0 89 8 54 20 _c
54 113 _l
87 95 120 82 152 74 _c
184 65 216 61 248 61 _c
290 61 323 68 346 82 _c
368 96 380 117 380 144 _c
380 168 371 187 355 200 _c
339 213 303 226 247 238 _c
216 245 _l
160 257 119 275 95 299 _c
70 323 58 356 58 399 _c
58 450 76 490 112 518 _c
148 546 200 560 268 560 _c
301 560 332 557 362 552 _c
391 547 418 540 443 531 _c
}_e{_cl}_e}_d
/t{392 0 27 0 368 702 _sc
183 702 _m
183 547 _l
368 547 _l
368 477 _l
183 477 _l
183 180 _l
183 135 189 106 201 94 _c
213 81 238 75 276 75 _c
368 75 _l
368 0 _l
276 0 _l
206 0 158 13 132 39 _c
106 65 93 112 93 180 _c
93 477 _l
27 477 _l
27 547 _l
93 547 _l
93 702 _l
183 702 _l
_cl}_d
/minus{838 0 106 272 732 355 _sc
106 355 _m
732 355 _l
732 272 _l
106 272 _l
106 355 _l
_cl}_d
end readonly def

/BuildGlyph
 {exch begin
 CharStrings exch
 2 copy known not{pop /.notdef}if
 true 3 1 roll get exec
 end}_d

/BuildChar {
 1 index /Encoding get exch get
 1 index /BuildGlyph get exec
}_d

FontName currentdict end definefont pop
end
%%EndProlog
mpldict begin
90 252 translate
432 288 0 0 clipbox
gsave
0 0 m
432 0 l
432 288 l
0 288 l
cl
1.000 setgray
fill
grestore
gsave
54 36 m
321.84 36 l
321.84 259.2 l
54 259.2 l
cl
1.000 setgray
fill
grestore
gsave
267.8 223.2 54 36 clipbox
54 36 m
54 47.16 l
80.784 47.16 l
80.784 36 l
54 36 l
cl
0.500 0.000 1.000 setrgbcolor
fill
grestore
gsave
267.8 223.2 54 36 clipbox
80.784 36 m
80.784 47.16 l
107.568 47.16 l
107.568 36 l
80.784 36 l
cl
0.500 0.000 1.000 setrgbcolor
fill
grestore
gsave
267.8 223.2 54 36 clipbox
107.568 36 m
107.568 47.16 l
134.352 47.16 l
134.352 36 l
107.568 36 l
cl
0.500 0.000 1.000 setrgbcolor
fill
grestore
gsave
267.8 223.2 54 36 clipbox
134.352 36 m
134.352 47.16 l
161.136 47.16 l
161.136 36 l
134.352 36 l
cl
0.500 0.000 1.000 setrgbcolor
fill
grestore
gsave
267.8 223.2 54 36 clipbox
161.136 36 m
161.136 47.16 l
187.92 47.16 l
187.92 36 l
161.136 36 l
cl
0.500 0.000 1.000 setrgbcolor
fill
grestore
gsave
267.8 223.2 54 36 clipbox
187.92 36 m
187.92 47.16 l
214.704 47.16 l
214.704 36 l
187.92 36 l
cl
0.382 0.184 0.996 setrgbcolor
fill
grestore
gsave
267.8 223.2 54 36 clipbox
214.704 36 m
214.704 47.16 l
241.488 47.16 l
241.488 36 l
214.704 36 l
cl
0.429 0.111 0.998 setrgbcolor
fill
grestore
gsave
267.8 223.2 54 36 clipbox
241.488 36 m
241.488 47.16 l
268.272 47.16 l
268.272 36 l
241.488 36 l
cl
0.414 0.135 0.998 setrgbcolor
fill
grestore
gsave
267.8 223.2 54 36 clipbox
268.272 36 m
268.272 47.16 l
295.056 47.16 l
295.056 36 l
268.272 36 l
cl
0.375 0.196 0.995 setrgbcolor
fill
grestore
gsave
267.8 223.2 54 36 clipbox
295.056 36 m
295.056 47.16 l
321.84 47.16 l
321.84 36 l
295.056 36 l
cl
0.469 0.049 1.000 setrgbcolor
fill
grestore
gsave
267.8 223.2 54 36 clipbox
54 47.16 m
54 58.32 l
80.784 58.32 l
80.784 47.16 l
54 47.16 l
cl
0.500 0.000 1.000 setrgbcolor
fill
grestore
gsave
267.8 223.2 54 36 clipbox
80.784 47.16 m
80.784 58.32 l
107.568 58.32 l
107.568 47.16 l
80.784 47.16 l
cl
0.500 0.000 1.000 setrgbcolor
fill
grestore
gsave
267.8 223.2 54 36 clipbox
107.568 47.16 m
107.568 58.32 l
134.352 58.32 l
134.352 47.16 l
107.568 47.16 l
cl
0.500 0.000 1.000 setrgbcolor
fill
grestore
gsave
267.8 223.2 54 36 clipbox
134.352 47.16 m
134.352 58.32 l
161.136 58.32 l
161.136 47.16 l
134.352 47.16 l
cl
0.500 0.000 1.000 setrgbcolor
fill
grestore
gsave
267.8 223.2 54 36 clipbox
161.136 47.16 m
161.136 58.32 l
187.92 58.32 l
187.92 47.16 l
161.136 47.16 l
cl
0.469 0.049 1.000 setrgbcolor
fill
grestore
gsave
267.8 223.2 54 36 clipbox
187.92 47.16 m
187.92 58.32 l
214.704 58.32 l
214.704 47.16 l
187.92 47.16 l
cl
0.375 0.196 0.995 setrgbcolor
fill
grestore
gsave
267.8 223.2 54 36 clipbox
214.704 47.16 m
214.704 58.32 l
241.488 58.32 l
241.488 47.16 l
214.704 47.16 l
cl
0.382 0.184 0.996 setrgbcolor
fill
grestore
gsave
267.8 223.2 54 36 clipbox
241.488 47.16 m
241.488 58.32 l
268.272 58.32 l
268.272 47.16 l
241.488 47.16 l
cl
0.437 0.098 0.999 setrgbcolor
fill
grestore
gsave
267.8 223.2 54 36 clipbox
268.272 47.16 m
268.272 58.32 l
295.056 58.32 l
295.056 47.16 l
268.272 47.16 l
cl
0.375 0.196 0.995 setrgbcolor
fill
grestore
gsave
267.8 223.2 54 36 clipbox
295.056 47.16 m
295.056 58.32 l
321.84 58.32 l
321.84 47.16 l
295.056 47.16 l
cl
0.367 0.208 0.995 setrgbcolor
fill
grestore
gsave
267.8 223.2 54 36 clipbox
54 58.32 m
54 69.48 l
80.784 69.48 l
80.784 58.32 l
54 58.32 l
cl
0.500 0.000 1.000 setrgbcolor
fill
grestore
gsave
267.8 223.2 54 36 clipbox
80.784 58.32 m
80.784 69.48 l
107.568 69.48 l
107.568 58.32 l
80.784 58.32 l
cl
0.500 0.000 1.000 setrgbcolor
fill
grestore
gsave
267.8 223.2 54 36 clipbox
107.568 58.32 m
107.568 69.48 l
134.352 69.48 l
134.352 58.32 l
107.568 58.32 l
cl
0.500 0.000 1.000 setrgbcolor
fill
grestore
gsave
267.8 223.2 54 36 clipbox
134.352 58.32 m
134.352 69.48 l
161.136 69.48 l
161.136 58.32 l
134.352 58.32 l
cl
0.500 0.000 1.000 setrgbcolor
fill
grestore
gsave
267.8 223.2 54 36 clipbox
161.136 58.32 m
161.136 69.48 l
187.92 69.48 l
187.92 58.32 l
161.136 58.32 l
cl
0.422 0.123 0.998 setrgbcolor
fill
grestore
gsave
267.8 223.2 54 36 clipbox
187.92 58.32 m
187.92 69.48 l
214.704 69.48 l
214.704 58.32 l
187.92 58.32 l
cl
0.375 0.196 0.995 setrgbcolor
fill
grestore
gsave
267.8 223.2 54 36 clipbox
214.704 58.32 m
214.704 69.48 l
241.488 69.48 l
241.488 58.32 l
214.704 58.32 l
cl
0.414 0.135 0.998 setrgbcolor
fill
grestore
gsave
267.8 223.2 54 36 clipbox
241.488 58.32 m
241.488 69.48 l
268.272 69.48 l
268.272 58.32 l
241.488 58.32 l
cl
0.359 0.220 0.994 setrgbcolor
fill
grestore
gsave
267.8 223.2 54 36 clipbox
268.272 58.32 m
268.272 69.48 l
295.056 69.48 l
295.056 58.32 l
268.272 58.32 l
cl
0.351 0.232 0.993 setrgbcolor
fill
grestore
gsave
267.8 223.2 54 36 clipbox
295.056 58.32 m
295.056 69.48 l
321.84 69.48 l
321.84 58.32 l
295.056 58.32 l
cl
0.335 0.256 0.992 setrgbcolor
fill
grestore
gsave
267.8 223.2 54 36 clipbox
54 69.48 m
54 80.64 l
80.784 80.64 l
80.784 69.48 l
54 69.48 l
cl
0.500 0.000 1.000 setrgbcolor
fill
grestore
gsave
267.8 223.2 54 36 clipbox
80.784 69.48 m
80.784 80.64 l
107.568 80.64 l
107.568 69.48 l
80.784 69.48 l
cl
0.500 0.000 1.000 setrgbcolor
fill
grestore
gsave
267.8 223.2 54 36 clipbox
107.568 69.48 m
107.568 80.64 l
134.352 80.64 l
134.352 69.48 l
107.568 69.48 l
cl
0.359 0.220 0.994 setrgbcolor
fill
grestore
gsave
267.8 223.2 54 36 clipbox
134.352 69.48 m
134.352 80.64 l
161.136 80.64 l
161.136 69.48 l
134.352 69.48 l
cl
0.375 0.196 0.995 setrgbcolor
fill
grestore
gsave
267.8 223.2 54 36 clipbox
161.136 69.48 m
161.136 80.64 l
187.92 80.64 l
187.92 69.48 l
161.136 69.48 l
cl
0.406 0.147 0.997 setrgbcolor
fill
grestore
gsave
267.8 223.2 54 36 clipbox
187.92 69.48 m
187.92 80.64 l
214.704 80.64 l
214.704 69.48 l
187.92 69.48 l
cl
0.367 0.208 0.995 setrgbcolor
fill
grestore
gsave
267.8 223.2 54 36 clipbox
214.704 69.48 m
214.704 80.64 l
241.488 80.64 l
241.488 69.48 l
214.704 69.48 l
cl
0.367 0.208 0.995 setrgbcolor
fill
grestore
gsave
267.8 223.2 54 36 clipbox
241.488 69.48 m
241.488 80.64 l
268.272 80.64 l
268.272 69.48 l
241.488 69.48 l
cl
0.312 0.291 0.989 setrgbcolor
fill
grestore
gsave
267.8 223.2 54 36 clipbox
268.272 69.48 m
268.272 80.64 l
295.056 80.64 l
295.056 69.48 l
268.272 69.48 l
cl
0.273 0.350 0.984 setrgbcolor
fill
grestore
gsave
267.8 223.2 54 36 clipbox
295.056 69.48 m
295.056 80.64 l
321.84 80.64 l
321.84 69.48 l
295.056 69.48 l
cl
0.241 0.395 0.979 setrgbcolor
fill
grestore
gsave
267.8 223.2 54 36 clipbox
54 80.64 m
54 91.8 l
80.784 91.8 l
80.784 80.64 l
54 80.64 l
cl
0.414 0.135 0.998 setrgbcolor
fill
grestore
gsave
267.8 223.2 54 36 clipbox
80.784 80.64 m
80.784 91.8 l
107.568 91.8 l
107.568 80.64 l
80.784 80.64 l
cl
0.500 0.000 1.000 setrgbcolor
fill
grestore
gsave
267.8 223.2 54 36 clipbox
107.568 80.64 m
107.568 91.8 l
134.352 91.8 l
134.352 80.64 l
107.568 80.64 l
cl
0.375 0.196 0.995 setrgbcolor
fill
grestore
gsave
267.8 223.2 54 36 clipbox
134.352 80.64 m
134.352 91.8 l
161.136 91.8 l
161.136 80.64 l
134.352 80.64 l
cl
0.351 0.232 0.993 setrgbcolor
fill
grestore
gsave
267.8 223.2 54 36 clipbox
161.136 80.64 m
161.136 91.8 l
187.92 91.8 l
187.92 80.64 l
161.136 80.64 l
cl
0.320 0.280 0.990 setrgbcolor
fill
grestore
gsave
267.8 223.2 54 36 clipbox
187.92 80.64 m
187.92 91.8 l
214.704 91.8 l
214.704 80.64 l
187.92 80.64 l
cl
0.265 0.361 0.983 setrgbcolor
fill
grestore
gsave
267.8 223.2 54 36 clipbox
214.704 80.64 m
214.704 91.8 l
241.488 91.8 l
241.488 80.64 l
214.704 80.64 l
cl
0.210 0.440 0.974 setrgbcolor
fill
grestore
gsave
267.8 223.2 54 36 clipbox
241.488 80.64 m
241.488 91.8 l
268.272 91.8 l
268.272 80.64 l
241.488 80.64 l
cl
0.116 0.568 0.955 setrgbcolor
fill
grestore
gsave
267.8 223.2 54 36 clipbox
268.272 80.64 m
268.272 91.8 l
295.056 91.8 l
295.056 80.64 l
268.272 80.64 l
cl
0.069 0.627 0.943 setrgbcolor
fill
grestore
gsave
267.8 223.2 54 36 clipbox
295.056 80.64 m
295.056 91.8 l
321.84 91.8 l
321.84 80.64 l
295.056 80.64 l
cl
0.025 0.735 0.916 setrgbcolor
fill
grestore
gsave
267.8 223.2 54 36 clipbox
54 91.8 m
54 102.96 l
80.784 102.96 l
80.784 91.8 l
54 91.8 l
cl
0.320 0.280 0.990 setrgbcolor
fill
grestore
gsave
267.8 223.2 54 36 clipbox
80.784 91.8 m
80.784 102.96 l
107.568 102.96 l
107.568 91.8 l
80.784 91.8 l
cl
0.414 0.135 0.998 setrgbcolor
fill
grestore
gsave
267.8 223.2 54 36 clipbox
107.568 91.8 m
107.568 102.96 l
134.352 102.96 l
134.352 91.8 l
107.568 91.8 l
cl
0.288 0.327 0.986 setrgbcolor
fill
grestore
gsave
267.8 223.2 54 36 clipbox
134.352 91.8 m
134.352 102.96 l
161.136 102.96 l
161.136 91.8 l
134.352 91.8 l
cl
0.218 0.429 0.976 setrgbcolor
fill
grestore
gsave
267.8 223.2 54 36 clipbox
161.136 91.8 m
161.136 102.96 l
187.92 102.96 l
187.92 91.8 l
161.136 91.8 l
cl
0.186 0.473 0.970 setrgbcolor
fill
grestore
gsave
267.8 223.2 54 36 clipbox
187.92 91.8 m
187.92 102.96 l
214.704 102.96 l
214.704 91.8 l
187.92 91.8 l
cl
0.053 0.646 0.939 setrgbcolor
fill
grestore
gsave
267.8 223.2 54 36 clipbox
214.704 91.8 m
214.704 102.96 l
241.488 102.96 l
241.488 91.8 l
214.704 91.8 l
cl
0.073 0.783 0.901 setrgbcolor
fill
grestore
gsave
267.8 223.2 54 36 clipbox
241.488 91.8 m
241.488 102.96 l
268.272 102.96 l
268.272 91.8 l
241.488 91.8 l
cl
0.073 0.783 0.901 setrgbcolor
fill
grestore
gsave
267.8 223.2 54 36 clipbox
268.272 91.8 m
268.272 102.96 l
295.056 102.96 l
295.056 91.8 l
268.272 91.8 l
cl
0.308 0.955 0.805 setrgbcolor
fill
grestore
gsave
267.8 223.2 54 36 clipbox
295.056 91.8 m
295.056 102.96 l
321.84 102.96 l
321.84 91.8 l
295.056 91.8 l
cl
0.402 0.988 0.759 setrgbcolor
fill
grestore
gsave
267.8 223.2 54 36 clipbox
54 102.96 m
54 114.12 l
80.784 114.12 l
80.784 102.96 l
54 102.96 l
cl
0.390 0.172 0.996 setrgbcolor
fill
grestore
gsave
267.8 223.2 54 36 clipbox
80.784 102.96 m
80.784 114.12 l
107.568 114.12 l
107.568 102.96 l
80.784 102.96 l
cl
0.280 0.338 0.985 setrgbcolor
fill
grestore
gsave
267.8 223.2 54 36 clipbox
107.568 102.96 m
107.568 114.12 l
134.352 114.12 l
134.352 102.96 l
107.568 102.96 l
cl
0.124 0.557 0.957 setrgbcolor
fill
grestore
gsave
267.8 223.2 54 36 clipbox
134.352 102.96 m
134.352 114.12 l
161.136 114.12 l
161.136 102.96 l
134.352 102.96 l
cl
0.006 0.701 0.926 setrgbcolor
fill
grestore
gsave
267.8 223.2 54 36 clipbox
161.136 102.96 m
161.136 114.12 l
187.92 114.12 l
187.92 102.96 l
161.136 102.96 l
cl
0.120 0.827 0.884 setrgbcolor
fill
grestore
gsave
267.8 223.2 54 36 clipbox
187.92 102.96 m
187.92 114.12 l
214.704 114.12 l
214.704 102.96 l
187.92 102.96 l
cl
0.308 0.955 0.805 setrgbcolor
fill
grestore
gsave
267.8 223.2 54 36 clipbox
214.704 102.96 m
214.704 114.12 l
241.488 114.12 l
241.488 102.96 l
214.704 102.96 l
cl
0.504 1.000 0.705 setrgbcolor
fill
grestore
gsave
267.8 223.2 54 36 clipbox
241.488 102.96 m
241.488 114.12 l
268.272 114.12 l
268.272 102.96 l
241.488 102.96 l
cl
0.590 0.990 0.655 setrgbcolor
fill
grestore
gsave
267.8 223.2 54 36 clipbox
268.272 102.96 m
268.272 114.12 l
295.056 114.12 l
295.056 102.96 l
268.272 102.96 l
cl
0.755 0.921 0.552 setrgbcolor
fill
grestore
gsave
267.8 223.2 54 36 clipbox
295.056 102.96 m
295.056 114.12 l
321.84 114.12 l
321.84 102.96 l
295.056 102.96 l
cl
0.959 0.751 0.412 setrgbcolor
fill
grestore
gsave
267.8 223.2 54 36 clipbox
54 114.12 m
54 125.28 l
80.784 125.28 l
80.784 114.12 l
54 114.12 l
cl
0.124 0.557 0.957 setrgbcolor
fill
grestore
gsave
267.8 223.2 54 36 clipbox
80.784 114.12 m
80.784 125.28 l
107.568 125.28 l
107.568 114.12 l
80.784 114.12 l
cl
0.018 0.726 0.918 setrgbcolor
fill
grestore
gsave
267.8 223.2 54 36 clipbox
107.568 114.12 m
107.568 125.28 l
134.352 125.28 l
134.352 114.12 l
107.568 114.12 l
cl
0.378 0.982 0.771 setrgbcolor
fill
grestore
gsave
267.8 223.2 54 36 clipbox
134.352 114.12 m
134.352 125.28 l
161.136 125.28 l
161.136 114.12 l
134.352 114.12 l
cl
0.520 1.000 0.696 setrgbcolor
fill
grestore
gsave
267.8 223.2 54 36 clipbox
161.136 114.12 m
161.136 125.28 l
187.92 125.28 l
187.92 114.12 l
161.136 114.12 l
cl
0.990 0.718 0.390 setrgbcolor
fill
grestore
gsave
267.8 223.2 54 36 clipbox
187.92 114.12 m
187.92 125.28 l
214.704 125.28 l
214.704 114.12 l
187.92 114.12 l
cl
1.000 0.350 0.178 setrgbcolor
fill
grestore
gsave
267.8 223.2 54 36 clipbox
214.704 114.12 m
214.704 125.28 l
241.488 125.28 l
241.488 114.12 l
214.704 114.12 l
cl
1.000 0.000 0.000 setrgbcolor
fill
grestore
gsave
267.8 223.2 54 36 clipbox
241.488 114.12 m
241.488 125.28 l
268.272 125.28 l
268.272 114.12 l
241.488 114.12 l
cl
1.000 0.159 0.080 setrgbcolor
fill
grestore
gsave
267.8 223.2 54 36 clipbox
268.272 114.12 m
268.272 125.28 l
295.056 125.28 l
295.056 114.12 l
268.272 114.12 l
cl
1.000 0.495 0.256 setrgbcolor
fill
grestore
gsave
267.8 223.2 54 36 clipbox
295.056 114.12 m
295.056 125.28 l
321.84 125.28 l
321.84 114.12 l
295.056 114.12 l
cl
0.967 0.743 0.407 setrgbcolor
fill
grestore
gsave
267.8 223.2 54 36 clipbox
54 125.28 m
54 136.44 l
80.784 136.44 l
80.784 125.28 l
54 125.28 l
cl
0.316 0.958 0.802 setrgbcolor
fill
grestore
gsave
267.8 223.2 54 36 clipbox
80.784 125.28 m
80.784 136.44 l
107.568 136.44 l
107.568 125.28 l
80.784 125.28 l
cl
0.300 0.951 0.809 setrgbcolor
fill
grestore
gsave
267.8 223.2 54 36 clipbox
107.568 125.28 m
107.568 136.44 l
134.352 136.44 l
134.352 125.28 l
107.568 125.28 l
cl
0.739 0.930 0.563 setrgbcolor
fill
grestore
gsave
267.8 223.2 54 36 clipbox
134.352 125.28 m
134.352 136.44 l
161.136 136.44 l
161.136 125.28 l
134.352 125.28 l
cl
0.865 0.840 0.479 setrgbcolor
fill
grestore
gsave
267.8 223.2 54 36 clipbox
161.136 125.28 m
161.136 136.44 l
187.92 136.44 l
187.92 125.28 l
161.136 125.28 l
cl
0.825 0.872 0.505 setrgbcolor
fill
grestore
gsave
267.8 223.2 54 36 clipbox
187.92 125.28 m
187.92 136.44 l
214.704 136.44 l
214.704 125.28 l
187.92 125.28 l
cl
0.825 0.872 0.505 setrgbcolor
fill
grestore
gsave
267.8 223.2 54 36 clipbox
214.704 125.28 m
214.704 136.44 l
241.488 136.44 l
241.488 125.28 l
214.704 125.28 l
cl
0.676 0.962 0.603 setrgbcolor
fill
grestore
gsave
267.8 223.2 54 36 clipbox
241.488 125.28 m
241.488 136.44 l
268.272 136.44 l
268.272 125.28 l
241.488 125.28 l
cl
0.637 0.977 0.627 setrgbcolor
fill
grestore
gsave
267.8 223.2 54 36 clipbox
268.272 125.28 m
268.272 136.44 l
295.056 136.44 l
295.056 125.28 l
268.272 125.28 l
cl
0.637 0.977 0.627 setrgbcolor
fill
grestore
gsave
267.8 223.2 54 36 clipbox
295.056 125.28 m
295.056 136.44 l
321.84 136.44 l
321.84 125.28 l
295.056 125.28 l
cl
0.535 0.998 0.687 setrgbcolor
fill
grestore
gsave
267.8 223.2 54 36 clipbox
54 136.44 m
54 147.6 l
80.784 147.6 l
80.784 136.44 l
54 136.44 l
cl
0.359 0.220 0.994 setrgbcolor
fill
grestore
gsave
267.8 223.2 54 36 clipbox
80.784 136.44 m
80.784 147.6 l
107.568 147.6 l
107.568 136.44 l
80.784 136.44 l
cl
0.437 0.098 0.999 setrgbcolor
fill
grestore
gsave
267.8 223.2 54 36 clipbox
107.568 136.44 m
107.568 147.6 l
134.352 147.6 l
134.352 136.44 l
107.568 136.44 l
cl
0.249 0.384 0.981 setrgbcolor
fill
grestore
gsave
267.8 223.2 54 36 clipbox
134.352 136.44 m
134.352 147.6 l
161.136 147.6 l
161.136 136.44 l
134.352 136.44 l
cl
0.014 0.692 0.928 setrgbcolor
fill
grestore
gsave
267.8 223.2 54 36 clipbox
161.136 136.44 m
161.136 147.6 l
187.92 147.6 l
187.92 136.44 l
161.136 136.44 l
cl
0.029 0.674 0.932 setrgbcolor
fill
grestore
gsave
267.8 223.2 54 36 clipbox
187.92 136.44 m
187.92 147.6 l
214.704 147.6 l
214.704 136.44 l
187.92 136.44 l
cl
0.025 0.735 0.916 setrgbcolor
fill
grestore
gsave
267.8 223.2 54 36 clipbox
214.704 136.44 m
214.704 147.6 l
241.488 147.6 l
241.488 136.44 l
214.704 136.44 l
cl
0.127 0.834 0.881 setrgbcolor
fill
grestore
gsave
267.8 223.2 54 36 clipbox
241.488 136.44 m
241.488 147.6 l
268.272 147.6 l
268.272 136.44 l
241.488 136.44 l
cl
0.088 0.798 0.895 setrgbcolor
fill
grestore
gsave
267.8 223.2 54 36 clipbox
268.272 136.44 m
268.272 147.6 l
295.056 147.6 l
295.056 136.44 l
268.272 136.44 l
cl
0.033 0.743 0.914 setrgbcolor
fill
grestore
gsave
267.8 223.2 54 36 clipbox
295.056 136.44 m
295.056 147.6 l
321.84 147.6 l
321.84 136.44 l
295.056 136.44 l
cl
0.049 0.759 0.908 setrgbcolor
fill
grestore
gsave
267.8 223.2 54 36 clipbox
54 147.6 m
54 158.76 l
80.784 158.76 l
80.784 147.6 l
54 147.6 l
cl
0.500 0.000 1.000 setrgbcolor
fill
grestore
gsave
267.8 223.2 54 36 clipbox
80.784 147.6 m
80.784 158.76 l
107.568 158.76 l
107.568 147.6 l
80.784 147.6 l
cl
0.500 0.000 1.000 setrgbcolor
fill
grestore
gsave
267.8 223.2 54 36 clipbox
107.568 147.6 m
107.568 158.76 l
134.352 158.76 l
134.352 147.6 l
107.568 147.6 l
cl
0.461 0.062 1.000 setrgbcolor
fill
grestore
gsave
267.8 223.2 54 36 clipbox
134.352 147.6 m
134.352 158.76 l
161.136 158.76 l
161.136 147.6 l
134.352 147.6 l
cl
0.484 0.025 1.000 setrgbcolor
fill
grestore
gsave
267.8 223.2 54 36 clipbox
161.136 147.6 m
161.136 158.76 l
187.92 158.76 l
187.92 147.6 l
161.136 147.6 l
cl
0.414 0.135 0.998 setrgbcolor
fill
grestore
gsave
267.8 223.2 54 36 clipbox
187.92 147.6 m
187.92 158.76 l
214.704 158.76 l
214.704 147.6 l
187.92 147.6 l
cl
0.429 0.111 0.998 setrgbcolor
fill
grestore
gsave
267.8 223.2 54 36 clipbox
214.704 147.6 m
214.704 158.76 l
241.488 158.76 l
241.488 147.6 l
214.704 147.6 l
cl
0.414 0.135 0.998 setrgbcolor
fill
grestore
gsave
267.8 223.2 54 36 clipbox
241.488 147.6 m
241.488 158.76 l
268.272 158.76 l
268.272 147.6 l
241.488 147.6 l
cl
0.375 0.196 0.995 setrgbcolor
fill
grestore
gsave
267.8 223.2 54 36 clipbox
268.272 147.6 m
268.272 158.76 l
295.056 158.76 l
295.056 147.6 l
268.272 147.6 l
cl
0.422 0.123 0.998 setrgbcolor
fill
grestore
gsave
267.8 223.2 54 36 clipbox
295.056 147.6 m
295.056 158.76 l
321.84 158.76 l
321.84 147.6 l
295.056 147.6 l
cl
0.335 0.256 0.992 setrgbcolor
fill
grestore
gsave
267.8 223.2 54 36 clipbox
54 158.76 m
54 169.92 l
80.784 169.92 l
80.784 158.76 l
54 158.76 l
cl
0.492 0.012 1.000 setrgbcolor
fill
grestore
gsave
267.8 223.2 54 36 clipbox
80.784 158.76 m
80.784 169.92 l
107.568 169.92 l
107.568 158.76 l
80.784 158.76 l
cl
0.398 0.159 0.997 setrgbcolor
fill
grestore
gsave
267.8 223.2 54 36 clipbox
107.568 158.76 m
107.568 169.92 l
134.352 169.92 l
134.352 158.76 l
107.568 158.76 l
cl
0.296 0.315 0.987 setrgbcolor
fill
grestore
gsave
267.8 223.2 54 36 clipbox
134.352 158.76 m
134.352 169.92 l
161.136 169.92 l
161.136 158.76 l
134.352 158.76 l
cl
0.108 0.578 0.953 setrgbcolor
fill
grestore
gsave
267.8 223.2 54 36 clipbox
161.136 158.76 m
161.136 169.92 l
187.92 169.92 l
187.92 158.76 l
161.136 158.76 l
cl
0.190 0.884 0.857 setrgbcolor
fill
grestore
gsave
267.8 223.2 54 36 clipbox
187.92 158.76 m
187.92 169.92 l
214.704 169.92 l
214.704 158.76 l
187.92 158.76 l
cl
0.037 0.665 0.935 setrgbcolor
fill
grestore
gsave
267.8 223.2 54 36 clipbox
214.704 158.76 m
214.704 169.92 l
241.488 169.92 l
241.488 158.76 l
214.704 158.76 l
cl
0.057 0.767 0.906 setrgbcolor
fill
grestore
gsave
267.8 223.2 54 36 clipbox
241.488 158.76 m
241.488 169.92 l
268.272 169.92 l
268.272 158.76 l
241.488 158.76 l
cl
0.135 0.840 0.878 setrgbcolor
fill
grestore
gsave
267.8 223.2 54 36 clipbox
268.272 158.76 m
268.272 169.92 l
295.056 169.92 l
295.056 158.76 l
268.272 158.76 l
cl
0.045 0.655 0.937 setrgbcolor
fill
grestore
gsave
267.8 223.2 54 36 clipbox
295.056 158.76 m
295.056 169.92 l
321.84 169.92 l
321.84 158.76 l
295.056 158.76 l
cl
0.143 0.847 0.875 setrgbcolor
fill
grestore
gsave
267.8 223.2 54 36 clipbox
54 169.92 m
54 181.08 l
80.784 181.08 l
80.784 169.92 l
54 169.92 l
cl
0.261 0.930 0.827 setrgbcolor
fill
grestore
gsave
267.8 223.2 54 36 clipbox
80.784 169.92 m
80.784 181.08 l
107.568 181.08 l
107.568 169.92 l
80.784 169.92 l
cl
0.661 0.968 0.612 setrgbcolor
fill
grestore
gsave
267.8 223.2 54 36 clipbox
107.568 169.92 m
107.568 181.08 l
134.352 181.08 l
134.352 169.92 l
107.568 169.92 l
cl
0.951 0.759 0.418 setrgbcolor
fill
grestore
gsave
267.8 223.2 54 36 clipbox
134.352 169.92 m
134.352 181.08 l
161.136 181.08 l
161.136 169.92 l
134.352 169.92 l
cl
1.000 0.598 0.315 setrgbcolor
fill
grestore
gsave
267.8 223.2 54 36 clipbox
161.136 169.92 m
161.136 181.08 l
187.92 181.08 l
187.92 169.92 l
161.136 169.92 l
cl
1.000 0.473 0.244 setrgbcolor
fill
grestore
gsave
267.8 223.2 54 36 clipbox
187.92 169.92 m
187.92 181.08 l
214.704 181.08 l
214.704 169.92 l
187.92 169.92 l
cl
0.959 0.751 0.412 setrgbcolor
fill
grestore
gsave
267.8 223.2 54 36 clipbox
214.704 169.92 m
214.704 181.08 l
241.488 181.08 l
241.488 169.92 l
214.704 169.92 l
cl
0.841 0.860 0.495 setrgbcolor
fill
grestore
gsave
267.8 223.2 54 36 clipbox
241.488 169.92 m
241.488 181.08 l
268.272 181.08 l
268.272 169.92 l
241.488 169.92 l
cl
0.771 0.911 0.542 setrgbcolor
fill
grestore
gsave
267.8 223.2 54 36 clipbox
268.272 169.92 m
268.272 181.08 l
295.056 181.08 l
295.056 169.92 l
268.272 169.92 l
cl
0.700 0.951 0.588 setrgbcolor
fill
grestore
gsave
267.8 223.2 54 36 clipbox
295.056 169.92 m
295.056 181.08 l
321.84 181.08 l
321.84 169.92 l
295.056 169.92 l
cl
0.543 0.998 0.683 setrgbcolor
fill
grestore
gsave
267.8 223.2 54 36 clipbox
54 181.08 m
54 192.24 l
80.784 192.24 l
80.784 181.08 l
54 181.08 l
cl
0.182 0.878 0.860 setrgbcolor
fill
grestore
gsave
267.8 223.2 54 36 clipbox
80.784 181.08 m
80.784 192.24 l
107.568 192.24 l
107.568 181.08 l
80.784 181.08 l
cl
0.198 0.890 0.853 setrgbcolor
fill
grestore
gsave
267.8 223.2 54 36 clipbox
107.568 181.08 m
107.568 192.24 l
134.352 192.24 l
134.352 181.08 l
107.568 181.08 l
cl
0.457 0.998 0.731 setrgbcolor
fill
grestore
gsave
267.8 223.2 54 36 clipbox
134.352 181.08 m
134.352 192.24 l
161.136 192.24 l
161.136 181.08 l
134.352 181.08 l
cl
0.731 0.935 0.568 setrgbcolor
fill
grestore
gsave
267.8 223.2 54 36 clipbox
161.136 181.08 m
161.136 192.24 l
187.92 192.24 l
187.92 181.08 l
161.136 181.08 l
cl
0.982 0.726 0.395 setrgbcolor
fill
grestore
gsave
267.8 223.2 54 36 clipbox
187.92 181.08 m
187.92 192.24 l
214.704 192.24 l
214.704 181.08 l
187.92 181.08 l
cl
1.000 0.451 0.232 setrgbcolor
fill
grestore
gsave
267.8 223.2 54 36 clipbox
214.704 181.08 m
214.704 192.24 l
241.488 192.24 l
241.488 181.08 l
214.704 181.08 l
cl
1.000 0.208 0.105 setrgbcolor
fill
grestore
gsave
267.8 223.2 54 36 clipbox
241.488 181.08 m
241.488 192.24 l
268.272 192.24 l
268.272 181.08 l
241.488 181.08 l
cl
1.000 0.484 0.250 setrgbcolor
fill
grestore
gsave
267.8 223.2 54 36 clipbox
268.272 181.08 m
268.272 192.24 l
295.056 192.24 l
295.056 181.08 l
268.272 181.08 l
cl
1.000 0.683 0.367 setrgbcolor
fill
grestore
gsave
267.8 223.2 54 36 clipbox
295.056 181.08 m
295.056 192.24 l
321.84 192.24 l
321.84 181.08 l
295.056 181.08 l
cl
0.865 0.840 0.479 setrgbcolor
fill
grestore
gsave
267.8 223.2 54 36 clipbox
54 192.24 m
54 203.4 l
80.784 203.4 l
80.784 192.24 l
54 192.24 l
cl
0.257 0.373 0.982 setrgbcolor
fill
grestore
gsave
267.8 223.2 54 36 clipbox
80.784 192.24 m
80.784 203.4 l
107.568 203.4 l
107.568 192.24 l
80.784 192.24 l
cl
0.014 0.692 0.928 setrgbcolor
fill
grestore
gsave
267.8 223.2 54 36 clipbox
107.568 192.24 m
107.568 203.4 l
134.352 203.4 l
134.352 192.24 l
107.568 192.24 l
cl
0.120 0.827 0.884 setrgbcolor
fill
grestore
gsave
267.8 223.2 54 36 clipbox
134.352 192.24 m
134.352 203.4 l
161.136 203.4 l
161.136 192.24 l
134.352 192.24 l
cl
0.159 0.860 0.869 setrgbcolor
fill
grestore
gsave
267.8 223.2 54 36 clipbox
161.136 192.24 m
161.136 203.4 l
187.92 203.4 l
187.92 192.24 l
161.136 192.24 l
cl
0.324 0.962 0.798 setrgbcolor
fill
grestore
gsave
267.8 223.2 54 36 clipbox
187.92 192.24 m
187.92 203.4 l
214.704 203.4 l
214.704 192.24 l
187.92 192.24 l
cl
0.488 1.000 0.714 setrgbcolor
fill
grestore
gsave
267.8 223.2 54 36 clipbox
214.704 192.24 m
214.704 203.4 l
241.488 203.4 l
241.488 192.24 l
214.704 192.24 l
cl
0.700 0.951 0.588 setrgbcolor
fill
grestore
gsave
267.8 223.2 54 36 clipbox
241.488 192.24 m
241.488 203.4 l
268.272 203.4 l
268.272 192.24 l
241.488 192.24 l
cl
0.794 0.895 0.526 setrgbcolor
fill
grestore
gsave
267.8 223.2 54 36 clipbox
268.272 192.24 m
268.272 203.4 l
295.056 203.4 l
295.056 192.24 l
268.272 192.24 l
cl
0.786 0.901 0.532 setrgbcolor
fill
grestore
gsave
267.8 223.2 54 36 clipbox
295.056 192.24 m
295.056 203.4 l
321.84 203.4 l
321.84 192.24 l
295.056 192.24 l
cl
0.669 0.965 0.608 setrgbcolor
fill
grestore
gsave
267.8 223.2 54 36 clipbox
54 203.4 m
54 214.56 l
80.784 214.56 l
80.784 203.4 l
54 203.4 l
cl
0.210 0.440 0.974 setrgbcolor
fill
grestore
gsave
267.8 223.2 54 36 clipbox
80.784 203.4 m
80.784 214.56 l
107.568 214.56 l
107.568 203.4 l
80.784 203.4 l
cl
0.257 0.373 0.982 setrgbcolor
fill
grestore
gsave
267.8 223.2 54 36 clipbox
107.568 203.4 m
107.568 214.56 l
134.352 214.56 l
134.352 203.4 l
107.568 203.4 l
cl
0.225 0.418 0.977 setrgbcolor
fill
grestore
gsave
267.8 223.2 54 36 clipbox
134.352 203.4 m
134.352 214.56 l
161.136 214.56 l
161.136 203.4 l
134.352 203.4 l
cl
0.061 0.636 0.941 setrgbcolor
fill
grestore
gsave
267.8 223.2 54 36 clipbox
161.136 203.4 m
161.136 214.56 l
187.92 214.56 l
187.92 203.4 l
161.136 203.4 l
cl
0.029 0.674 0.932 setrgbcolor
fill
grestore
gsave
267.8 223.2 54 36 clipbox
187.92 203.4 m
187.92 214.56 l
214.704 214.56 l
214.704 203.4 l
187.92 203.4 l
cl
0.080 0.791 0.898 setrgbcolor
fill
grestore
gsave
267.8 223.2 54 36 clipbox
214.704 203.4 m
214.704 214.56 l
241.488 214.56 l
241.488 203.4 l
214.704 203.4 l
cl
0.120 0.827 0.884 setrgbcolor
fill
grestore
gsave
267.8 223.2 54 36 clipbox
241.488 203.4 m
241.488 214.56 l
268.272 214.56 l
268.272 203.4 l
241.488 203.4 l
cl
0.269 0.935 0.823 setrgbcolor
fill
grestore
gsave
267.8 223.2 54 36 clipbox
268.272 203.4 m
268.272 214.56 l
295.056 214.56 l
295.056 203.4 l
268.272 203.4 l
cl
0.363 0.977 0.779 setrgbcolor
fill
grestore
gsave
267.8 223.2 54 36 clipbox
295.056 203.4 m
295.056 214.56 l
321.84 214.56 l
321.84 203.4 l
295.056 203.4 l
cl
0.300 0.951 0.809 setrgbcolor
fill
grestore
gsave
267.8 223.2 54 36 clipbox
54 214.56 m
54 225.72 l
80.784 225.72 l
80.784 214.56 l
54 214.56 l
cl
0.296 0.315 0.987 setrgbcolor
fill
grestore
gsave
267.8 223.2 54 36 clipbox
80.784 214.56 m
80.784 225.72 l
107.568 225.72 l
107.568 214.56 l
80.784 214.56 l
cl
0.500 0.000 1.000 setrgbcolor
fill
grestore
gsave
267.8 223.2 54 36 clipbox
107.568 214.56 m
107.568 225.72 l
134.352 225.72 l
134.352 214.56 l
107.568 214.56 l
cl
0.249 0.384 0.981 setrgbcolor
fill
grestore
gsave
267.8 223.2 54 36 clipbox
134.352 214.56 m
134.352 225.72 l
161.136 225.72 l
161.136 214.56 l
134.352 214.56 l
cl
0.225 0.418 0.977 setrgbcolor
fill
grestore
gsave
267.8 223.2 54 36 clipbox
161.136 214.56 m
161.136 225.72 l
187.92 225.72 l
187.92 214.56 l
161.136 214.56 l
cl
0.233 0.407 0.978 setrgbcolor
fill
grestore
gsave
267.8 223.2 54 36 clipbox
187.92 214.56 m
187.92 225.72 l
214.704 225.72 l
214.704 214.56 l
187.92 214.56 l
cl
0.147 0.526 0.962 setrgbcolor
fill
grestore
gsave
267.8 223.2 54 36 clipbox
214.704 214.56 m
214.704 225.72 l
241.488 225.72 l
241.488 214.56 l
214.704 214.56 l
cl
0.124 0.557 0.957 setrgbcolor
fill
grestore
gsave
267.8 223.2 54 36 clipbox
241.488 214.56 m
241.488 225.72 l
268.272 225.72 l
268.272 214.56 l
241.488 214.56 l
cl
0.002 0.709 0.923 setrgbcolor
fill
grestore
gsave
267.8 223.2 54 36 clipbox
268.272 214.56 m
268.272 225.72 l
295.056 225.72 l
295.056 214.56 l
268.272 214.56 l
cl
0.025 0.735 0.916 setrgbcolor
fill
grestore
gsave
267.8 223.2 54 36 clipbox
295.056 214.56 m
295.056 225.72 l
321.84 225.72 l
321.84 214.56 l
295.056 214.56 l
cl
0.033 0.743 0.914 setrgbcolor
fill
grestore
gsave
267.8 223.2 54 36 clipbox
54 225.72 m
54 236.88 l
80.784 236.88 l
80.784 225.72 l
54 225.72 l
cl
0.351 0.232 0.993 setrgbcolor
fill
grestore
gsave
267.8 223.2 54 36 clipbox
80.784 225.72 m
80.784 236.88 l
107.568 236.88 l
107.568 225.72 l
80.784 225.72 l
cl
0.500 0.000 1.000 setrgbcolor
fill
grestore
gsave
267.8 223.2 54 36 clipbox
107.568 225.72 m
107.568 236.88 l
134.352 236.88 l
134.352 225.72 l
107.568 225.72 l
cl
0.500 0.000 1.000 setrgbcolor
fill
grestore
gsave
267.8 223.2 54 36 clipbox
134.352 225.72 m
134.352 236.88 l
161.136 236.88 l
161.136 225.72 l
134.352 225.72 l
cl
0.280 0.338 0.985 setrgbcolor
fill
grestore
gsave
267.8 223.2 54 36 clipbox
161.136 225.72 m
161.136 236.88 l
187.92 236.88 l
187.92 225.72 l
161.136 225.72 l
cl
0.327 0.268 0.991 setrgbcolor
fill
grestore
gsave
267.8 223.2 54 36 clipbox
187.92 225.72 m
187.92 236.88 l
214.704 236.88 l
214.704 225.72 l
187.92 225.72 l
cl
0.257 0.373 0.982 setrgbcolor
fill
grestore
gsave
267.8 223.2 54 36 clipbox
214.704 225.72 m
214.704 236.88 l
241.488 236.88 l
241.488 225.72 l
214.704 225.72 l
cl
0.218 0.429 0.976 setrgbcolor
fill
grestore
gsave
267.8 223.2 54 36 clipbox
241.488 225.72 m
241.488 236.88 l
268.272 236.88 l
268.272 225.72 l
241.488 225.72 l
cl
0.225 0.418 0.977 setrgbcolor
fill
grestore
gsave
267.8 223.2 54 36 clipbox
268.272 225.72 m
268.272 236.88 l
295.056 236.88 l
295.056 225.72 l
268.272 225.72 l
cl
0.171 0.495 0.967 setrgbcolor
fill
grestore
gsave
267.8 223.2 54 36 clipbox
295.056 225.72 m
295.056 236.88 l
321.84 236.88 l
321.84 225.72 l
295.056 225.72 l
cl
0.155 0.516 0.963 setrgbcolor
fill
grestore
gsave
267.8 223.2 54 36 clipbox
54 236.88 m
54 248.04 l
80.784 248.04 l
80.784 236.88 l
54 236.88 l
cl
0.500 0.000 1.000 setrgbcolor
fill
grestore
gsave
267.8 223.2 54 36 clipbox
80.784 236.88 m
80.784 248.04 l
107.568 248.04 l
107.568 236.88 l
80.784 236.88 l
cl
0.500 0.000 1.000 setrgbcolor
fill
grestore
gsave
267.8 223.2 54 36 clipbox
107.568 236.88 m
107.568 248.04 l
134.352 248.04 l
134.352 236.88 l
107.568 236.88 l
cl
0.500 0.000 1.000 setrgbcolor
fill
grestore
gsave
267.8 223.2 54 36 clipbox
134.352 236.88 m
134.352 248.04 l
161.136 248.04 l
161.136 236.88 l
134.352 236.88 l
cl
0.288 0.327 0.986 setrgbcolor
fill
grestore
gsave
267.8 223.2 54 36 clipbox
161.136 236.88 m
161.136 248.04 l
187.92 248.04 l
187.92 236.88 l
161.136 236.88 l
cl
0.296 0.315 0.987 setrgbcolor
fill
grestore
gsave
267.8 223.2 54 36 clipbox
187.92 236.88 m
187.92 248.04 l
214.704 248.04 l
214.704 236.88 l
187.92 236.88 l
cl
0.257 0.373 0.982 setrgbcolor
fill
grestore
gsave
267.8 223.2 54 36 clipbox
214.704 236.88 m
214.704 248.04 l
241.488 248.04 l
241.488 236.88 l
214.704 236.88 l
cl
0.414 0.135 0.998 setrgbcolor
fill
grestore
gsave
267.8 223.2 54 36 clipbox
241.488 236.88 m
241.488 248.04 l
268.272 248.04 l
268.272 236.88 l
241.488 236.88 l
cl
0.312 0.291 0.989 setrgbcolor
fill
grestore
gsave
267.8 223.2 54 36 clipbox
268.272 236.88 m
268.272 248.04 l
295.056 248.04 l
295.056 236.88 l
268.272 236.88 l
cl
0.225 0.418 0.977 setrgbcolor
fill
grestore
gsave
267.8 223.2 54 36 clipbox
295.056 236.88 m
295.056 248.04 l
321.84 248.04 l
321.84 236.88 l
295.056 236.88 l
cl
0.241 0.395 0.979 setrgbcolor
fill
grestore
gsave
267.8 223.2 54 36 clipbox
54 248.04 m
54 259.2 l
80.784 259.2 l
80.784 248.04 l
54 248.04 l
cl
0.500 0.000 1.000 setrgbcolor
fill
grestore
gsave
267.8 223.2 54 36 clipbox
80.784 248.04 m
80.784 259.2 l
107.568 259.2 l
107.568 248.04 l
80.784 248.04 l
cl
0.500 0.000 1.000 setrgbcolor
fill
grestore
gsave
267.8 223.2 54 36 clipbox
107.568 248.04 m
107.568 259.2 l
134.352 259.2 l
134.352 248.04 l
107.568 248.04 l
cl
0.500 0.000 1.000 setrgbcolor
fill
grestore
gsave
267.8 223.2 54 36 clipbox
134.352 248.04 m
134.352 259.2 l
161.136 259.2 l
161.136 248.04 l
134.352 248.04 l
cl
0.500 0.000 1.000 setrgbcolor
fill
grestore
gsave
267.8 223.2 54 36 clipbox
161.136 248.04 m
161.136 259.2 l
187.92 259.2 l
187.92 248.04 l
161.136 248.04 l
cl
0.500 0.000 1.000 setrgbcolor
fill
grestore
gsave
267.8 223.2 54 36 clipbox
187.92 248.04 m
187.92 259.2 l
214.704 259.2 l
214.704 248.04 l
187.92 248.04 l
cl
0.500 0.000 1.000 setrgbcolor
fill
grestore
gsave
267.8 223.2 54 36 clipbox
214.704 248.04 m
214.704 259.2 l
241.488 259.2 l
241.488 248.04 l
214.704 248.04 l
cl
0.351 0.232 0.993 setrgbcolor
fill
grestore
gsave
267.8 223.2 54 36 clipbox
241.488 248.04 m
241.488 259.2 l
268.272 259.2 l
268.272 248.04 l
241.488 248.04 l
cl
0.304 0.303 0.988 setrgbcolor
fill
grestore
gsave
267.8 223.2 54 36 clipbox
268.272 248.04 m
268.272 259.2 l
295.056 259.2 l
295.056 248.04 l
268.272 248.04 l
cl
0.367 0.208 0.995 setrgbcolor
fill
grestore
gsave
267.8 223.2 54 36 clipbox
295.056 248.04 m
295.056 259.2 l
321.84 259.2 l
321.84 248.04 l
295.056 248.04 l
cl
0.320 0.280 0.990 setrgbcolor
fill
grestore
1.000 setlinewidth
1 setlinejoin
0 setlinecap
[] 0 setdash
0.000 setgray
gsave
267.8 223.2 54 36 clipbox
214.704 108.643 m
220.181 114.12 l
214.704 119.597 l
209.227 114.12 l
cl
gsave
0.000 0.000 1.000 setrgbcolor
fill
grestore
stroke
grestore
0 setlinejoin
2 setlinecap
gsave
54 259.2 m
321.84 259.2 l
stroke
grestore
gsave
321.84 36 m
321.84 259.2 l
stroke
grestore
gsave
54 36 m
321.84 36 l
stroke
grestore
gsave
54 36 m
54 259.2 l
stroke
grestore
0.500 setlinewidth
1 setlinejoin
0 setlinecap
gsave
/o {
gsave
newpath
translate
0.5 setlinewidth
1 setlinejoin
0 setlinecap
0 0 m
0 4 l
gsave
0.000 setgray
fill
grestore
stroke
grestore
} bind def
54 36 o
grestore
gsave
/o {
gsave
newpath
translate
0.5 setlinewidth
1 setlinejoin
0 setlinecap
0 0 m
0 -4 l
gsave
0.000 setgray
fill
grestore
stroke
grestore
} bind def
54 259.2 o
grestore
/BitstreamVeraSans-Roman findfont
10.000 scalefont
setfont
gsave
51.476562 24.406250 translate
0.000000 rotate
0.000000 0.000000 m /zero glyphshow
grestore
gsave
/o {
gsave
newpath
translate
0.5 setlinewidth
1 setlinejoin
0 setlinecap
0 0 m
0 4 l
gsave
0.000 setgray
fill
grestore
stroke
grestore
} bind def
107.568 36 o
grestore
gsave
/o {
gsave
newpath
translate
0.5 setlinewidth
1 setlinejoin
0 setlinecap
0 0 m
0 -4 l
gsave
0.000 setgray
fill
grestore
stroke
grestore
} bind def
107.568 259.2 o
grestore
gsave
95.544562 24.406250 translate
0.000000 rotate
0.000000 0.000000 m /two glyphshow
6.362305 0.000000 m /zero glyphshow
12.724609 0.000000 m /zero glyphshow
19.086914 0.000000 m /zero glyphshow
grestore
gsave
/o {
gsave
newpath
translate
0.5 setlinewidth
1 setlinejoin
0 setlinecap
0 0 m
0 4 l
gsave
0.000 setgray
fill
grestore
stroke
grestore
} bind def
161.136 36 o
grestore
gsave
/o {
gsave
newpath
translate
0.5 setlinewidth
1 setlinejoin
0 setlinecap
0 0 m
0 -4 l
gsave
0.000 setgray
fill
grestore
stroke
grestore
} bind def
161.136 259.2 o
grestore
gsave
148.987562 24.406250 translate
0.000000 rotate
0.000000 0.000000 m /four glyphshow
6.362305 0.000000 m /zero glyphshow
12.724609 0.000000 m /zero glyphshow
19.086914 0.000000 m /zero glyphshow
grestore
gsave
/o {
gsave
newpath
translate
0.5 setlinewidth
1 setlinejoin
0 setlinecap
0 0 m
0 4 l
gsave
0.000 setgray
fill
grestore
stroke
grestore
} bind def
214.704 36 o
grestore
gsave
/o {
gsave
newpath
translate
0.5 setlinewidth
1 setlinejoin
0 setlinecap
0 0 m
0 -4 l
gsave
0.000 setgray
fill
grestore
stroke
grestore
} bind def
214.704 259.2 o
grestore
gsave
202.664937 24.406250 translate
0.000000 rotate
0.000000 0.000000 m /six glyphshow
6.362305 0.000000 m /zero glyphshow
12.724609 0.000000 m /zero glyphshow
19.086914 0.000000 m /zero glyphshow
grestore
gsave
/o {
gsave
newpath
translate
0.5 setlinewidth
1 setlinejoin
0 setlinecap
0 0 m
0 4 l
gsave
0.000 setgray
fill
grestore
stroke
grestore
} bind def
268.272 36 o
grestore
gsave
/o {
gsave
newpath
translate
0.5 setlinewidth
1 setlinejoin
0 setlinecap
0 0 m
0 -4 l
gsave
0.000 setgray
fill
grestore
stroke
grestore
} bind def
268.272 259.2 o
grestore
gsave
256.225125 24.406250 translate
0.000000 rotate
0.000000 0.000000 m /eight glyphshow
6.362305 0.000000 m /zero glyphshow
12.724609 0.000000 m /zero glyphshow
19.086914 0.000000 m /zero glyphshow
grestore
gsave
/o {
gsave
newpath
translate
0.5 setlinewidth
1 setlinejoin
0 setlinecap
0 0 m
0 4 l
gsave
0.000 setgray
fill
grestore
stroke
grestore
} bind def
321.84 36 o
grestore
gsave
/o {
gsave
newpath
translate
0.5 setlinewidth
1 setlinejoin
0 setlinecap
0 0 m
0 -4 l
gsave
0.000 setgray
fill
grestore
stroke
grestore
} bind def
321.84 259.2 o
grestore
gsave
306.816562 24.406250 translate
0.000000 rotate
0.000000 0.000000 m /one glyphshow
6.362305 0.000000 m /zero glyphshow
12.724609 0.000000 m /zero glyphshow
19.086914 0.000000 m /zero glyphshow
25.449219 0.000000 m /zero glyphshow
grestore
gsave
/o {
gsave
newpath
translate
0.5 setlinewidth
1 setlinejoin
0 setlinecap
0 0 m
4 0 l
gsave
0.000 setgray
fill
grestore
stroke
grestore
} bind def
54 36 o
grestore
gsave
/o {
gsave
newpath
translate
0.5 setlinewidth
1 setlinejoin
0 setlinecap
0 0 m
-4 0 l
gsave
0.000 setgray
fill
grestore
stroke
grestore
} bind def
321.84 36 o
grestore
gsave
11.546875 33.242188 translate
0.000000 rotate
0.000000 0.000000 m /minus glyphshow
8.378906 0.000000 m /one glyphshow
14.741211 0.000000 m /zero glyphshow
21.103516 0.000000 m /zero glyphshow
27.465820 0.000000 m /zero glyphshow
33.828125 0.000000 m /zero glyphshow
grestore
gsave
/o {
gsave
newpath
translate
0.5 setlinewidth
1 setlinejoin
0 setlinecap
0 0 m
4 0 l
gsave
0.000 setgray
fill
grestore
stroke
grestore
} bind def
54 91.8 o
grestore
gsave
/o {
gsave
newpath
translate
0.5 setlinewidth
1 setlinejoin
0 setlinecap
0 0 m
-4 0 l
gsave
0.000 setgray
fill
grestore
stroke
grestore
} bind def
321.84 91.8 o
grestore
gsave
17.906250 89.042187 translate
0.000000 rotate
0.000000 0.000000 m /minus glyphshow
8.378906 0.000000 m /five glyphshow
14.741211 0.000000 m /zero glyphshow
21.103516 0.000000 m /zero glyphshow
27.465820 0.000000 m /zero glyphshow
grestore
gsave
/o {
gsave
newpath
translate
0.5 setlinewidth
1 setlinejoin
0 setlinecap
0 0 m
4 0 l
gsave
0.000 setgray
fill
grestore
stroke
grestore
} bind def
54 147.6 o
grestore
gsave
/o {
gsave
newpath
translate
0.5 setlinewidth
1 setlinejoin
0 setlinecap
0 0 m
-4 0 l
gsave
0.000 setgray
fill
grestore
stroke
grestore
} bind def
321.84 147.6 o
grestore
gsave
44.953125 144.842187 translate
0.000000 rotate
0.000000 0.000000 m /zero glyphshow
grestore
gsave
/o {
gsave
newpath
translate
0.5 setlinewidth
1 setlinejoin
0 setlinecap
0 0 m
4 0 l
gsave
0.000 setgray
fill
grestore
stroke
grestore
} bind def
54 203.4 o
grestore
gsave
/o {
gsave
newpath
translate
0.5 setlinewidth
1 setlinejoin
0 setlinecap
0 0 m
-4 0 l
gsave
0.000 setgray
fill
grestore
stroke
grestore
} bind def
321.84 203.4 o
grestore
gsave
25.984375 200.642187 translate
0.000000 rotate
0.000000 0.000000 m /five glyphshow
6.362305 0.000000 m /zero glyphshow
12.724609 0.000000 m /zero glyphshow
19.086914 0.000000 m /zero glyphshow
grestore
gsave
/o {
gsave
newpath
translate
0.5 setlinewidth
1 setlinejoin
0 setlinecap
0 0 m
4 0 l
gsave
0.000 setgray
fill
grestore
stroke
grestore
} bind def
54 259.2 o
grestore
gsave
/o {
gsave
newpath
translate
0.5 setlinewidth
1 setlinejoin
0 setlinecap
0 0 m
-4 0 l
gsave
0.000 setgray
fill
grestore
stroke
grestore
} bind def
321.84 259.2 o
grestore
gsave
19.953125 256.442187 translate
0.000000 rotate
0.000000 0.000000 m /one glyphshow
6.362305 0.000000 m /zero glyphshow
12.724609 0.000000 m /zero glyphshow
19.086914 0.000000 m /zero glyphshow
25.449219 0.000000 m /zero glyphshow
grestore
/BitstreamVeraSans-Roman findfont
12.000 scalefont
setfont
gsave
154.404375 264.200000 translate
0.000000 rotate
0.000000 0.000000 m /f glyphshow
4.224609 0.000000 m /i glyphshow
7.558594 0.000000 m /r glyphshow
12.492188 0.000000 m /s glyphshow
18.744141 0.000000 m /t glyphshow
23.449219 0.000000 m /space glyphshow
27.263672 0.000000 m /s glyphshow
33.515625 0.000000 m /e glyphshow
40.898438 0.000000 m /n glyphshow
48.503906 0.000000 m /s glyphshow
54.755859 0.000000 m /o glyphshow
62.097656 0.000000 m /r glyphshow
grestore
0.010 setlinewidth
0 setlinejoin
1.000 setgray
gsave
11.16 223.2 338.6 36 clipbox
338.58 36 m
338.58 36.8719 l
338.58 258.328 l
338.58 259.2 l
349.74 259.2 l
349.74 258.328 l
349.74 36.8719 l
349.74 36 l
cl
gsave
fill
grestore
stroke
grestore
gsave
11.16 223.2 338.6 36 clipbox
338.58 36 m
349.74 36 l
349.74 36.8719 l
338.58 36.8719 l
338.58 36 l
0.500 0.000 1.000 setrgbcolor
fill
grestore
gsave
11.16 223.2 338.6 36 clipbox
338.58 36.8719 m
349.74 36.8719 l
349.74 37.7437 l
338.58 37.7437 l
338.58 36.8719 l
0.492 0.012 1.000 setrgbcolor
fill
grestore
gsave
11.16 223.2 338.6 36 clipbox
338.58 37.7437 m
349.74 37.7437 l
349.74 38.6156 l
338.58 38.6156 l
338.58 37.7437 l
0.484 0.025 1.000 setrgbcolor
fill
grestore
gsave
11.16 223.2 338.6 36 clipbox
338.58 38.6156 m
349.74 38.6156 l
349.74 39.4875 l
338.58 39.4875 l
338.58 38.6156 l
0.476 0.037 1.000 setrgbcolor
fill
grestore
gsave
11.16 223.2 338.6 36 clipbox
338.58 39.4875 m
349.74 39.4875 l
349.74 40.3594 l
338.58 40.3594 l
338.58 39.4875 l
0.469 0.049 1.000 setrgbcolor
fill
grestore
gsave
11.16 223.2 338.6 36 clipbox
338.58 40.3594 m
349.74 40.3594 l
349.74 41.2312 l
338.58 41.2312 l
338.58 40.3594 l
0.461 0.062 1.000 setrgbcolor
fill
grestore
gsave
11.16 223.2 338.6 36 clipbox
338.58 41.2312 m
349.74 41.2312 l
349.74 42.1031 l
338.58 42.1031 l
338.58 41.2312 l
0.453 0.074 0.999 setrgbcolor
fill
grestore
gsave
11.16 223.2 338.6 36 clipbox
338.58 42.1031 m
349.74 42.1031 l
349.74 42.975 l
338.58 42.975 l
338.58 42.1031 l
0.445 0.086 0.999 setrgbcolor
fill
grestore
gsave
11.16 223.2 338.6 36 clipbox
338.58 42.975 m
349.74 42.975 l
349.74 43.8469 l
338.58 43.8469 l
338.58 42.975 l
0.437 0.098 0.999 setrgbcolor
fill
grestore
gsave
11.16 223.2 338.6 36 clipbox
338.58 43.8469 m
349.74 43.8469 l
349.74 44.7187 l
338.58 44.7187 l
338.58 43.8469 l
0.429 0.111 0.998 setrgbcolor
fill
grestore
gsave
11.16 223.2 338.6 36 clipbox
338.58 44.7187 m
349.74 44.7187 l
349.74 45.5906 l
338.58 45.5906 l
338.58 44.7187 l
0.422 0.123 0.998 setrgbcolor
fill
grestore
gsave
11.16 223.2 338.6 36 clipbox
338.58 45.5906 m
349.74 45.5906 l
349.74 46.4625 l
338.58 46.4625 l
338.58 45.5906 l
0.414 0.135 0.998 setrgbcolor
fill
grestore
gsave
11.16 223.2 338.6 36 clipbox
338.58 46.4625 m
349.74 46.4625 l
349.74 47.3344 l
338.58 47.3344 l
338.58 46.4625 l
0.406 0.147 0.997 setrgbcolor
fill
grestore
gsave
11.16 223.2 338.6 36 clipbox
338.58 47.3344 m
349.74 47.3344 l
349.74 48.2062 l
338.58 48.2062 l
338.58 47.3344 l
0.398 0.159 0.997 setrgbcolor
fill
grestore
gsave
11.16 223.2 338.6 36 clipbox
338.58 48.2062 m
349.74 48.2062 l
349.74 49.0781 l
338.58 49.0781 l
338.58 48.2062 l
0.390 0.172 0.996 setrgbcolor
fill
grestore
gsave
11.16 223.2 338.6 36 clipbox
338.58 49.0781 m
349.74 49.0781 l
349.74 49.95 l
338.58 49.95 l
338.58 49.0781 l
0.382 0.184 0.996 setrgbcolor
fill
grestore
gsave
11.16 223.2 338.6 36 clipbox
338.58 49.95 m
349.74 49.95 l
349.74 50.8219 l
338.58 50.8219 l
338.58 49.95 l
0.375 0.196 0.995 setrgbcolor
fill
grestore
gsave
11.16 223.2 338.6 36 clipbox
338.58 50.8219 m
349.74 50.8219 l
349.74 51.6937 l
338.58 51.6937 l
338.58 50.8219 l
0.367 0.208 0.995 setrgbcolor
fill
grestore
gsave
11.16 223.2 338.6 36 clipbox
338.58 51.6937 m
349.74 51.6937 l
349.74 52.5656 l
338.58 52.5656 l
338.58 51.6937 l
0.359 0.220 0.994 setrgbcolor
fill
grestore
gsave
11.16 223.2 338.6 36 clipbox
338.58 52.5656 m
349.74 52.5656 l
349.74 53.4375 l
338.58 53.4375 l
338.58 52.5656 l
0.351 0.232 0.993 setrgbcolor
fill
grestore
gsave
11.16 223.2 338.6 36 clipbox
338.58 53.4375 m
349.74 53.4375 l
349.74 54.3094 l
338.58 54.3094 l
338.58 53.4375 l
0.343 0.244 0.992 setrgbcolor
fill
grestore
gsave
11.16 223.2 338.6 36 clipbox
338.58 54.3094 m
349.74 54.3094 l
349.74 55.1812 l
338.58 55.1812 l
338.58 54.3094 l
0.335 0.256 0.992 setrgbcolor
fill
grestore
gsave
11.16 223.2 338.6 36 clipbox
338.58 55.1812 m
349.74 55.1812 l
349.74 56.0531 l
338.58 56.0531 l
338.58 55.1812 l
0.327 0.268 0.991 setrgbcolor
fill
grestore
gsave
11.16 223.2 338.6 36 clipbox
338.58 56.0531 m
349.74 56.0531 l
349.74 56.925 l
338.58 56.925 l
338.58 56.0531 l
0.320 0.280 0.990 setrgbcolor
fill
grestore
gsave
11.16 223.2 338.6 36 clipbox
338.58 56.925 m
349.74 56.925 l
349.74 57.7969 l
338.58 57.7969 l
338.58 56.925 l
0.312 0.291 0.989 setrgbcolor
fill
grestore
gsave
11.16 223.2 338.6 36 clipbox
338.58 57.7969 m
349.74 57.7969 l
349.74 58.6687 l
338.58 58.6687 l
338.58 57.7969 l
0.304 0.303 0.988 setrgbcolor
fill
grestore
gsave
11.16 223.2 338.6 36 clipbox
338.58 58.6687 m
349.74 58.6687 l
349.74 59.5406 l
338.58 59.5406 l
338.58 58.6687 l
0.296 0.315 0.987 setrgbcolor
fill
grestore
gsave
11.16 223.2 338.6 36 clipbox
338.58 59.5406 m
349.74 59.5406 l
349.74 60.4125 l
338.58 60.4125 l
338.58 59.5406 l
0.288 0.327 0.986 setrgbcolor
fill
grestore
gsave
11.16 223.2 338.6 36 clipbox
338.58 60.4125 m
349.74 60.4125 l
349.74 61.2844 l
338.58 61.2844 l
338.58 60.4125 l
0.280 0.338 0.985 setrgbcolor
fill
grestore
gsave
11.16 223.2 338.6 36 clipbox
338.58 61.2844 m
349.74 61.2844 l
349.74 62.1562 l
338.58 62.1562 l
338.58 61.2844 l
0.273 0.350 0.984 setrgbcolor
fill
grestore
gsave
11.16 223.2 338.6 36 clipbox
338.58 62.1562 m
349.74 62.1562 l
349.74 63.0281 l
338.58 63.0281 l
338.58 62.1562 l
0.265 0.361 0.983 setrgbcolor
fill
grestore
gsave
11.16 223.2 338.6 36 clipbox
338.58 63.0281 m
349.74 63.0281 l
349.74 63.9 l
338.58 63.9 l
338.58 63.0281 l
0.257 0.373 0.982 setrgbcolor
fill
grestore
gsave
11.16 223.2 338.6 36 clipbox
338.58 63.9 m
349.74 63.9 l
349.74 64.7719 l
338.58 64.7719 l
338.58 63.9 l
0.249 0.384 0.981 setrgbcolor
fill
grestore
gsave
11.16 223.2 338.6 36 clipbox
338.58 64.7719 m
349.74 64.7719 l
349.74 65.6437 l
338.58 65.6437 l
338.58 64.7719 l
0.241 0.395 0.979 setrgbcolor
fill
grestore
gsave
11.16 223.2 338.6 36 clipbox
338.58 65.6437 m
349.74 65.6437 l
349.74 66.5156 l
338.58 66.5156 l
338.58 65.6437 l
0.233 0.407 0.978 setrgbcolor
fill
grestore
gsave
11.16 223.2 338.6 36 clipbox
338.58 66.5156 m
349.74 66.5156 l
349.74 67.3875 l
338.58 67.3875 l
338.58 66.5156 l
0.225 0.418 0.977 setrgbcolor
fill
grestore
gsave
11.16 223.2 338.6 36 clipbox
338.58 67.3875 m
349.74 67.3875 l
349.74 68.2594 l
338.58 68.2594 l
338.58 67.3875 l
0.218 0.429 0.976 setrgbcolor
fill
grestore
gsave
11.16 223.2 338.6 36 clipbox
338.58 68.2594 m
349.74 68.2594 l
349.74 69.1312 l
338.58 69.1312 l
338.58 68.2594 l
0.210 0.440 0.974 setrgbcolor
fill
grestore
gsave
11.16 223.2 338.6 36 clipbox
338.58 69.1312 m
349.74 69.1312 l
349.74 70.0031 l
338.58 70.0031 l
338.58 69.1312 l
0.202 0.451 0.973 setrgbcolor
fill
grestore
gsave
11.16 223.2 338.6 36 clipbox
338.58 70.0031 m
349.74 70.0031 l
349.74 70.875 l
338.58 70.875 l
338.58 70.0031 l
0.194 0.462 0.971 setrgbcolor
fill
grestore
gsave
11.16 223.2 338.6 36 clipbox
338.58 70.875 m
349.74 70.875 l
349.74 71.7469 l
338.58 71.7469 l
338.58 70.875 l
0.186 0.473 0.970 setrgbcolor
fill
grestore
gsave
11.16 223.2 338.6 36 clipbox
338.58 71.7469 m
349.74 71.7469 l
349.74 72.6187 l
338.58 72.6187 l
338.58 71.7469 l
0.178 0.484 0.968 setrgbcolor
fill
grestore
gsave
11.16 223.2 338.6 36 clipbox
338.58 72.6187 m
349.74 72.6187 l
349.74 73.4906 l
338.58 73.4906 l
338.58 72.6187 l
0.171 0.495 0.967 setrgbcolor
fill
grestore
gsave
11.16 223.2 338.6 36 clipbox
338.58 73.4906 m
349.74 73.4906 l
349.74 74.3625 l
338.58 74.3625 l
338.58 73.4906 l
0.163 0.505 0.965 setrgbcolor
fill
grestore
gsave
11.16 223.2 338.6 36 clipbox
338.58 74.3625 m
349.74 74.3625 l
349.74 75.2344 l
338.58 75.2344 l
338.58 74.3625 l
0.155 0.516 0.963 setrgbcolor
fill
grestore
gsave
11.16 223.2 338.6 36 clipbox
338.58 75.2344 m
349.74 75.2344 l
349.74 76.1062 l
338.58 76.1062 l
338.58 75.2344 l
0.147 0.526 0.962 setrgbcolor
fill
grestore
gsave
11.16 223.2 338.6 36 clipbox
338.58 76.1062 m
349.74 76.1062 l
349.74 76.9781 l
338.58 76.9781 l
338.58 76.1062 l
0.139 0.537 0.960 setrgbcolor
fill
grestore
gsave
11.16 223.2 338.6 36 clipbox
338.58 76.9781 m
349.74 76.9781 l
349.74 77.85 l
338.58 77.85 l
338.58 76.9781 l
0.131 0.547 0.958 setrgbcolor
fill
grestore
gsave
11.16 223.2 338.6 36 clipbox
338.58 77.85 m
349.74 77.85 l
349.74 78.7219 l
338.58 78.7219 l
338.58 77.85 l
0.124 0.557 0.957 setrgbcolor
fill
grestore
gsave
11.16 223.2 338.6 36 clipbox
338.58 78.7219 m
349.74 78.7219 l
349.74 79.5937 l
338.58 79.5937 l
338.58 78.7219 l
0.116 0.568 0.955 setrgbcolor
fill
grestore
gsave
11.16 223.2 338.6 36 clipbox
338.58 79.5937 m
349.74 79.5937 l
349.74 80.4656 l
338.58 80.4656 l
338.58 79.5937 l
0.108 0.578 0.953 setrgbcolor
fill
grestore
gsave
11.16 223.2 338.6 36 clipbox
338.58 80.4656 m
349.74 80.4656 l
349.74 81.3375 l
338.58 81.3375 l
338.58 80.4656 l
0.100 0.588 0.951 setrgbcolor
fill
grestore
gsave
11.16 223.2 338.6 36 clipbox
338.58 81.3375 m
349.74 81.3375 l
349.74 82.2094 l
338.58 82.2094 l
338.58 81.3375 l
0.092 0.598 0.949 setrgbcolor
fill
grestore
gsave
11.16 223.2 338.6 36 clipbox
338.58 82.2094 m
349.74 82.2094 l
349.74 83.0812 l
338.58 83.0812 l
338.58 82.2094 l
0.084 0.608 0.947 setrgbcolor
fill
grestore
gsave
11.16 223.2 338.6 36 clipbox
338.58 83.0812 m
349.74 83.0812 l
349.74 83.9531 l
338.58 83.9531 l
338.58 83.0812 l
0.076 0.617 0.945 setrgbcolor
fill
grestore
gsave
11.16 223.2 338.6 36 clipbox
338.58 83.9531 m
349.74 83.9531 l
349.74 84.825 l
338.58 84.825 l
338.58 83.9531 l
0.069 0.627 0.943 setrgbcolor
fill
grestore
gsave
11.16 223.2 338.6 36 clipbox
338.58 84.825 m
349.74 84.825 l
349.74 85.6969 l
338.58 85.6969 l
338.58 84.825 l
0.061 0.636 0.941 setrgbcolor
fill
grestore
gsave
11.16 223.2 338.6 36 clipbox
338.58 85.6969 m
349.74 85.6969 l
349.74 86.5687 l
338.58 86.5687 l
338.58 85.6969 l
0.053 0.646 0.939 setrgbcolor
fill
grestore
gsave
11.16 223.2 338.6 36 clipbox
338.58 86.5687 m
349.74 86.5687 l
349.74 87.4406 l
338.58 87.4406 l
338.58 86.5687 l
0.045 0.655 0.937 setrgbcolor
fill
grestore
gsave
11.16 223.2 338.6 36 clipbox
338.58 87.4406 m
349.74 87.4406 l
349.74 88.3125 l
338.58 88.3125 l
338.58 87.4406 l
0.037 0.665 0.935 setrgbcolor
fill
grestore
gsave
11.16 223.2 338.6 36 clipbox
338.58 88.3125 m
349.74 88.3125 l
349.74 89.1844 l
338.58 89.1844 l
338.58 88.3125 l
0.029 0.674 0.932 setrgbcolor
fill
grestore
gsave
11.16 223.2 338.6 36 clipbox
338.58 89.1844 m
349.74 89.1844 l
349.74 90.0562 l
338.58 90.0562 l
338.58 89.1844 l
0.022 0.683 0.930 setrgbcolor
fill
grestore
gsave
11.16 223.2 338.6 36 clipbox
338.58 90.0562 m
349.74 90.0562 l
349.74 90.9281 l
338.58 90.9281 l
338.58 90.0562 l
0.014 0.692 0.928 setrgbcolor
fill
grestore
gsave
11.16 223.2 338.6 36 clipbox
338.58 90.9281 m
349.74 90.9281 l
349.74 91.8 l
338.58 91.8 l
338.58 90.9281 l
0.006 0.701 0.926 setrgbcolor
fill
grestore
gsave
11.16 223.2 338.6 36 clipbox
338.58 91.8 m
349.74 91.8 l
349.74 92.6719 l
338.58 92.6719 l
338.58 91.8 l
0.002 0.709 0.923 setrgbcolor
fill
grestore
gsave
11.16 223.2 338.6 36 clipbox
338.58 92.6719 m
349.74 92.6719 l
349.74 93.5437 l
338.58 93.5437 l
338.58 92.6719 l
0.010 0.718 0.921 setrgbcolor
fill
grestore
gsave
11.16 223.2 338.6 36 clipbox
338.58 93.5437 m
349.74 93.5437 l
349.74 94.4156 l
338.58 94.4156 l
338.58 93.5437 l
0.018 0.726 0.918 setrgbcolor
fill
grestore
gsave
11.16 223.2 338.6 36 clipbox
338.58 94.4156 m
349.74 94.4156 l
349.74 95.2875 l
338.58 95.2875 l
338.58 94.4156 l
0.025 0.735 0.916 setrgbcolor
fill
grestore
gsave
11.16 223.2 338.6 36 clipbox
338.58 95.2875 m
349.74 95.2875 l
349.74 96.1594 l
338.58 96.1594 l
338.58 95.2875 l
0.033 0.743 0.914 setrgbcolor
fill
grestore
gsave
11.16 223.2 338.6 36 clipbox
338.58 96.1594 m
349.74 96.1594 l
349.74 97.0312 l
338.58 97.0312 l
338.58 96.1594 l
0.041 0.751 0.911 setrgbcolor
fill
grestore
gsave
11.16 223.2 338.6 36 clipbox
338.58 97.0312 m
349.74 97.0312 l
349.74 97.9031 l
338.58 97.9031 l
338.58 97.0312 l
0.049 0.759 0.908 setrgbcolor
fill
grestore
gsave
11.16 223.2 338.6 36 clipbox
338.58 97.9031 m
349.74 97.9031 l
349.74 98.775 l
338.58 98.775 l
338.58 97.9031 l
0.057 0.767 0.906 setrgbcolor
fill
grestore
gsave
11.16 223.2 338.6 36 clipbox
338.58 98.775 m
349.74 98.775 l
349.74 99.6469 l
338.58 99.6469 l
338.58 98.775 l
0.065 0.775 0.903 setrgbcolor
fill
grestore
gsave
11.16 223.2 338.6 36 clipbox
338.58 99.6469 m
349.74 99.6469 l
349.74 100.519 l
338.58 100.519 l
338.58 99.6469 l
0.073 0.783 0.901 setrgbcolor
fill
grestore
gsave
11.16 223.2 338.6 36 clipbox
338.58 100.519 m
349.74 100.519 l
349.74 101.391 l
338.58 101.391 l
338.58 100.519 l
0.080 0.791 0.898 setrgbcolor
fill
grestore
gsave
11.16 223.2 338.6 36 clipbox
338.58 101.391 m
349.74 101.391 l
349.74 102.262 l
338.58 102.262 l
338.58 101.391 l
0.088 0.798 0.895 setrgbcolor
fill
grestore
gsave
11.16 223.2 338.6 36 clipbox
338.58 102.262 m
349.74 102.262 l
349.74 103.134 l
338.58 103.134 l
338.58 102.262 l
0.096 0.805 0.892 setrgbcolor
fill
grestore
gsave
11.16 223.2 338.6 36 clipbox
338.58 103.134 m
349.74 103.134 l
349.74 104.006 l
338.58 104.006 l
338.58 103.134 l
0.104 0.813 0.890 setrgbcolor
fill
grestore
gsave
11.16 223.2 338.6 36 clipbox
338.58 104.006 m
349.74 104.006 l
349.74 104.878 l
338.58 104.878 l
338.58 104.006 l
0.112 0.820 0.887 setrgbcolor
fill
grestore
gsave
11.16 223.2 338.6 36 clipbox
338.58 104.878 m
349.74 104.878 l
349.74 105.75 l
338.58 105.75 l
338.58 104.878 l
0.120 0.827 0.884 setrgbcolor
fill
grestore
gsave
11.16 223.2 338.6 36 clipbox
338.58 105.75 m
349.74 105.75 l
349.74 106.622 l
338.58 106.622 l
338.58 105.75 l
0.127 0.834 0.881 setrgbcolor
fill
grestore
gsave
11.16 223.2 338.6 36 clipbox
338.58 106.622 m
349.74 106.622 l
349.74 107.494 l
338.58 107.494 l
338.58 106.622 l
0.135 0.840 0.878 setrgbcolor
fill
grestore
gsave
11.16 223.2 338.6 36 clipbox
338.58 107.494 m
349.74 107.494 l
349.74 108.366 l
338.58 108.366 l
338.58 107.494 l
0.143 0.847 0.875 setrgbcolor
fill
grestore
gsave
11.16 223.2 338.6 36 clipbox
338.58 108.366 m
349.74 108.366 l
349.74 109.237 l
338.58 109.237 l
338.58 108.366 l
0.151 0.853 0.872 setrgbcolor
fill
grestore
gsave
11.16 223.2 338.6 36 clipbox
338.58 109.237 m
349.74 109.237 l
349.74 110.109 l
338.58 110.109 l
338.58 109.237 l
0.159 0.860 0.869 setrgbcolor
fill
grestore
gsave
11.16 223.2 338.6 36 clipbox
338.58 110.109 m
349.74 110.109 l
349.74 110.981 l
338.58 110.981 l
338.58 110.109 l
0.167 0.866 0.866 setrgbcolor
fill
grestore
gsave
11.16 223.2 338.6 36 clipbox
338.58 110.981 m
349.74 110.981 l
349.74 111.853 l
338.58 111.853 l
338.58 110.981 l
0.175 0.872 0.863 setrgbcolor
fill
grestore
gsave
11.16 223.2 338.6 36 clipbox
338.58 111.853 m
349.74 111.853 l
349.74 112.725 l
338.58 112.725 l
338.58 111.853 l
0.182 0.878 0.860 setrgbcolor
fill
grestore
gsave
11.16 223.2 338.6 36 clipbox
338.58 112.725 m
349.74 112.725 l
349.74 113.597 l
338.58 113.597 l
338.58 112.725 l
0.190 0.884 0.857 setrgbcolor
fill
grestore
gsave
11.16 223.2 338.6 36 clipbox
338.58 113.597 m
349.74 113.597 l
349.74 114.469 l
338.58 114.469 l
338.58 113.597 l
0.198 0.890 0.853 setrgbcolor
fill
grestore
gsave
11.16 223.2 338.6 36 clipbox
338.58 114.469 m
349.74 114.469 l
349.74 115.341 l
338.58 115.341 l
338.58 114.469 l
0.206 0.895 0.850 setrgbcolor
fill
grestore
gsave
11.16 223.2 338.6 36 clipbox
338.58 115.341 m
349.74 115.341 l
349.74 116.212 l
338.58 116.212 l
338.58 115.341 l
0.214 0.901 0.847 setrgbcolor
fill
grestore
gsave
11.16 223.2 338.6 36 clipbox
338.58 116.212 m
349.74 116.212 l
349.74 117.084 l
338.58 117.084 l
338.58 116.212 l
0.222 0.906 0.844 setrgbcolor
fill
grestore
gsave
11.16 223.2 338.6 36 clipbox
338.58 117.084 m
349.74 117.084 l
349.74 117.956 l
338.58 117.956 l
338.58 117.084 l
0.229 0.911 0.840 setrgbcolor
fill
grestore
gsave
11.16 223.2 338.6 36 clipbox
338.58 117.956 m
349.74 117.956 l
349.74 118.828 l
338.58 118.828 l
338.58 117.956 l
0.237 0.916 0.837 setrgbcolor
fill
grestore
gsave
11.16 223.2 338.6 36 clipbox
338.58 118.828 m
349.74 118.828 l
349.74 119.7 l
338.58 119.7 l
338.58 118.828 l
0.245 0.921 0.834 setrgbcolor
fill
grestore
gsave
11.16 223.2 338.6 36 clipbox
338.58 119.7 m
349.74 119.7 l
349.74 120.572 l
338.58 120.572 l
338.58 119.7 l
0.253 0.926 0.830 setrgbcolor
fill
grestore
gsave
11.16 223.2 338.6 36 clipbox
338.58 120.572 m
349.74 120.572 l
349.74 121.444 l
338.58 121.444 l
338.58 120.572 l
0.261 0.930 0.827 setrgbcolor
fill
grestore
gsave
11.16 223.2 338.6 36 clipbox
338.58 121.444 m
349.74 121.444 l
349.74 122.316 l
338.58 122.316 l
338.58 121.444 l
0.269 0.935 0.823 setrgbcolor
fill
grestore
gsave
11.16 223.2 338.6 36 clipbox
338.58 122.316 m
349.74 122.316 l
349.74 123.187 l
338.58 123.187 l
338.58 122.316 l
0.276 0.939 0.820 setrgbcolor
fill
grestore
gsave
11.16 223.2 338.6 36 clipbox
338.58 123.187 m
349.74 123.187 l
349.74 124.059 l
338.58 124.059 l
338.58 123.187 l
0.284 0.943 0.816 setrgbcolor
fill
grestore
gsave
11.16 223.2 338.6 36 clipbox
338.58 124.059 m
349.74 124.059 l
349.74 124.931 l
338.58 124.931 l
338.58 124.059 l
0.292 0.947 0.813 setrgbcolor
fill
grestore
gsave
11.16 223.2 338.6 36 clipbox
338.58 124.931 m
349.74 124.931 l
349.74 125.803 l
338.58 125.803 l
338.58 124.931 l
0.300 0.951 0.809 setrgbcolor
fill
grestore
gsave
11.16 223.2 338.6 36 clipbox
338.58 125.803 m
349.74 125.803 l
349.74 126.675 l
338.58 126.675 l
338.58 125.803 l
0.308 0.955 0.805 setrgbcolor
fill
grestore
gsave
11.16 223.2 338.6 36 clipbox
338.58 126.675 m
349.74 126.675 l
349.74 127.547 l
338.58 127.547 l
338.58 126.675 l
0.316 0.958 0.802 setrgbcolor
fill
grestore
gsave
11.16 223.2 338.6 36 clipbox
338.58 127.547 m
349.74 127.547 l
349.74 128.419 l
338.58 128.419 l
338.58 127.547 l
0.324 0.962 0.798 setrgbcolor
fill
grestore
gsave
11.16 223.2 338.6 36 clipbox
338.58 128.419 m
349.74 128.419 l
349.74 129.291 l
338.58 129.291 l
338.58 128.419 l
0.331 0.965 0.794 setrgbcolor
fill
grestore
gsave
11.16 223.2 338.6 36 clipbox
338.58 129.291 m
349.74 129.291 l
349.74 130.162 l
338.58 130.162 l
338.58 129.291 l
0.339 0.968 0.791 setrgbcolor
fill
grestore
gsave
11.16 223.2 338.6 36 clipbox
338.58 130.162 m
349.74 130.162 l
349.74 131.034 l
338.58 131.034 l
338.58 130.162 l
0.347 0.971 0.787 setrgbcolor
fill
grestore
gsave
11.16 223.2 338.6 36 clipbox
338.58 131.034 m
349.74 131.034 l
349.74 131.906 l
338.58 131.906 l
338.58 131.034 l
0.355 0.974 0.783 setrgbcolor
fill
grestore
gsave
11.16 223.2 338.6 36 clipbox
338.58 131.906 m
349.74 131.906 l
349.74 132.778 l
338.58 132.778 l
338.58 131.906 l
0.363 0.977 0.779 setrgbcolor
fill
grestore
gsave
11.16 223.2 338.6 36 clipbox
338.58 132.778 m
349.74 132.778 l
349.74 133.65 l
338.58 133.65 l
338.58 132.778 l
0.371 0.979 0.775 setrgbcolor
fill
grestore
gsave
11.16 223.2 338.6 36 clipbox
338.58 133.65 m
349.74 133.65 l
349.74 134.522 l
338.58 134.522 l
338.58 133.65 l
0.378 0.982 0.771 setrgbcolor
fill
grestore
gsave
11.16 223.2 338.6 36 clipbox
338.58 134.522 m
349.74 134.522 l
349.74 135.394 l
338.58 135.394 l
338.58 134.522 l
0.386 0.984 0.767 setrgbcolor
fill
grestore
gsave
11.16 223.2 338.6 36 clipbox
338.58 135.394 m
349.74 135.394 l
349.74 136.266 l
338.58 136.266 l
338.58 135.394 l
0.394 0.986 0.763 setrgbcolor
fill
grestore
gsave
11.16 223.2 338.6 36 clipbox
338.58 136.266 m
349.74 136.266 l
349.74 137.137 l
338.58 137.137 l
338.58 136.266 l
0.402 0.988 0.759 setrgbcolor
fill
grestore
gsave
11.16 223.2 338.6 36 clipbox
338.58 137.137 m
349.74 137.137 l
349.74 138.009 l
338.58 138.009 l
338.58 137.137 l
0.410 0.990 0.755 setrgbcolor
fill
grestore
gsave
11.16 223.2 338.6 36 clipbox
338.58 138.009 m
349.74 138.009 l
349.74 138.881 l
338.58 138.881 l
338.58 138.009 l
0.418 0.992 0.751 setrgbcolor
fill
grestore
gsave
11.16 223.2 338.6 36 clipbox
338.58 138.881 m
349.74 138.881 l
349.74 139.753 l
338.58 139.753 l
338.58 138.881 l
0.425 0.993 0.747 setrgbcolor
fill
grestore
gsave
11.16 223.2 338.6 36 clipbox
338.58 139.753 m
349.74 139.753 l
349.74 140.625 l
338.58 140.625 l
338.58 139.753 l
0.433 0.995 0.743 setrgbcolor
fill
grestore
gsave
11.16 223.2 338.6 36 clipbox
338.58 140.625 m
349.74 140.625 l
349.74 141.497 l
338.58 141.497 l
338.58 140.625 l
0.441 0.996 0.739 setrgbcolor
fill
grestore
gsave
11.16 223.2 338.6 36 clipbox
338.58 141.497 m
349.74 141.497 l
349.74 142.369 l
338.58 142.369 l
338.58 141.497 l
0.449 0.997 0.735 setrgbcolor
fill
grestore
gsave
11.16 223.2 338.6 36 clipbox
338.58 142.369 m
349.74 142.369 l
349.74 143.241 l
338.58 143.241 l
338.58 142.369 l
0.457 0.998 0.731 setrgbcolor
fill
grestore
gsave
11.16 223.2 338.6 36 clipbox
338.58 143.241 m
349.74 143.241 l
349.74 144.112 l
338.58 144.112 l
338.58 143.241 l
0.465 0.998 0.726 setrgbcolor
fill
grestore
gsave
11.16 223.2 338.6 36 clipbox
338.58 144.112 m
349.74 144.112 l
349.74 144.984 l
338.58 144.984 l
338.58 144.112 l
0.473 0.999 0.722 setrgbcolor
fill
grestore
gsave
11.16 223.2 338.6 36 clipbox
338.58 144.984 m
349.74 144.984 l
349.74 145.856 l
338.58 145.856 l
338.58 144.984 l
0.480 1.000 0.718 setrgbcolor
fill
grestore
gsave
11.16 223.2 338.6 36 clipbox
338.58 145.856 m
349.74 145.856 l
349.74 146.728 l
338.58 146.728 l
338.58 145.856 l
0.488 1.000 0.714 setrgbcolor
fill
grestore
gsave
11.16 223.2 338.6 36 clipbox
338.58 146.728 m
349.74 146.728 l
349.74 147.6 l
338.58 147.6 l
338.58 146.728 l
0.496 1.000 0.709 setrgbcolor
fill
grestore
gsave
11.16 223.2 338.6 36 clipbox
338.58 147.6 m
349.74 147.6 l
349.74 148.472 l
338.58 148.472 l
338.58 147.6 l
0.504 1.000 0.705 setrgbcolor
fill
grestore
gsave
11.16 223.2 338.6 36 clipbox
338.58 148.472 m
349.74 148.472 l
349.74 149.344 l
338.58 149.344 l
338.58 148.472 l
0.512 1.000 0.701 setrgbcolor
fill
grestore
gsave
11.16 223.2 338.6 36 clipbox
338.58 149.344 m
349.74 149.344 l
349.74 150.216 l
338.58 150.216 l
338.58 149.344 l
0.520 1.000 0.696 setrgbcolor
fill
grestore
gsave
11.16 223.2 338.6 36 clipbox
338.58 150.216 m
349.74 150.216 l
349.74 151.087 l
338.58 151.087 l
338.58 150.216 l
0.527 0.999 0.692 setrgbcolor
fill
grestore
gsave
11.16 223.2 338.6 36 clipbox
338.58 151.087 m
349.74 151.087 l
349.74 151.959 l
338.58 151.959 l
338.58 151.087 l
0.535 0.998 0.687 setrgbcolor
fill
grestore
gsave
11.16 223.2 338.6 36 clipbox
338.58 151.959 m
349.74 151.959 l
349.74 152.831 l
338.58 152.831 l
338.58 151.959 l
0.543 0.998 0.683 setrgbcolor
fill
grestore
gsave
11.16 223.2 338.6 36 clipbox
338.58 152.831 m
349.74 152.831 l
349.74 153.703 l
338.58 153.703 l
338.58 152.831 l
0.551 0.997 0.678 setrgbcolor
fill
grestore
gsave
11.16 223.2 338.6 36 clipbox
338.58 153.703 m
349.74 153.703 l
349.74 154.575 l
338.58 154.575 l
338.58 153.703 l
0.559 0.996 0.674 setrgbcolor
fill
grestore
gsave
11.16 223.2 338.6 36 clipbox
338.58 154.575 m
349.74 154.575 l
349.74 155.447 l
338.58 155.447 l
338.58 154.575 l
0.567 0.995 0.669 setrgbcolor
fill
grestore
gsave
11.16 223.2 338.6 36 clipbox
338.58 155.447 m
349.74 155.447 l
349.74 156.319 l
338.58 156.319 l
338.58 155.447 l
0.575 0.993 0.665 setrgbcolor
fill
grestore
gsave
11.16 223.2 338.6 36 clipbox
338.58 156.319 m
349.74 156.319 l
349.74 157.191 l
338.58 157.191 l
338.58 156.319 l
0.582 0.992 0.660 setrgbcolor
fill
grestore
gsave
11.16 223.2 338.6 36 clipbox
338.58 157.191 m
349.74 157.191 l
349.74 158.062 l
338.58 158.062 l
338.58 157.191 l
0.590 0.990 0.655 setrgbcolor
fill
grestore
gsave
11.16 223.2 338.6 36 clipbox
338.58 158.062 m
349.74 158.062 l
349.74 158.934 l
338.58 158.934 l
338.58 158.062 l
0.598 0.988 0.651 setrgbcolor
fill
grestore
gsave
11.16 223.2 338.6 36 clipbox
338.58 158.934 m
349.74 158.934 l
349.74 159.806 l
338.58 159.806 l
338.58 158.934 l
0.606 0.986 0.646 setrgbcolor
fill
grestore
gsave
11.16 223.2 338.6 36 clipbox
338.58 159.806 m
349.74 159.806 l
349.74 160.678 l
338.58 160.678 l
338.58 159.806 l
0.614 0.984 0.641 setrgbcolor
fill
grestore
gsave
11.16 223.2 338.6 36 clipbox
338.58 160.678 m
349.74 160.678 l
349.74 161.55 l
338.58 161.55 l
338.58 160.678 l
0.622 0.982 0.636 setrgbcolor
fill
grestore
gsave
11.16 223.2 338.6 36 clipbox
338.58 161.55 m
349.74 161.55 l
349.74 162.422 l
338.58 162.422 l
338.58 161.55 l
0.629 0.979 0.632 setrgbcolor
fill
grestore
gsave
11.16 223.2 338.6 36 clipbox
338.58 162.422 m
349.74 162.422 l
349.74 163.294 l
338.58 163.294 l
338.58 162.422 l
0.637 0.977 0.627 setrgbcolor
fill
grestore
gsave
11.16 223.2 338.6 36 clipbox
338.58 163.294 m
349.74 163.294 l
349.74 164.166 l
338.58 164.166 l
338.58 163.294 l
0.645 0.974 0.622 setrgbcolor
fill
grestore
gsave
11.16 223.2 338.6 36 clipbox
338.58 164.166 m
349.74 164.166 l
349.74 165.037 l
338.58 165.037 l
338.58 164.166 l
0.653 0.971 0.617 setrgbcolor
fill
grestore
gsave
11.16 223.2 338.6 36 clipbox
338.58 165.037 m
349.74 165.037 l
349.74 165.909 l
338.58 165.909 l
338.58 165.037 l
0.661 0.968 0.612 setrgbcolor
fill
grestore
gsave
11.16 223.2 338.6 36 clipbox
338.58 165.909 m
349.74 165.909 l
349.74 166.781 l
338.58 166.781 l
338.58 165.909 l
0.669 0.965 0.608 setrgbcolor
fill
grestore
gsave
11.16 223.2 338.6 36 clipbox
338.58 166.781 m
349.74 166.781 l
349.74 167.653 l
338.58 167.653 l
338.58 166.781 l
0.676 0.962 0.603 setrgbcolor
fill
grestore
gsave
11.16 223.2 338.6 36 clipbox
338.58 167.653 m
349.74 167.653 l
349.74 168.525 l
338.58 168.525 l
338.58 167.653 l
0.684 0.958 0.598 setrgbcolor
fill
grestore
gsave
11.16 223.2 338.6 36 clipbox
338.58 168.525 m
349.74 168.525 l
349.74 169.397 l
338.58 169.397 l
338.58 168.525 l
0.692 0.955 0.593 setrgbcolor
fill
grestore
gsave
11.16 223.2 338.6 36 clipbox
338.58 169.397 m
349.74 169.397 l
349.74 170.269 l
338.58 170.269 l
338.58 169.397 l
0.700 0.951 0.588 setrgbcolor
fill
grestore
gsave
11.16 223.2 338.6 36 clipbox
338.58 170.269 m
349.74 170.269 l
349.74 171.141 l
338.58 171.141 l
338.58 170.269 l
0.708 0.947 0.583 setrgbcolor
fill
grestore
gsave
11.16 223.2 338.6 36 clipbox
338.58 171.141 m
349.74 171.141 l
349.74 172.012 l
338.58 172.012 l
338.58 171.141 l
0.716 0.943 0.578 setrgbcolor
fill
grestore
gsave
11.16 223.2 338.6 36 clipbox
338.58 172.012 m
349.74 172.012 l
349.74 172.884 l
338.58 172.884 l
338.58 172.012 l
0.724 0.939 0.573 setrgbcolor
fill
grestore
gsave
11.16 223.2 338.6 36 clipbox
338.58 172.884 m
349.74 172.884 l
349.74 173.756 l
338.58 173.756 l
338.58 172.884 l
0.731 0.935 0.568 setrgbcolor
fill
grestore
gsave
11.16 223.2 338.6 36 clipbox
338.58 173.756 m
349.74 173.756 l
349.74 174.628 l
338.58 174.628 l
338.58 173.756 l
0.739 0.930 0.563 setrgbcolor
fill
grestore
gsave
11.16 223.2 338.6 36 clipbox
338.58 174.628 m
349.74 174.628 l
349.74 175.5 l
338.58 175.5 l
338.58 174.628 l
0.747 0.926 0.557 setrgbcolor
fill
grestore
gsave
11.16 223.2 338.6 36 clipbox
338.58 175.5 m
349.74 175.5 l
349.74 176.372 l
338.58 176.372 l
338.58 175.5 l
0.755 0.921 0.552 setrgbcolor
fill
grestore
gsave
11.16 223.2 338.6 36 clipbox
338.58 176.372 m
349.74 176.372 l
349.74 177.244 l
338.58 177.244 l
338.58 176.372 l
0.763 0.916 0.547 setrgbcolor
fill
grestore
gsave
11.16 223.2 338.6 36 clipbox
338.58 177.244 m
349.74 177.244 l
349.74 178.116 l
338.58 178.116 l
338.58 177.244 l
0.771 0.911 0.542 setrgbcolor
fill
grestore
gsave
11.16 223.2 338.6 36 clipbox
338.58 178.116 m
349.74 178.116 l
349.74 178.987 l
338.58 178.987 l
338.58 178.116 l
0.778 0.906 0.537 setrgbcolor
fill
grestore
gsave
11.16 223.2 338.6 36 clipbox
338.58 178.987 m
349.74 178.987 l
349.74 179.859 l
338.58 179.859 l
338.58 178.987 l
0.786 0.901 0.532 setrgbcolor
fill
grestore
gsave
11.16 223.2 338.6 36 clipbox
338.58 179.859 m
349.74 179.859 l
349.74 180.731 l
338.58 180.731 l
338.58 179.859 l
0.794 0.895 0.526 setrgbcolor
fill
grestore
gsave
11.16 223.2 338.6 36 clipbox
338.58 180.731 m
349.74 180.731 l
349.74 181.603 l
338.58 181.603 l
338.58 180.731 l
0.802 0.890 0.521 setrgbcolor
fill
grestore
gsave
11.16 223.2 338.6 36 clipbox
338.58 181.603 m
349.74 181.603 l
349.74 182.475 l
338.58 182.475 l
338.58 181.603 l
0.810 0.884 0.516 setrgbcolor
fill
grestore
gsave
11.16 223.2 338.6 36 clipbox
338.58 182.475 m
349.74 182.475 l
349.74 183.347 l
338.58 183.347 l
338.58 182.475 l
0.818 0.878 0.511 setrgbcolor
fill
grestore
gsave
11.16 223.2 338.6 36 clipbox
338.58 183.347 m
349.74 183.347 l
349.74 184.219 l
338.58 184.219 l
338.58 183.347 l
0.825 0.872 0.505 setrgbcolor
fill
grestore
gsave
11.16 223.2 338.6 36 clipbox
338.58 184.219 m
349.74 184.219 l
349.74 185.091 l
338.58 185.091 l
338.58 184.219 l
0.833 0.866 0.500 setrgbcolor
fill
grestore
gsave
11.16 223.2 338.6 36 clipbox
338.58 185.091 m
349.74 185.091 l
349.74 185.962 l
338.58 185.962 l
338.58 185.091 l
0.841 0.860 0.495 setrgbcolor
fill
grestore
gsave
11.16 223.2 338.6 36 clipbox
338.58 185.962 m
349.74 185.962 l
349.74 186.834 l
338.58 186.834 l
338.58 185.962 l
0.849 0.853 0.489 setrgbcolor
fill
grestore
gsave
11.16 223.2 338.6 36 clipbox
338.58 186.834 m
349.74 186.834 l
349.74 187.706 l
338.58 187.706 l
338.58 186.834 l
0.857 0.847 0.484 setrgbcolor
fill
grestore
gsave
11.16 223.2 338.6 36 clipbox
338.58 187.706 m
349.74 187.706 l
349.74 188.578 l
338.58 188.578 l
338.58 187.706 l
0.865 0.840 0.479 setrgbcolor
fill
grestore
gsave
11.16 223.2 338.6 36 clipbox
338.58 188.578 m
349.74 188.578 l
349.74 189.45 l
338.58 189.45 l
338.58 188.578 l
0.873 0.834 0.473 setrgbcolor
fill
grestore
gsave
11.16 223.2 338.6 36 clipbox
338.58 189.45 m
349.74 189.45 l
349.74 190.322 l
338.58 190.322 l
338.58 189.45 l
0.880 0.827 0.468 setrgbcolor
fill
grestore
gsave
11.16 223.2 338.6 36 clipbox
338.58 190.322 m
349.74 190.322 l
349.74 191.194 l
338.58 191.194 l
338.58 190.322 l
0.888 0.820 0.462 setrgbcolor
fill
grestore
gsave
11.16 223.2 338.6 36 clipbox
338.58 191.194 m
349.74 191.194 l
349.74 192.066 l
338.58 192.066 l
338.58 191.194 l
0.896 0.813 0.457 setrgbcolor
fill
grestore
gsave
11.16 223.2 338.6 36 clipbox
338.58 192.066 m
349.74 192.066 l
349.74 192.937 l
338.58 192.937 l
338.58 192.066 l
0.904 0.805 0.451 setrgbcolor
fill
grestore
gsave
11.16 223.2 338.6 36 clipbox
338.58 192.937 m
349.74 192.937 l
349.74 193.809 l
338.58 193.809 l
338.58 192.937 l
0.912 0.798 0.446 setrgbcolor
fill
grestore
gsave
11.16 223.2 338.6 36 clipbox
338.58 193.809 m
349.74 193.809 l
349.74 194.681 l
338.58 194.681 l
338.58 193.809 l
0.920 0.791 0.440 setrgbcolor
fill
grestore
gsave
11.16 223.2 338.6 36 clipbox
338.58 194.681 m
349.74 194.681 l
349.74 195.553 l
338.58 195.553 l
338.58 194.681 l
0.927 0.783 0.435 setrgbcolor
fill
grestore
gsave
11.16 223.2 338.6 36 clipbox
338.58 195.553 m
349.74 195.553 l
349.74 196.425 l
338.58 196.425 l
338.58 195.553 l
0.935 0.775 0.429 setrgbcolor
fill
grestore
gsave
11.16 223.2 338.6 36 clipbox
338.58 196.425 m
349.74 196.425 l
349.74 197.297 l
338.58 197.297 l
338.58 196.425 l
0.943 0.767 0.424 setrgbcolor
fill
grestore
gsave
11.16 223.2 338.6 36 clipbox
338.58 197.297 m
349.74 197.297 l
349.74 198.169 l
338.58 198.169 l
338.58 197.297 l
0.951 0.759 0.418 setrgbcolor
fill
grestore
gsave
11.16 223.2 338.6 36 clipbox
338.58 198.169 m
349.74 198.169 l
349.74 199.041 l
338.58 199.041 l
338.58 198.169 l
0.959 0.751 0.412 setrgbcolor
fill
grestore
gsave
11.16 223.2 338.6 36 clipbox
338.58 199.041 m
349.74 199.041 l
349.74 199.912 l
338.58 199.912 l
338.58 199.041 l
0.967 0.743 0.407 setrgbcolor
fill
grestore
gsave
11.16 223.2 338.6 36 clipbox
338.58 199.912 m
349.74 199.912 l
349.74 200.784 l
338.58 200.784 l
338.58 199.912 l
0.975 0.735 0.401 setrgbcolor
fill
grestore
gsave
11.16 223.2 338.6 36 clipbox
338.58 200.784 m
349.74 200.784 l
349.74 201.656 l
338.58 201.656 l
338.58 200.784 l
0.982 0.726 0.395 setrgbcolor
fill
grestore
gsave
11.16 223.2 338.6 36 clipbox
338.58 201.656 m
349.74 201.656 l
349.74 202.528 l
338.58 202.528 l
338.58 201.656 l
0.990 0.718 0.390 setrgbcolor
fill
grestore
gsave
11.16 223.2 338.6 36 clipbox
338.58 202.528 m
349.74 202.528 l
349.74 203.4 l
338.58 203.4 l
338.58 202.528 l
0.998 0.709 0.384 setrgbcolor
fill
grestore
gsave
11.16 223.2 338.6 36 clipbox
338.58 203.4 m
349.74 203.4 l
349.74 204.272 l
338.58 204.272 l
338.58 203.4 l
1.000 0.701 0.378 setrgbcolor
fill
grestore
gsave
11.16 223.2 338.6 36 clipbox
338.58 204.272 m
349.74 204.272 l
349.74 205.144 l
338.58 205.144 l
338.58 204.272 l
1.000 0.692 0.373 setrgbcolor
fill
grestore
gsave
11.16 223.2 338.6 36 clipbox
338.58 205.144 m
349.74 205.144 l
349.74 206.016 l
338.58 206.016 l
338.58 205.144 l
1.000 0.683 0.367 setrgbcolor
fill
grestore
gsave
11.16 223.2 338.6 36 clipbox
338.58 206.016 m
349.74 206.016 l
349.74 206.887 l
338.58 206.887 l
338.58 206.016 l
1.000 0.674 0.361 setrgbcolor
fill
grestore
gsave
11.16 223.2 338.6 36 clipbox
338.58 206.887 m
349.74 206.887 l
349.74 207.759 l
338.58 207.759 l
338.58 206.887 l
1.000 0.665 0.355 setrgbcolor
fill
grestore
gsave
11.16 223.2 338.6 36 clipbox
338.58 207.759 m
349.74 207.759 l
349.74 208.631 l
338.58 208.631 l
338.58 207.759 l
1.000 0.655 0.350 setrgbcolor
fill
grestore
gsave
11.16 223.2 338.6 36 clipbox
338.58 208.631 m
349.74 208.631 l
349.74 209.503 l
338.58 209.503 l
338.58 208.631 l
1.000 0.646 0.344 setrgbcolor
fill
grestore
gsave
11.16 223.2 338.6 36 clipbox
338.58 209.503 m
349.74 209.503 l
349.74 210.375 l
338.58 210.375 l
338.58 209.503 l
1.000 0.636 0.338 setrgbcolor
fill
grestore
gsave
11.16 223.2 338.6 36 clipbox
338.58 210.375 m
349.74 210.375 l
349.74 211.247 l
338.58 211.247 l
338.58 210.375 l
1.000 0.627 0.332 setrgbcolor
fill
grestore
gsave
11.16 223.2 338.6 36 clipbox
338.58 211.247 m
349.74 211.247 l
349.74 212.119 l
338.58 212.119 l
338.58 211.247 l
1.000 0.617 0.327 setrgbcolor
fill
grestore
gsave
11.16 223.2 338.6 36 clipbox
338.58 212.119 m
349.74 212.119 l
349.74 212.991 l
338.58 212.991 l
338.58 212.119 l
1.000 0.608 0.321 setrgbcolor
fill
grestore
gsave
11.16 223.2 338.6 36 clipbox
338.58 212.991 m
349.74 212.991 l
349.74 213.862 l
338.58 213.862 l
338.58 212.991 l
1.000 0.598 0.315 setrgbcolor
fill
grestore
gsave
11.16 223.2 338.6 36 clipbox
338.58 213.862 m
349.74 213.862 l
349.74 214.734 l
338.58 214.734 l
338.58 213.862 l
1.000 0.588 0.309 setrgbcolor
fill
grestore
gsave
11.16 223.2 338.6 36 clipbox
338.58 214.734 m
349.74 214.734 l
349.74 215.606 l
338.58 215.606 l
338.58 214.734 l
1.000 0.578 0.303 setrgbcolor
fill
grestore
gsave
11.16 223.2 338.6 36 clipbox
338.58 215.606 m
349.74 215.606 l
349.74 216.478 l
338.58 216.478 l
338.58 215.606 l
1.000 0.568 0.297 setrgbcolor
fill
grestore
gsave
11.16 223.2 338.6 36 clipbox
338.58 216.478 m
349.74 216.478 l
349.74 217.35 l
338.58 217.35 l
338.58 216.478 l
1.000 0.557 0.291 setrgbcolor
fill
grestore
gsave
11.16 223.2 338.6 36 clipbox
338.58 217.35 m
349.74 217.35 l
349.74 218.222 l
338.58 218.222 l
338.58 217.35 l
1.000 0.547 0.285 setrgbcolor
fill
grestore
gsave
11.16 223.2 338.6 36 clipbox
338.58 218.222 m
349.74 218.222 l
349.74 219.094 l
338.58 219.094 l
338.58 218.222 l
1.000 0.537 0.280 setrgbcolor
fill
grestore
gsave
11.16 223.2 338.6 36 clipbox
338.58 219.094 m
349.74 219.094 l
349.74 219.966 l
338.58 219.966 l
338.58 219.094 l
1.000 0.526 0.274 setrgbcolor
fill
grestore
gsave
11.16 223.2 338.6 36 clipbox
338.58 219.966 m
349.74 219.966 l
349.74 220.837 l
338.58 220.837 l
338.58 219.966 l
1.000 0.516 0.268 setrgbcolor
fill
grestore
gsave
11.16 223.2 338.6 36 clipbox
338.58 220.837 m
349.74 220.837 l
349.74 221.709 l
338.58 221.709 l
338.58 220.837 l
1.000 0.505 0.262 setrgbcolor
fill
grestore
gsave
11.16 223.2 338.6 36 clipbox
338.58 221.709 m
349.74 221.709 l
349.74 222.581 l
338.58 222.581 l
338.58 221.709 l
1.000 0.495 0.256 setrgbcolor
fill
grestore
gsave
11.16 223.2 338.6 36 clipbox
338.58 222.581 m
349.74 222.581 l
349.74 223.453 l
338.58 223.453 l
338.58 222.581 l
1.000 0.484 0.250 setrgbcolor
fill
grestore
gsave
11.16 223.2 338.6 36 clipbox
338.58 223.453 m
349.74 223.453 l
349.74 224.325 l
338.58 224.325 l
338.58 223.453 l
1.000 0.473 0.244 setrgbcolor
fill
grestore
gsave
11.16 223.2 338.6 36 clipbox
338.58 224.325 m
349.74 224.325 l
349.74 225.197 l
338.58 225.197 l
338.58 224.325 l
1.000 0.462 0.238 setrgbcolor
fill
grestore
gsave
11.16 223.2 338.6 36 clipbox
338.58 225.197 m
349.74 225.197 l
349.74 226.069 l
338.58 226.069 l
338.58 225.197 l
1.000 0.451 0.232 setrgbcolor
fill
grestore
gsave
11.16 223.2 338.6 36 clipbox
338.58 226.069 m
349.74 226.069 l
349.74 226.941 l
338.58 226.941 l
338.58 226.069 l
1.000 0.440 0.226 setrgbcolor
fill
grestore
gsave
11.16 223.2 338.6 36 clipbox
338.58 226.941 m
349.74 226.941 l
349.74 227.812 l
338.58 227.812 l
338.58 226.941 l
1.000 0.429 0.220 setrgbcolor
fill
grestore
gsave
11.16 223.2 338.6 36 clipbox
338.58 227.812 m
349.74 227.812 l
349.74 228.684 l
338.58 228.684 l
338.58 227.812 l
1.000 0.418 0.214 setrgbcolor
fill
grestore
gsave
11.16 223.2 338.6 36 clipbox
338.58 228.684 m
349.74 228.684 l
349.74 229.556 l
338.58 229.556 l
338.58 228.684 l
1.000 0.407 0.208 setrgbcolor
fill
grestore
gsave
11.16 223.2 338.6 36 clipbox
338.58 229.556 m
349.74 229.556 l
349.74 230.428 l
338.58 230.428 l
338.58 229.556 l
1.000 0.395 0.202 setrgbcolor
fill
grestore
gsave
11.16 223.2 338.6 36 clipbox
338.58 230.428 m
349.74 230.428 l
349.74 231.3 l
338.58 231.3 l
338.58 230.428 l
1.000 0.384 0.196 setrgbcolor
fill
grestore
gsave
11.16 223.2 338.6 36 clipbox
338.58 231.3 m
349.74 231.3 l
349.74 232.172 l
338.58 232.172 l
338.58 231.3 l
1.000 0.373 0.190 setrgbcolor
fill
grestore
gsave
11.16 223.2 338.6 36 clipbox
338.58 232.172 m
349.74 232.172 l
349.74 233.044 l
338.58 233.044 l
338.58 232.172 l
1.000 0.361 0.184 setrgbcolor
fill
grestore
gsave
11.16 223.2 338.6 36 clipbox
338.58 233.044 m
349.74 233.044 l
349.74 233.916 l
338.58 233.916 l
338.58 233.044 l
1.000 0.350 0.178 setrgbcolor
fill
grestore
gsave
11.16 223.2 338.6 36 clipbox
338.58 233.916 m
349.74 233.916 l
349.74 234.787 l
338.58 234.787 l
338.58 233.916 l
1.000 0.338 0.172 setrgbcolor
fill
grestore
gsave
11.16 223.2 338.6 36 clipbox
338.58 234.787 m
349.74 234.787 l
349.74 235.659 l
338.58 235.659 l
338.58 234.787 l
1.000 0.327 0.166 setrgbcolor
fill
grestore
gsave
11.16 223.2 338.6 36 clipbox
338.58 235.659 m
349.74 235.659 l
349.74 236.531 l
338.58 236.531 l
338.58 235.659 l
1.000 0.315 0.159 setrgbcolor
fill
grestore
gsave
11.16 223.2 338.6 36 clipbox
338.58 236.531 m
349.74 236.531 l
349.74 237.403 l
338.58 237.403 l
338.58 236.531 l
1.000 0.303 0.153 setrgbcolor
fill
grestore
gsave
11.16 223.2 338.6 36 clipbox
338.58 237.403 m
349.74 237.403 l
349.74 238.275 l
338.58 238.275 l
338.58 237.403 l
1.000 0.291 0.147 setrgbcolor
fill
grestore
gsave
11.16 223.2 338.6 36 clipbox
338.58 238.275 m
349.74 238.275 l
349.74 239.147 l
338.58 239.147 l
338.58 238.275 l
1.000 0.280 0.141 setrgbcolor
fill
grestore
gsave
11.16 223.2 338.6 36 clipbox
338.58 239.147 m
349.74 239.147 l
349.74 240.019 l
338.58 240.019 l
338.58 239.147 l
1.000 0.268 0.135 setrgbcolor
fill
grestore
gsave
11.16 223.2 338.6 36 clipbox
338.58 240.019 m
349.74 240.019 l
349.74 240.891 l
338.58 240.891 l
338.58 240.019 l
1.000 0.256 0.129 setrgbcolor
fill
grestore
gsave
11.16 223.2 338.6 36 clipbox
338.58 240.891 m
349.74 240.891 l
349.74 241.762 l
338.58 241.762 l
338.58 240.891 l
1.000 0.244 0.123 setrgbcolor
fill
grestore
gsave
11.16 223.2 338.6 36 clipbox
338.58 241.762 m
349.74 241.762 l
349.74 242.634 l
338.58 242.634 l
338.58 241.762 l
1.000 0.232 0.117 setrgbcolor
fill
grestore
gsave
11.16 223.2 338.6 36 clipbox
338.58 242.634 m
349.74 242.634 l
349.74 243.506 l
338.58 243.506 l
338.58 242.634 l
1.000 0.220 0.111 setrgbcolor
fill
grestore
gsave
11.16 223.2 338.6 36 clipbox
338.58 243.506 m
349.74 243.506 l
349.74 244.378 l
338.58 244.378 l
338.58 243.506 l
1.000 0.208 0.105 setrgbcolor
fill
grestore
gsave
11.16 223.2 338.6 36 clipbox
338.58 244.378 m
349.74 244.378 l
349.74 245.25 l
338.58 245.25 l
338.58 244.378 l
1.000 0.196 0.098 setrgbcolor
fill
grestore
gsave
11.16 223.2 338.6 36 clipbox
338.58 245.25 m
349.74 245.25 l
349.74 246.122 l
338.58 246.122 l
338.58 245.25 l
1.000 0.184 0.092 setrgbcolor
fill
grestore
gsave
11.16 223.2 338.6 36 clipbox
338.58 246.122 m
349.74 246.122 l
349.74 246.994 l
338.58 246.994 l
338.58 246.122 l
1.000 0.172 0.086 setrgbcolor
fill
grestore
gsave
11.16 223.2 338.6 36 clipbox
338.58 246.994 m
349.74 246.994 l
349.74 247.866 l
338.58 247.866 l
338.58 246.994 l
1.000 0.159 0.080 setrgbcolor
fill
grestore
gsave
11.16 223.2 338.6 36 clipbox
338.58 247.866 m
349.74 247.866 l
349.74 248.737 l
338.58 248.737 l
338.58 247.866 l
1.000 0.147 0.074 setrgbcolor
fill
grestore
gsave
11.16 223.2 338.6 36 clipbox
338.58 248.737 m
349.74 248.737 l
349.74 249.609 l
338.58 249.609 l
338.58 248.737 l
1.000 0.135 0.068 setrgbcolor
fill
grestore
gsave
11.16 223.2 338.6 36 clipbox
338.58 249.609 m
349.74 249.609 l
349.74 250.481 l
338.58 250.481 l
338.58 249.609 l
1.000 0.123 0.062 setrgbcolor
fill
grestore
gsave
11.16 223.2 338.6 36 clipbox
338.58 250.481 m
349.74 250.481 l
349.74 251.353 l
338.58 251.353 l
338.58 250.481 l
1.000 0.111 0.055 setrgbcolor
fill
grestore
gsave
11.16 223.2 338.6 36 clipbox
338.58 251.353 m
349.74 251.353 l
349.74 252.225 l
338.58 252.225 l
338.58 251.353 l
1.000 0.098 0.049 setrgbcolor
fill
grestore
gsave
11.16 223.2 338.6 36 clipbox
338.58 252.225 m
349.74 252.225 l
349.74 253.097 l
338.58 253.097 l
338.58 252.225 l
1.000 0.086 0.043 setrgbcolor
fill
grestore
gsave
11.16 223.2 338.6 36 clipbox
338.58 253.097 m
349.74 253.097 l
349.74 253.969 l
338.58 253.969 l
338.58 253.097 l
1.000 0.074 0.037 setrgbcolor
fill
grestore
gsave
11.16 223.2 338.6 36 clipbox
338.58 253.969 m
349.74 253.969 l
349.74 254.841 l
338.58 254.841 l
338.58 253.969 l
1.000 0.062 0.031 setrgbcolor
fill
grestore
gsave
11.16 223.2 338.6 36 clipbox
338.58 254.841 m
349.74 254.841 l
349.74 255.712 l
338.58 255.712 l
338.58 254.841 l
1.000 0.049 0.025 setrgbcolor
fill
grestore
gsave
11.16 223.2 338.6 36 clipbox
338.58 255.712 m
349.74 255.712 l
349.74 256.584 l
338.58 256.584 l
338.58 255.712 l
1.000 0.037 0.018 setrgbcolor
fill
grestore
gsave
11.16 223.2 338.6 36 clipbox
338.58 256.584 m
349.74 256.584 l
349.74 257.456 l
338.58 257.456 l
338.58 256.584 l
1.000 0.025 0.012 setrgbcolor
fill
grestore
gsave
11.16 223.2 338.6 36 clipbox
338.58 257.456 m
349.74 257.456 l
349.74 258.328 l
338.58 258.328 l
338.58 257.456 l
1.000 0.012 0.006 setrgbcolor
fill
grestore
gsave
11.16 223.2 338.6 36 clipbox
338.58 258.328 m
349.74 258.328 l
349.74 259.2 l
338.58 259.2 l
338.58 258.328 l
1.000 0.000 0.000 setrgbcolor
fill
grestore
1.000 setlinewidth
0.000 setgray
gsave
338.58 36 m
338.58 36.8719 l
338.58 258.328 l
338.58 259.2 l
349.74 259.2 l
349.74 258.328 l
349.74 36.8719 l
349.74 36 l
338.58 36 l
stroke
grestore
0.500 setlinewidth
1 setlinejoin
gsave
/o {
gsave
newpath
translate
0.5 setlinewidth
1 setlinejoin
0 setlinecap
0 0 m
-4 0 l
gsave
0.000 setgray
fill
grestore
stroke
grestore
} bind def
349.74 41.3821 o
grestore
/BitstreamVeraSans-Roman findfont
10.000 scalefont
setfont
gsave
353.740000 38.624250 translate
0.000000 rotate
0.000000 0.000000 m /zero glyphshow
6.362305 0.000000 m /period glyphshow
9.541016 0.000000 m /zero glyphshow
15.903320 0.000000 m /zero glyphshow
grestore
gsave
/o {
gsave
newpath
translate
0.5 setlinewidth
1 setlinejoin
0 setlinecap
0 0 m
-4 0 l
gsave
0.000 setgray
fill
grestore
stroke
grestore
} bind def
349.74 67.8045 o
grestore
gsave
353.740000 65.046704 translate
0.000000 rotate
0.000000 0.000000 m /zero glyphshow
6.362305 0.000000 m /period glyphshow
9.541016 0.000000 m /one glyphshow
15.903320 0.000000 m /five glyphshow
grestore
gsave
/o {
gsave
newpath
translate
0.5 setlinewidth
1 setlinejoin
0 setlinecap
0 0 m
-4 0 l
gsave
0.000 setgray
fill
grestore
stroke
grestore
} bind def
349.74 94.227 o
grestore
gsave
353.740000 91.469158 translate
0.000000 rotate
0.000000 0.000000 m /zero glyphshow
6.362305 0.000000 m /period glyphshow
9.541016 0.000000 m /three glyphshow
15.903320 0.000000 m /zero glyphshow
grestore
gsave
/o {
gsave
newpath
translate
0.5 setlinewidth
1 setlinejoin
0 setlinecap
0 0 m
-4 0 l
gsave
0.000 setgray
fill
grestore
stroke
grestore
} bind def
349.74 120.649 o
grestore
gsave
353.740000 117.891612 translate
0.000000 rotate
0.000000 0.000000 m /zero glyphshow
6.362305 0.000000 m /period glyphshow
9.541016 0.000000 m /four glyphshow
15.903320 0.000000 m /five glyphshow
grestore
gsave
/o {
gsave
newpath
translate
0.5 setlinewidth
1 setlinejoin
0 setlinecap
0 0 m
-4 0 l
gsave
0.000 setgray
fill
grestore
stroke
grestore
} bind def
349.74 147.072 o
grestore
gsave
353.740000 144.314066 translate
0.000000 rotate
0.000000 0.000000 m /zero glyphshow
6.362305 0.000000 m /period glyphshow
9.541016 0.000000 m /six glyphshow
15.903320 0.000000 m /zero glyphshow
grestore
gsave
/o {
gsave
newpath
translate
0.5 setlinewidth
1 setlinejoin
0 setlinecap
0 0 m
-4 0 l
gsave
0.000 setgray
fill
grestore
stroke
grestore
} bind def
349.74 173.494 o
grestore
gsave
353.740000 170.736520 translate
0.000000 rotate
0.000000 0.000000 m /zero glyphshow
6.362305 0.000000 m /period glyphshow
9.541016 0.000000 m /seven glyphshow
15.903320 0.000000 m /five glyphshow
grestore
gsave
/o {
gsave
newpath
translate
0.5 setlinewidth
1 setlinejoin
0 setlinecap
0 0 m
-4 0 l
gsave
0.000 setgray
fill
grestore
stroke
grestore
} bind def
349.74 199.917 o
grestore
gsave
353.740000 197.158974 translate
0.000000 rotate
0.000000 0.000000 m /zero glyphshow
6.362305 0.000000 m /period glyphshow
9.541016 0.000000 m /nine glyphshow
15.903320 0.000000 m /zero glyphshow
grestore
gsave
/o {
gsave
newpath
translate
0.5 setlinewidth
1 setlinejoin
0 setlinecap
0 0 m
-4 0 l
gsave
0.000 setgray
fill
grestore
stroke
grestore
} bind def
349.74 226.339 o
grestore
gsave
353.740000 223.581428 translate
0.000000 rotate
0.000000 0.000000 m /one glyphshow
6.362305 0.000000 m /period glyphshow
9.541016 0.000000 m /zero glyphshow
15.903320 0.000000 m /five glyphshow
grestore
gsave
/o {
gsave
newpath
translate
0.5 setlinewidth
1 setlinejoin
0 setlinecap
0 0 m
-4 0 l
gsave
0.000 setgray
fill
grestore
stroke
grestore
} bind def
349.74 252.762 o
grestore
gsave
353.740000 250.003882 translate
0.000000 rotate
0.000000 0.000000 m /one glyphshow
6.362305 0.000000 m /period glyphshow
9.541016 0.000000 m /two glyphshow
15.903320 0.000000 m /zero glyphshow
grestore

end
showpage
