%!PS-Adobe-3.0 EPSF-3.0
%%Title: JointEnKFupdate100.eps
%%Creator: matplotlib version 1.4.3, http://matplotlib.org/
%%CreationDate: Sun Dec 13 23:43:56 2015
%%Orientation: portrait
%%BoundingBox: 90 252 522 540
%%EndComments
%%BeginProlog
/mpldict 8 dict def
mpldict begin
/m { moveto } bind def
/l { lineto } bind def
/r { rlineto } bind def
/c { curveto } bind def
/cl { closepath } bind def
/box {
m
1 index 0 r
0 exch r
neg 0 r
cl
} bind def
/clipbox {
box
clip
newpath
} bind def
%!PS-Adobe-3.0 Resource-Font
%%Title: Bitstream Vera Sans
%%Copyright: Copyright (c) 2003 by Bitstream, Inc. All Rights Reserved.
%%Creator: Converted from TrueType to type 3 by PPR
25 dict begin
/_d{bind def}bind def
/_m{moveto}_d
/_l{lineto}_d
/_cl{closepath eofill}_d
/_c{curveto}_d
/_sc{7 -1 roll{setcachedevice}{pop pop pop pop pop pop}ifelse}_d
/_e{exec}_d
/FontName /BitstreamVeraSans-Roman def
/PaintType 0 def
/FontMatrix[.001 0 0 .001 0 0]def
/FontBBox[-183 -236 1287 928]def
/FontType 3 def
/Encoding [ /space /parenleft /parenright /period /zero /one /two /three /four /six /eight /equal /F /I /W /a /b /c /d /e /i /l /m /n /o /q /r /s /t /u /y /minus ] def
/FontInfo 10 dict dup begin
/FamilyName (Bitstream Vera Sans) def
/FullName (Bitstream Vera Sans) def
/Notice (Copyright (c) 2003 by Bitstream, Inc. All Rights Reserved. Bitstream Vera is a trademark of Bitstream, Inc.) def
/Weight (Roman) def
/Version (Release 1.10) def
/ItalicAngle 0.0 def
/isFixedPitch false def
/UnderlinePosition -213 def
/UnderlineThickness 143 def
end readonly def
/CharStrings 32 dict dup begin
/space{318 0 0 0 0 0 _sc
}_d
/parenleft{390 0 86 -131 310 759 _sc
310 759 _m
266 683 234 609 213 536 _c
191 463 181 389 181 314 _c
181 238 191 164 213 91 _c
234 17 266 -56 310 -131 _c
232 -131 _l
183 -54 146 20 122 94 _c
98 168 86 241 86 314 _c
86 386 98 459 122 533 _c
146 607 182 682 232 759 _c
310 759 _l
_cl}_d
/parenright{390 0 80 -131 304 759 _sc
80 759 _m
158 759 _l
206 682 243 607 267 533 _c
291 459 304 386 304 314 _c
304 241 291 168 267 94 _c
243 20 206 -54 158 -131 _c
80 -131 _l
123 -56 155 17 177 91 _c
198 164 209 238 209 314 _c
209 389 198 463 177 536 _c
155 609 123 683 80 759 _c
_cl}_d
/period{318 0 107 0 210 124 _sc
107 124 _m
210 124 _l
210 0 _l
107 0 _l
107 124 _l
_cl}_d
/zero{636 0 66 -13 570 742 _sc
318 664 _m
267 664 229 639 203 589 _c
177 539 165 464 165 364 _c
165 264 177 189 203 139 _c
229 89 267 64 318 64 _c
369 64 407 89 433 139 _c
458 189 471 264 471 364 _c
471 464 458 539 433 589 _c
407 639 369 664 318 664 _c
318 742 _m
399 742 461 709 505 645 _c
548 580 570 486 570 364 _c
570 241 548 147 505 83 _c
461 19 399 -13 318 -13 _c
236 -13 173 19 130 83 _c
87 147 66 241 66 364 _c
66 486 87 580 130 645 _c
173 709 236 742 318 742 _c
_cl}_d
/one{636 0 110 0 544 729 _sc
124 83 _m
285 83 _l
285 639 _l
110 604 _l
110 694 _l
284 729 _l
383 729 _l
383 83 _l
544 83 _l
544 0 _l
124 0 _l
124 83 _l
_cl}_d
/two{{636 0 73 0 536 742 _sc
192 83 _m
536 83 _l
536 0 _l
73 0 _l
73 83 _l
110 121 161 173 226 239 _c
290 304 331 346 348 365 _c
380 400 402 430 414 455 _c
426 479 433 504 433 528 _c
433 566 419 598 392 622 _c
365 646 330 659 286 659 _c
255 659 222 653 188 643 _c
154 632 117 616 78 594 _c
78 694 _l
118 710 155 722 189 730 _c
223 738 255 742 284 742 _c
}_e{359 742 419 723 464 685 _c
509 647 532 597 532 534 _c
532 504 526 475 515 449 _c
504 422 484 390 454 354 _c
446 344 420 317 376 272 _c
332 227 271 164 192 83 _c
_cl}_e}_d
/three{{636 0 76 -13 556 742 _sc
406 393 _m
453 383 490 362 516 330 _c
542 298 556 258 556 212 _c
556 140 531 84 482 45 _c
432 6 362 -13 271 -13 _c
240 -13 208 -10 176 -4 _c
144 1 110 10 76 22 _c
76 117 _l
103 101 133 89 166 81 _c
198 73 232 69 268 69 _c
330 69 377 81 409 105 _c
441 129 458 165 458 212 _c
458 254 443 288 413 312 _c
383 336 341 349 287 349 _c
}_e{202 349 _l
202 430 _l
291 430 _l
339 430 376 439 402 459 _c
428 478 441 506 441 543 _c
441 580 427 609 401 629 _c
374 649 336 659 287 659 _c
260 659 231 656 200 650 _c
169 644 135 635 98 623 _c
98 711 _l
135 721 170 729 203 734 _c
235 739 266 742 296 742 _c
370 742 429 725 473 691 _c
517 657 539 611 539 553 _c
539 513 527 479 504 451 _c
481 423 448 403 406 393 _c
_cl}_e}_d
/four{636 0 49 0 580 729 _sc
378 643 _m
129 254 _l
378 254 _l
378 643 _l
352 729 _m
476 729 _l
476 254 _l
580 254 _l
580 172 _l
476 172 _l
476 0 _l
378 0 _l
378 172 _l
49 172 _l
49 267 _l
352 729 _l
_cl}_d
/six{{636 0 70 -13 573 742 _sc
330 404 _m
286 404 251 388 225 358 _c
199 328 186 286 186 234 _c
186 181 199 139 225 109 _c
251 79 286 64 330 64 _c
374 64 409 79 435 109 _c
461 139 474 181 474 234 _c
474 286 461 328 435 358 _c
409 388 374 404 330 404 _c
526 713 _m
526 623 _l
501 635 476 644 451 650 _c
425 656 400 659 376 659 _c
310 659 260 637 226 593 _c
}_e{192 549 172 482 168 394 _c
187 422 211 444 240 459 _c
269 474 301 482 336 482 _c
409 482 467 459 509 415 _c
551 371 573 310 573 234 _c
573 159 550 99 506 54 _c
462 9 403 -13 330 -13 _c
246 -13 181 19 137 83 _c
92 147 70 241 70 364 _c
70 479 97 571 152 639 _c
206 707 280 742 372 742 _c
396 742 421 739 447 735 _c
472 730 498 723 526 713 _c
_cl}_e}_d
/eight{{636 0 68 -13 568 742 _sc
318 346 _m
271 346 234 333 207 308 _c
180 283 167 249 167 205 _c
167 161 180 126 207 101 _c
234 76 271 64 318 64 _c
364 64 401 76 428 102 _c
455 127 469 161 469 205 _c
469 249 455 283 429 308 _c
402 333 365 346 318 346 _c
219 388 _m
177 398 144 418 120 447 _c
96 476 85 511 85 553 _c
85 611 105 657 147 691 _c
188 725 245 742 318 742 _c
}_e{390 742 447 725 489 691 _c
530 657 551 611 551 553 _c
551 511 539 476 515 447 _c
491 418 459 398 417 388 _c
464 377 501 355 528 323 _c
554 291 568 251 568 205 _c
568 134 546 80 503 43 _c
459 5 398 -13 318 -13 _c
237 -13 175 5 132 43 _c
89 80 68 134 68 205 _c
68 251 81 291 108 323 _c
134 355 171 377 219 388 _c
183 544 _m
183 506 194 476 218 455 _c
}_e{242 434 275 424 318 424 _c
360 424 393 434 417 455 _c
441 476 453 506 453 544 _c
453 582 441 611 417 632 _c
393 653 360 664 318 664 _c
275 664 242 653 218 632 _c
194 611 183 582 183 544 _c
_cl}_e}_d
/equal{838 0 106 172 732 454 _sc
106 454 _m
732 454 _l
732 372 _l
106 372 _l
106 454 _l
106 255 _m
732 255 _l
732 172 _l
106 172 _l
106 255 _l
_cl}_d
/F{575 0 98 0 517 729 _sc
98 729 _m
517 729 _l
517 646 _l
197 646 _l
197 431 _l
486 431 _l
486 348 _l
197 348 _l
197 0 _l
98 0 _l
98 729 _l
_cl}_d
/I{295 0 98 0 197 729 _sc
98 729 _m
197 729 _l
197 0 _l
98 0 _l
98 729 _l
_cl}_d
/W{989 0 33 0 956 729 _sc
33 729 _m
133 729 _l
286 113 _l
439 729 _l
550 729 _l
703 113 _l
856 729 _l
956 729 _l
773 0 _l
649 0 _l
495 633 _l
340 0 _l
216 0 _l
33 729 _l
_cl}_d
/a{{613 0 60 -13 522 560 _sc
343 275 _m
270 275 220 266 192 250 _c
164 233 150 205 150 165 _c
150 133 160 107 181 89 _c
202 70 231 61 267 61 _c
317 61 357 78 387 114 _c
417 149 432 196 432 255 _c
432 275 _l
343 275 _l
522 312 _m
522 0 _l
432 0 _l
432 83 _l
411 49 385 25 355 10 _c
325 -5 287 -13 243 -13 _c
187 -13 142 2 109 33 _c
76 64 60 106 60 159 _c
}_e{60 220 80 266 122 298 _c
163 329 224 345 306 345 _c
432 345 _l
432 354 _l
432 395 418 427 391 450 _c
364 472 326 484 277 484 _c
245 484 215 480 185 472 _c
155 464 127 453 100 439 _c
100 522 _l
132 534 164 544 195 550 _c
226 556 256 560 286 560 _c
365 560 424 539 463 498 _c
502 457 522 395 522 312 _c
_cl}_e}_d
/b{{635 0 91 -13 580 760 _sc
487 273 _m
487 339 473 390 446 428 _c
418 466 381 485 334 485 _c
286 485 249 466 222 428 _c
194 390 181 339 181 273 _c
181 207 194 155 222 117 _c
249 79 286 61 334 61 _c
381 61 418 79 446 117 _c
473 155 487 207 487 273 _c
181 464 _m
199 496 223 520 252 536 _c
281 552 316 560 356 560 _c
422 560 476 533 518 481 _c
559 428 580 359 580 273 _c
}_e{580 187 559 117 518 65 _c
476 13 422 -13 356 -13 _c
316 -13 281 -5 252 10 _c
223 25 199 49 181 82 _c
181 0 _l
91 0 _l
91 760 _l
181 760 _l
181 464 _l
_cl}_e}_d
/c{{550 0 55 -13 488 560 _sc
488 526 _m
488 442 _l
462 456 437 466 411 473 _c
385 480 360 484 334 484 _c
276 484 230 465 198 428 _c
166 391 150 339 150 273 _c
150 206 166 154 198 117 _c
230 80 276 62 334 62 _c
360 62 385 65 411 72 _c
437 79 462 90 488 104 _c
488 21 _l
462 9 436 0 410 -5 _c
383 -10 354 -13 324 -13 _c
242 -13 176 12 128 64 _c
}_e{79 115 55 185 55 273 _c
55 362 79 432 128 483 _c
177 534 244 560 330 560 _c
358 560 385 557 411 551 _c
437 545 463 537 488 526 _c
_cl}_e}_d
/d{{635 0 55 -13 544 760 _sc
454 464 _m
454 760 _l
544 760 _l
544 0 _l
454 0 _l
454 82 _l
435 49 411 25 382 10 _c
353 -5 319 -13 279 -13 _c
213 -13 159 13 117 65 _c
75 117 55 187 55 273 _c
55 359 75 428 117 481 _c
159 533 213 560 279 560 _c
319 560 353 552 382 536 _c
411 520 435 496 454 464 _c
148 273 _m
148 207 161 155 188 117 _c
215 79 253 61 301 61 _c
}_e{348 61 385 79 413 117 _c
440 155 454 207 454 273 _c
454 339 440 390 413 428 _c
385 466 348 485 301 485 _c
253 485 215 466 188 428 _c
161 390 148 339 148 273 _c
_cl}_e}_d
/e{{615 0 55 -13 562 560 _sc
562 296 _m
562 252 _l
149 252 _l
153 190 171 142 205 110 _c
238 78 284 62 344 62 _c
378 62 412 66 444 74 _c
476 82 509 95 541 113 _c
541 28 _l
509 14 476 3 442 -3 _c
408 -9 373 -13 339 -13 _c
251 -13 182 12 131 62 _c
80 112 55 181 55 268 _c
55 357 79 428 127 481 _c
175 533 241 560 323 560 _c
397 560 455 536 498 489 _c
}_e{540 441 562 377 562 296 _c
472 322 _m
471 371 457 410 431 440 _c
404 469 368 484 324 484 _c
274 484 234 469 204 441 _c
174 413 156 373 152 322 _c
472 322 _l
_cl}_e}_d
/i{278 0 94 0 184 760 _sc
94 547 _m
184 547 _l
184 0 _l
94 0 _l
94 547 _l
94 760 _m
184 760 _l
184 646 _l
94 646 _l
94 760 _l
_cl}_d
/l{278 0 94 0 184 760 _sc
94 760 _m
184 760 _l
184 0 _l
94 0 _l
94 760 _l
_cl}_d
/m{{974 0 91 0 889 560 _sc
520 442 _m
542 482 569 511 600 531 _c
631 550 668 560 711 560 _c
767 560 811 540 842 500 _c
873 460 889 403 889 330 _c
889 0 _l
799 0 _l
799 327 _l
799 379 789 418 771 444 _c
752 469 724 482 686 482 _c
639 482 602 466 575 435 _c
548 404 535 362 535 309 _c
535 0 _l
445 0 _l
445 327 _l
445 379 435 418 417 444 _c
398 469 369 482 331 482 _c
}_e{285 482 248 466 221 435 _c
194 404 181 362 181 309 _c
181 0 _l
91 0 _l
91 547 _l
181 547 _l
181 462 _l
201 495 226 520 255 536 _c
283 552 317 560 357 560 _c
397 560 430 550 458 530 _c
486 510 506 480 520 442 _c
_cl}_e}_d
/n{634 0 91 0 549 560 _sc
549 330 _m
549 0 _l
459 0 _l
459 327 _l
459 379 448 417 428 443 _c
408 469 378 482 338 482 _c
289 482 251 466 223 435 _c
195 404 181 362 181 309 _c
181 0 _l
91 0 _l
91 547 _l
181 547 _l
181 462 _l
202 494 227 519 257 535 _c
286 551 320 560 358 560 _c
420 560 468 540 500 501 _c
532 462 549 405 549 330 _c
_cl}_d
/o{612 0 55 -13 557 560 _sc
306 484 _m
258 484 220 465 192 427 _c
164 389 150 338 150 273 _c
150 207 163 156 191 118 _c
219 80 257 62 306 62 _c
354 62 392 80 420 118 _c
448 156 462 207 462 273 _c
462 337 448 389 420 427 _c
392 465 354 484 306 484 _c
306 560 _m
384 560 445 534 490 484 _c
534 433 557 363 557 273 _c
557 183 534 113 490 63 _c
445 12 384 -13 306 -13 _c
227 -13 165 12 121 63 _c
77 113 55 183 55 273 _c
55 363 77 433 121 484 _c
165 534 227 560 306 560 _c
_cl}_d
/q{{635 0 55 -207 544 560 _sc
148 273 _m
148 207 161 155 188 117 _c
215 79 253 61 301 61 _c
348 61 385 79 413 117 _c
440 155 454 207 454 273 _c
454 339 440 390 413 428 _c
385 466 348 485 301 485 _c
253 485 215 466 188 428 _c
161 390 148 339 148 273 _c
454 82 _m
435 49 411 25 382 10 _c
353 -5 319 -13 279 -13 _c
213 -13 159 13 117 65 _c
75 117 55 187 55 273 _c
}_e{55 359 75 428 117 481 _c
159 533 213 560 279 560 _c
319 560 353 552 382 536 _c
411 520 435 496 454 464 _c
454 547 _l
544 547 _l
544 -207 _l
454 -207 _l
454 82 _l
_cl}_e}_d
/r{411 0 91 0 411 560 _sc
411 463 _m
401 469 390 473 378 476 _c
366 478 353 480 339 480 _c
288 480 249 463 222 430 _c
194 397 181 350 181 288 _c
181 0 _l
91 0 _l
91 547 _l
181 547 _l
181 462 _l
199 495 224 520 254 536 _c
284 552 321 560 365 560 _c
371 560 378 559 386 559 _c
393 558 401 557 411 555 _c
411 463 _l
_cl}_d
/s{{521 0 54 -13 472 560 _sc
443 531 _m
443 446 _l
417 458 391 468 364 475 _c
336 481 308 485 279 485 _c
234 485 200 478 178 464 _c
156 450 145 430 145 403 _c
145 382 153 366 169 354 _c
185 342 217 330 265 320 _c
296 313 _l
360 299 405 279 432 255 _c
458 230 472 195 472 151 _c
472 100 452 60 412 31 _c
372 1 316 -13 246 -13 _c
216 -13 186 -10 154 -5 _c
}_e{122 0 89 8 54 20 _c
54 113 _l
87 95 120 82 152 74 _c
184 65 216 61 248 61 _c
290 61 323 68 346 82 _c
368 96 380 117 380 144 _c
380 168 371 187 355 200 _c
339 213 303 226 247 238 _c
216 245 _l
160 257 119 275 95 299 _c
70 323 58 356 58 399 _c
58 450 76 490 112 518 _c
148 546 200 560 268 560 _c
301 560 332 557 362 552 _c
391 547 418 540 443 531 _c
}_e{_cl}_e}_d
/t{392 0 27 0 368 702 _sc
183 702 _m
183 547 _l
368 547 _l
368 477 _l
183 477 _l
183 180 _l
183 135 189 106 201 94 _c
213 81 238 75 276 75 _c
368 75 _l
368 0 _l
276 0 _l
206 0 158 13 132 39 _c
106 65 93 112 93 180 _c
93 477 _l
27 477 _l
27 547 _l
93 547 _l
93 702 _l
183 702 _l
_cl}_d
/u{634 0 85 -13 543 547 _sc
85 216 _m
85 547 _l
175 547 _l
175 219 _l
175 167 185 129 205 103 _c
225 77 255 64 296 64 _c
344 64 383 79 411 110 _c
439 141 453 183 453 237 _c
453 547 _l
543 547 _l
543 0 _l
453 0 _l
453 84 _l
431 50 405 26 377 10 _c
348 -5 315 -13 277 -13 _c
214 -13 166 6 134 45 _c
101 83 85 140 85 216 _c
_cl}_d
/y{592 0 30 -207 562 547 _sc
322 -50 _m
296 -114 271 -157 247 -177 _c
223 -197 191 -207 151 -207 _c
79 -207 _l
79 -132 _l
132 -132 _l
156 -132 175 -126 189 -114 _c
203 -102 218 -75 235 -31 _c
251 9 _l
30 547 _l
125 547 _l
296 119 _l
467 547 _l
562 547 _l
322 -50 _l
_cl}_d
/minus{838 0 106 272 732 355 _sc
106 355 _m
732 355 _l
732 272 _l
106 272 _l
106 355 _l
_cl}_d
end readonly def

/BuildGlyph
 {exch begin
 CharStrings exch
 2 copy known not{pop /.notdef}if
 true 3 1 roll get exec
 end}_d

/BuildChar {
 1 index /Encoding get exch get
 1 index /BuildGlyph get exec
}_d

FontName currentdict end definefont pop
end
%%EndProlog
mpldict begin
90 252 translate
432 288 0 0 clipbox
gsave
0 0 m
432 0 l
432 288 l
0 288 l
cl
1.000 setgray
fill
grestore
gsave
46.2516 176.4 m
203.337 176.4 l
203.337 263.2 l
46.2516 263.2 l
cl
1.000 setgray
fill
grestore
1.000 setlinewidth
0 setlinejoin
0 setlinecap
[] 0 setdash
0.000 setgray
gsave
157.1 86.8 46.25 176.4 clipbox
44.8068 176.4 m
49.9382 176.4 l
49.9382 177.123 l
44.8068 177.123 l
cl
gsave
0.000 0.000 1.000 setrgbcolor
fill
grestore
stroke
grestore
gsave
157.1 86.8 46.25 176.4 clipbox
49.9382 176.4 m
55.0696 176.4 l
55.0696 178.57 l
49.9382 178.57 l
cl
gsave
0.000 0.000 1.000 setrgbcolor
fill
grestore
stroke
grestore
gsave
157.1 86.8 46.25 176.4 clipbox
55.0696 176.4 m
60.201 176.4 l
60.201 177.847 l
55.0696 177.847 l
cl
gsave
0.000 0.000 1.000 setrgbcolor
fill
grestore
stroke
grestore
gsave
157.1 86.8 46.25 176.4 clipbox
60.201 176.4 m
65.3324 176.4 l
65.3324 177.123 l
60.201 177.123 l
cl
gsave
0.000 0.000 1.000 setrgbcolor
fill
grestore
stroke
grestore
gsave
157.1 86.8 46.25 176.4 clipbox
65.3324 176.4 m
70.4637 176.4 l
70.4637 180.74 l
65.3324 180.74 l
cl
gsave
0.000 0.000 1.000 setrgbcolor
fill
grestore
stroke
grestore
gsave
157.1 86.8 46.25 176.4 clipbox
70.4637 176.4 m
75.5951 176.4 l
75.5951 182.187 l
70.4637 182.187 l
cl
gsave
0.000 0.000 1.000 setrgbcolor
fill
grestore
stroke
grestore
gsave
157.1 86.8 46.25 176.4 clipbox
75.5951 176.4 m
80.7265 176.4 l
80.7265 182.91 l
75.5951 182.91 l
cl
gsave
0.000 0.000 1.000 setrgbcolor
fill
grestore
stroke
grestore
gsave
157.1 86.8 46.25 176.4 clipbox
80.7265 176.4 m
85.8579 176.4 l
85.8579 192.313 l
80.7265 192.313 l
cl
gsave
0.000 0.000 1.000 setrgbcolor
fill
grestore
stroke
grestore
gsave
157.1 86.8 46.25 176.4 clipbox
85.8579 176.4 m
90.9893 176.4 l
90.9893 193.037 l
85.8579 193.037 l
cl
gsave
0.000 0.000 1.000 setrgbcolor
fill
grestore
stroke
grestore
gsave
157.1 86.8 46.25 176.4 clipbox
90.9893 176.4 m
96.1207 176.4 l
96.1207 206.057 l
90.9893 206.057 l
cl
gsave
0.000 0.000 1.000 setrgbcolor
fill
grestore
stroke
grestore
gsave
157.1 86.8 46.25 176.4 clipbox
96.1207 176.4 m
101.252 176.4 l
101.252 210.397 l
96.1207 210.397 l
cl
gsave
0.000 0.000 1.000 setrgbcolor
fill
grestore
stroke
grestore
gsave
157.1 86.8 46.25 176.4 clipbox
101.252 176.4 m
106.383 176.4 l
106.383 216.907 l
101.252 216.907 l
cl
gsave
0.000 0.000 1.000 setrgbcolor
fill
grestore
stroke
grestore
gsave
157.1 86.8 46.25 176.4 clipbox
106.383 176.4 m
111.515 176.4 l
111.515 208.95 l
106.383 208.95 l
cl
gsave
0.000 0.000 1.000 setrgbcolor
fill
grestore
stroke
grestore
gsave
157.1 86.8 46.25 176.4 clipbox
111.515 176.4 m
116.646 176.4 l
116.646 231.373 l
111.515 231.373 l
cl
gsave
0.000 0.000 1.000 setrgbcolor
fill
grestore
stroke
grestore
gsave
157.1 86.8 46.25 176.4 clipbox
116.646 176.4 m
121.778 176.4 l
121.778 235.713 l
116.646 235.713 l
cl
gsave
0.000 0.000 1.000 setrgbcolor
fill
grestore
stroke
grestore
gsave
157.1 86.8 46.25 176.4 clipbox
121.778 176.4 m
126.909 176.4 l
126.909 250.903 l
121.778 250.903 l
cl
gsave
0.000 0.000 1.000 setrgbcolor
fill
grestore
stroke
grestore
gsave
157.1 86.8 46.25 176.4 clipbox
126.909 176.4 m
132.04 176.4 l
132.04 241.5 l
126.909 241.5 l
cl
gsave
0.000 0.000 1.000 setrgbcolor
fill
grestore
stroke
grestore
gsave
157.1 86.8 46.25 176.4 clipbox
132.04 176.4 m
137.172 176.4 l
137.172 245.84 l
132.04 245.84 l
cl
gsave
0.000 0.000 1.000 setrgbcolor
fill
grestore
stroke
grestore
gsave
157.1 86.8 46.25 176.4 clipbox
137.172 176.4 m
142.303 176.4 l
142.303 229.927 l
137.172 229.927 l
cl
gsave
0.000 0.000 1.000 setrgbcolor
fill
grestore
stroke
grestore
gsave
157.1 86.8 46.25 176.4 clipbox
142.303 176.4 m
147.435 176.4 l
147.435 217.63 l
142.303 217.63 l
cl
gsave
0.000 0.000 1.000 setrgbcolor
fill
grestore
stroke
grestore
gsave
157.1 86.8 46.25 176.4 clipbox
147.435 176.4 m
152.566 176.4 l
152.566 205.333 l
147.435 205.333 l
cl
gsave
0.000 0.000 1.000 setrgbcolor
fill
grestore
stroke
grestore
gsave
157.1 86.8 46.25 176.4 clipbox
152.566 176.4 m
157.697 176.4 l
157.697 208.227 l
152.566 208.227 l
cl
gsave
0.000 0.000 1.000 setrgbcolor
fill
grestore
stroke
grestore
gsave
157.1 86.8 46.25 176.4 clipbox
157.697 176.4 m
162.829 176.4 l
162.829 197.377 l
157.697 197.377 l
cl
gsave
0.000 0.000 1.000 setrgbcolor
fill
grestore
stroke
grestore
gsave
157.1 86.8 46.25 176.4 clipbox
162.829 176.4 m
167.96 176.4 l
167.96 191.59 l
162.829 191.59 l
cl
gsave
0.000 0.000 1.000 setrgbcolor
fill
grestore
stroke
grestore
gsave
157.1 86.8 46.25 176.4 clipbox
167.96 176.4 m
173.092 176.4 l
173.092 181.463 l
167.96 181.463 l
cl
gsave
0.000 0.000 1.000 setrgbcolor
fill
grestore
stroke
grestore
gsave
157.1 86.8 46.25 176.4 clipbox
173.092 176.4 m
178.223 176.4 l
178.223 180.74 l
173.092 180.74 l
cl
gsave
0.000 0.000 1.000 setrgbcolor
fill
grestore
stroke
grestore
gsave
157.1 86.8 46.25 176.4 clipbox
178.223 176.4 m
183.354 176.4 l
183.354 180.017 l
178.223 180.017 l
cl
gsave
0.000 0.000 1.000 setrgbcolor
fill
grestore
stroke
grestore
gsave
157.1 86.8 46.25 176.4 clipbox
183.354 176.4 m
188.486 176.4 l
188.486 178.57 l
183.354 178.57 l
cl
gsave
0.000 0.000 1.000 setrgbcolor
fill
grestore
stroke
grestore
gsave
157.1 86.8 46.25 176.4 clipbox
188.486 176.4 m
193.617 176.4 l
193.617 177.123 l
188.486 177.123 l
cl
gsave
0.000 0.000 1.000 setrgbcolor
fill
grestore
stroke
grestore
gsave
157.1 86.8 46.25 176.4 clipbox
193.617 176.4 m
198.749 176.4 l
198.749 177.847 l
193.617 177.847 l
cl
gsave
0.000 0.000 1.000 setrgbcolor
fill
grestore
stroke
grestore
1 setlinejoin
2 setlinecap
1.000 0.000 0.000 setrgbcolor
gsave
157.1 86.8 46.25 176.4 clipbox
121.388 176.4 m
121.388 250.903 l
stroke
grestore
0 setlinejoin
0.000 setgray
gsave
46.2516 263.2 m
203.337 263.2 l
stroke
grestore
gsave
203.337 176.4 m
203.337 263.2 l
stroke
grestore
gsave
46.2516 176.4 m
203.337 176.4 l
stroke
grestore
gsave
46.2516 176.4 m
46.2516 263.2 l
stroke
grestore
0.500 setlinewidth
1 setlinejoin
0 setlinecap
gsave
/o {
gsave
newpath
translate
0.5 setlinewidth
1 setlinejoin
0 setlinecap
0 0 m
0 4 l
gsave
0.000 setgray
fill
grestore
stroke
grestore
} bind def
46.2516 176.4 o
grestore
gsave
/o {
gsave
newpath
translate
0.5 setlinewidth
1 setlinejoin
0 setlinecap
0 0 m
0 -4 l
gsave
0.000 setgray
fill
grestore
stroke
grestore
} bind def
46.2516 263.2 o
grestore
/BitstreamVeraSans-Roman findfont
10.000 scalefont
setfont
gsave
34.954687 164.806250 translate
0.000000 rotate
0.000000 0.000000 m /minus glyphshow
8.378906 0.000000 m /zero glyphshow
14.741211 0.000000 m /period glyphshow
17.919922 0.000000 m /six glyphshow
grestore
gsave
/o {
gsave
newpath
translate
0.5 setlinewidth
1 setlinejoin
0 setlinecap
0 0 m
0 4 l
gsave
0.000 setgray
fill
grestore
stroke
grestore
} bind def
98.6133 176.4 o
grestore
gsave
/o {
gsave
newpath
translate
0.5 setlinewidth
1 setlinejoin
0 setlinecap
0 0 m
0 -4 l
gsave
0.000 setgray
fill
grestore
stroke
grestore
} bind def
98.6133 263.2 o
grestore
gsave
87.503906 164.806250 translate
0.000000 rotate
0.000000 0.000000 m /minus glyphshow
8.378906 0.000000 m /zero glyphshow
14.741211 0.000000 m /period glyphshow
17.919922 0.000000 m /two glyphshow
grestore
gsave
/o {
gsave
newpath
translate
0.5 setlinewidth
1 setlinejoin
0 setlinecap
0 0 m
0 4 l
gsave
0.000 setgray
fill
grestore
stroke
grestore
} bind def
150.975 176.4 o
grestore
gsave
/o {
gsave
newpath
translate
0.5 setlinewidth
1 setlinejoin
0 setlinecap
0 0 m
0 -4 l
gsave
0.000 setgray
fill
grestore
stroke
grestore
} bind def
150.975 263.2 o
grestore
gsave
143.850000 164.806250 translate
0.000000 rotate
0.000000 0.000000 m /zero glyphshow
6.362305 0.000000 m /period glyphshow
9.541016 0.000000 m /two glyphshow
grestore
gsave
/o {
gsave
newpath
translate
0.5 setlinewidth
1 setlinejoin
0 setlinecap
0 0 m
0 4 l
gsave
0.000 setgray
fill
grestore
stroke
grestore
} bind def
203.337 176.4 o
grestore
gsave
/o {
gsave
newpath
translate
0.5 setlinewidth
1 setlinejoin
0 setlinecap
0 0 m
0 -4 l
gsave
0.000 setgray
fill
grestore
stroke
grestore
} bind def
203.337 263.2 o
grestore
gsave
196.024219 164.806250 translate
0.000000 rotate
0.000000 0.000000 m /zero glyphshow
6.362305 0.000000 m /period glyphshow
9.541016 0.000000 m /six glyphshow
grestore
gsave
73.786328 150.134375 translate
0.000000 rotate
0.000000 0.000000 m /space glyphshow
3.178711 0.000000 m /W glyphshow
12.816406 0.000000 m /i glyphshow
15.594727 0.000000 m /n glyphshow
21.932617 0.000000 m /d glyphshow
28.280273 0.000000 m /space glyphshow
31.458984 0.000000 m /d glyphshow
37.806641 0.000000 m /i glyphshow
40.584961 0.000000 m /r glyphshow
44.446289 0.000000 m /e glyphshow
50.598633 0.000000 m /c glyphshow
56.096680 0.000000 m /t glyphshow
60.017578 0.000000 m /i glyphshow
62.795898 0.000000 m /o glyphshow
68.914062 0.000000 m /n glyphshow
75.251953 0.000000 m /space glyphshow
78.430664 0.000000 m /parenleft glyphshow
82.332031 0.000000 m /r glyphshow
86.443359 0.000000 m /a glyphshow
92.571289 0.000000 m /d glyphshow
98.918945 0.000000 m /parenright glyphshow
grestore
gsave
/o {
gsave
newpath
translate
0.5 setlinewidth
1 setlinejoin
0 setlinecap
0 0 m
4 0 l
gsave
0.000 setgray
fill
grestore
stroke
grestore
} bind def
46.2516 176.4 o
grestore
gsave
/o {
gsave
newpath
translate
0.5 setlinewidth
1 setlinejoin
0 setlinecap
0 0 m
-4 0 l
gsave
0.000 setgray
fill
grestore
stroke
grestore
} bind def
203.337 176.4 o
grestore
gsave
37.204688 173.642188 translate
0.000000 rotate
0.000000 0.000000 m /zero glyphshow
grestore
gsave
/o {
gsave
newpath
translate
0.5 setlinewidth
1 setlinejoin
0 setlinecap
0 0 m
4 0 l
gsave
0.000 setgray
fill
grestore
stroke
grestore
} bind def
46.2516 205.333 o
grestore
gsave
/o {
gsave
newpath
translate
0.5 setlinewidth
1 setlinejoin
0 setlinecap
0 0 m
-4 0 l
gsave
0.000 setgray
fill
grestore
stroke
grestore
} bind def
203.337 205.333 o
grestore
gsave
30.673438 202.575521 translate
0.000000 rotate
0.000000 0.000000 m /four glyphshow
6.362305 0.000000 m /zero glyphshow
grestore
gsave
/o {
gsave
newpath
translate
0.5 setlinewidth
1 setlinejoin
0 setlinecap
0 0 m
4 0 l
gsave
0.000 setgray
fill
grestore
stroke
grestore
} bind def
46.2516 234.267 o
grestore
gsave
/o {
gsave
newpath
translate
0.5 setlinewidth
1 setlinejoin
0 setlinecap
0 0 m
-4 0 l
gsave
0.000 setgray
fill
grestore
stroke
grestore
} bind def
203.337 234.267 o
grestore
gsave
30.876563 231.508854 translate
0.000000 rotate
0.000000 0.000000 m /eight glyphshow
6.362305 0.000000 m /zero glyphshow
grestore
gsave
/o {
gsave
newpath
translate
0.5 setlinewidth
1 setlinejoin
0 setlinecap
0 0 m
4 0 l
gsave
0.000 setgray
fill
grestore
stroke
grestore
} bind def
46.2516 263.2 o
grestore
gsave
/o {
gsave
newpath
translate
0.5 setlinewidth
1 setlinejoin
0 setlinecap
0 0 m
-4 0 l
gsave
0.000 setgray
fill
grestore
stroke
grestore
} bind def
203.337 263.2 o
grestore
gsave
24.923438 260.442188 translate
0.000000 rotate
0.000000 0.000000 m /one glyphshow
6.362305 0.000000 m /two glyphshow
12.724609 0.000000 m /zero glyphshow
grestore
gsave
17.845313 194.628125 translate
90.000000 rotate
0.000000 0.000000 m /F glyphshow
5.001953 0.000000 m /r glyphshow
8.863281 0.000000 m /e glyphshow
15.015625 0.000000 m /q glyphshow
21.363281 0.000000 m /u glyphshow
27.701172 0.000000 m /e glyphshow
33.853516 0.000000 m /n glyphshow
40.191406 0.000000 m /c glyphshow
45.689453 0.000000 m /y glyphshow
grestore
/BitstreamVeraSans-Roman findfont
12.000 scalefont
setfont
gsave
72.598828 268.200000 translate
0.000000 rotate
0.000000 0.000000 m /I glyphshow
3.539062 0.000000 m /n glyphshow
11.144531 0.000000 m /i glyphshow
14.478516 0.000000 m /t glyphshow
19.183594 0.000000 m /i glyphshow
22.517578 0.000000 m /a glyphshow
29.871094 0.000000 m /l glyphshow
33.205078 0.000000 m /space glyphshow
37.019531 0.000000 m /d glyphshow
44.636719 0.000000 m /i glyphshow
47.970703 0.000000 m /s glyphshow
54.222656 0.000000 m /t glyphshow
58.927734 0.000000 m /r glyphshow
63.861328 0.000000 m /i glyphshow
67.195312 0.000000 m /b glyphshow
74.812500 0.000000 m /u glyphshow
82.417969 0.000000 m /t glyphshow
87.123047 0.000000 m /i glyphshow
90.457031 0.000000 m /o glyphshow
97.798828 0.000000 m /n glyphshow
grestore
gsave
256.929 176.4 m
414.014 176.4 l
414.014 263.2 l
256.929 263.2 l
cl
1.000 setgray
fill
grestore
1.000 setlinewidth
0 setlinejoin
gsave
157.1 86.8 256.9 176.4 clipbox
149.294 176.4 m
154.012 176.4 l
154.012 177.02 l
149.294 177.02 l
cl
gsave
0.000 0.000 1.000 setrgbcolor
fill
grestore
stroke
grestore
gsave
157.1 86.8 256.9 176.4 clipbox
154.012 176.4 m
158.731 176.4 l
158.731 176.4 l
154.012 176.4 l
cl
gsave
0.000 0.000 1.000 setrgbcolor
fill
grestore
stroke
grestore
gsave
157.1 86.8 256.9 176.4 clipbox
158.731 176.4 m
163.449 176.4 l
163.449 176.4 l
158.731 176.4 l
cl
gsave
0.000 0.000 1.000 setrgbcolor
fill
grestore
stroke
grestore
gsave
157.1 86.8 256.9 176.4 clipbox
163.449 176.4 m
168.167 176.4 l
168.167 176.4 l
163.449 176.4 l
cl
gsave
0.000 0.000 1.000 setrgbcolor
fill
grestore
stroke
grestore
gsave
157.1 86.8 256.9 176.4 clipbox
168.167 176.4 m
172.886 176.4 l
172.886 176.4 l
168.167 176.4 l
cl
gsave
0.000 0.000 1.000 setrgbcolor
fill
grestore
stroke
grestore
gsave
157.1 86.8 256.9 176.4 clipbox
172.886 176.4 m
177.604 176.4 l
177.604 176.4 l
172.886 176.4 l
cl
gsave
0.000 0.000 1.000 setrgbcolor
fill
grestore
stroke
grestore
gsave
157.1 86.8 256.9 176.4 clipbox
177.604 176.4 m
182.323 176.4 l
182.323 176.4 l
177.604 176.4 l
cl
gsave
0.000 0.000 1.000 setrgbcolor
fill
grestore
stroke
grestore
gsave
157.1 86.8 256.9 176.4 clipbox
182.323 176.4 m
187.041 176.4 l
187.041 176.4 l
182.323 176.4 l
cl
gsave
0.000 0.000 1.000 setrgbcolor
fill
grestore
stroke
grestore
gsave
157.1 86.8 256.9 176.4 clipbox
187.041 176.4 m
191.759 176.4 l
191.759 176.4 l
187.041 176.4 l
cl
gsave
0.000 0.000 1.000 setrgbcolor
fill
grestore
stroke
grestore
gsave
157.1 86.8 256.9 176.4 clipbox
191.759 176.4 m
196.478 176.4 l
196.478 176.4 l
191.759 176.4 l
cl
gsave
0.000 0.000 1.000 setrgbcolor
fill
grestore
stroke
grestore
gsave
157.1 86.8 256.9 176.4 clipbox
196.478 176.4 m
201.196 176.4 l
201.196 176.4 l
196.478 176.4 l
cl
gsave
0.000 0.000 1.000 setrgbcolor
fill
grestore
stroke
grestore
gsave
157.1 86.8 256.9 176.4 clipbox
201.196 176.4 m
205.914 176.4 l
205.914 176.4 l
201.196 176.4 l
cl
gsave
0.000 0.000 1.000 setrgbcolor
fill
grestore
stroke
grestore
gsave
157.1 86.8 256.9 176.4 clipbox
205.914 176.4 m
210.633 176.4 l
210.633 176.4 l
205.914 176.4 l
cl
gsave
0.000 0.000 1.000 setrgbcolor
fill
grestore
stroke
grestore
gsave
157.1 86.8 256.9 176.4 clipbox
210.633 176.4 m
215.351 176.4 l
215.351 176.4 l
210.633 176.4 l
cl
gsave
0.000 0.000 1.000 setrgbcolor
fill
grestore
stroke
grestore
gsave
157.1 86.8 256.9 176.4 clipbox
215.351 176.4 m
220.069 176.4 l
220.069 176.4 l
215.351 176.4 l
cl
gsave
0.000 0.000 1.000 setrgbcolor
fill
grestore
stroke
grestore
gsave
157.1 86.8 256.9 176.4 clipbox
220.069 176.4 m
224.788 176.4 l
224.788 176.4 l
220.069 176.4 l
cl
gsave
0.000 0.000 1.000 setrgbcolor
fill
grestore
stroke
grestore
gsave
157.1 86.8 256.9 176.4 clipbox
224.788 176.4 m
229.506 176.4 l
229.506 177.02 l
224.788 177.02 l
cl
gsave
0.000 0.000 1.000 setrgbcolor
fill
grestore
stroke
grestore
gsave
157.1 86.8 256.9 176.4 clipbox
229.506 176.4 m
234.225 176.4 l
234.225 176.4 l
229.506 176.4 l
cl
gsave
0.000 0.000 1.000 setrgbcolor
fill
grestore
stroke
grestore
gsave
157.1 86.8 256.9 176.4 clipbox
234.225 176.4 m
238.943 176.4 l
238.943 176.4 l
234.225 176.4 l
cl
gsave
0.000 0.000 1.000 setrgbcolor
fill
grestore
stroke
grestore
gsave
157.1 86.8 256.9 176.4 clipbox
238.943 176.4 m
243.661 176.4 l
243.661 177.02 l
238.943 177.02 l
cl
gsave
0.000 0.000 1.000 setrgbcolor
fill
grestore
stroke
grestore
gsave
157.1 86.8 256.9 176.4 clipbox
243.661 176.4 m
248.38 176.4 l
248.38 177.02 l
243.661 177.02 l
cl
gsave
0.000 0.000 1.000 setrgbcolor
fill
grestore
stroke
grestore
gsave
157.1 86.8 256.9 176.4 clipbox
248.38 176.4 m
253.098 176.4 l
253.098 176.4 l
248.38 176.4 l
cl
gsave
0.000 0.000 1.000 setrgbcolor
fill
grestore
stroke
grestore
gsave
157.1 86.8 256.9 176.4 clipbox
253.098 176.4 m
257.816 176.4 l
257.816 176.4 l
253.098 176.4 l
cl
gsave
0.000 0.000 1.000 setrgbcolor
fill
grestore
stroke
grestore
gsave
157.1 86.8 256.9 176.4 clipbox
257.816 176.4 m
262.535 176.4 l
262.535 177.02 l
257.816 177.02 l
cl
gsave
0.000 0.000 1.000 setrgbcolor
fill
grestore
stroke
grestore
gsave
157.1 86.8 256.9 176.4 clipbox
262.535 176.4 m
267.253 176.4 l
267.253 177.64 l
262.535 177.64 l
cl
gsave
0.000 0.000 1.000 setrgbcolor
fill
grestore
stroke
grestore
gsave
157.1 86.8 256.9 176.4 clipbox
267.253 176.4 m
271.972 176.4 l
271.972 177.02 l
267.253 177.02 l
cl
gsave
0.000 0.000 1.000 setrgbcolor
fill
grestore
stroke
grestore
gsave
157.1 86.8 256.9 176.4 clipbox
271.972 176.4 m
276.69 176.4 l
276.69 176.4 l
271.972 176.4 l
cl
gsave
0.000 0.000 1.000 setrgbcolor
fill
grestore
stroke
grestore
gsave
157.1 86.8 256.9 176.4 clipbox
276.69 176.4 m
281.408 176.4 l
281.408 177.64 l
276.69 177.64 l
cl
gsave
0.000 0.000 1.000 setrgbcolor
fill
grestore
stroke
grestore
gsave
157.1 86.8 256.9 176.4 clipbox
281.408 176.4 m
286.127 176.4 l
286.127 177.64 l
281.408 177.64 l
cl
gsave
0.000 0.000 1.000 setrgbcolor
fill
grestore
stroke
grestore
gsave
157.1 86.8 256.9 176.4 clipbox
286.127 176.4 m
290.845 176.4 l
290.845 178.26 l
286.127 178.26 l
cl
gsave
0.000 0.000 1.000 setrgbcolor
fill
grestore
stroke
grestore
gsave
157.1 86.8 256.9 176.4 clipbox
290.845 176.4 m
295.563 176.4 l
295.563 177.64 l
290.845 177.64 l
cl
gsave
0.000 0.000 1.000 setrgbcolor
fill
grestore
stroke
grestore
gsave
157.1 86.8 256.9 176.4 clipbox
295.563 176.4 m
300.282 176.4 l
300.282 178.88 l
295.563 178.88 l
cl
gsave
0.000 0.000 1.000 setrgbcolor
fill
grestore
stroke
grestore
gsave
157.1 86.8 256.9 176.4 clipbox
300.282 176.4 m
305 176.4 l
305 180.12 l
300.282 180.12 l
cl
gsave
0.000 0.000 1.000 setrgbcolor
fill
grestore
stroke
grestore
gsave
157.1 86.8 256.9 176.4 clipbox
305 176.4 m
309.719 176.4 l
309.719 181.36 l
305 181.36 l
cl
gsave
0.000 0.000 1.000 setrgbcolor
fill
grestore
stroke
grestore
gsave
157.1 86.8 256.9 176.4 clipbox
309.719 176.4 m
314.437 176.4 l
314.437 198.72 l
309.719 198.72 l
cl
gsave
0.000 0.000 1.000 setrgbcolor
fill
grestore
stroke
grestore
gsave
157.1 86.8 256.9 176.4 clipbox
314.437 176.4 m
319.155 176.4 l
319.155 209.88 l
314.437 209.88 l
cl
gsave
0.000 0.000 1.000 setrgbcolor
fill
grestore
stroke
grestore
gsave
157.1 86.8 256.9 176.4 clipbox
319.155 176.4 m
323.874 176.4 l
323.874 237.16 l
319.155 237.16 l
cl
gsave
0.000 0.000 1.000 setrgbcolor
fill
grestore
stroke
grestore
gsave
157.1 86.8 256.9 176.4 clipbox
323.874 176.4 m
328.592 176.4 l
328.592 253.28 l
323.874 253.28 l
cl
gsave
0.000 0.000 1.000 setrgbcolor
fill
grestore
stroke
grestore
gsave
157.1 86.8 256.9 176.4 clipbox
328.592 176.4 m
333.31 176.4 l
333.31 252.66 l
328.592 252.66 l
cl
gsave
0.000 0.000 1.000 setrgbcolor
fill
grestore
stroke
grestore
gsave
157.1 86.8 256.9 176.4 clipbox
333.31 176.4 m
338.029 176.4 l
338.029 257 l
333.31 257 l
cl
gsave
0.000 0.000 1.000 setrgbcolor
fill
grestore
stroke
grestore
gsave
157.1 86.8 256.9 176.4 clipbox
338.029 176.4 m
342.747 176.4 l
342.747 247.08 l
338.029 247.08 l
cl
gsave
0.000 0.000 1.000 setrgbcolor
fill
grestore
stroke
grestore
gsave
157.1 86.8 256.9 176.4 clipbox
342.747 176.4 m
347.466 176.4 l
347.466 246.46 l
342.747 246.46 l
cl
gsave
0.000 0.000 1.000 setrgbcolor
fill
grestore
stroke
grestore
gsave
157.1 86.8 256.9 176.4 clipbox
347.466 176.4 m
352.184 176.4 l
352.184 212.36 l
347.466 212.36 l
cl
gsave
0.000 0.000 1.000 setrgbcolor
fill
grestore
stroke
grestore
gsave
157.1 86.8 256.9 176.4 clipbox
352.184 176.4 m
356.902 176.4 l
356.902 209.88 l
352.184 209.88 l
cl
gsave
0.000 0.000 1.000 setrgbcolor
fill
grestore
stroke
grestore
gsave
157.1 86.8 256.9 176.4 clipbox
356.902 176.4 m
361.621 176.4 l
361.621 199.34 l
356.902 199.34 l
cl
gsave
0.000 0.000 1.000 setrgbcolor
fill
grestore
stroke
grestore
gsave
157.1 86.8 256.9 176.4 clipbox
361.621 176.4 m
366.339 176.4 l
366.339 186.32 l
361.621 186.32 l
cl
gsave
0.000 0.000 1.000 setrgbcolor
fill
grestore
stroke
grestore
gsave
157.1 86.8 256.9 176.4 clipbox
366.339 176.4 m
371.057 176.4 l
371.057 180.12 l
366.339 180.12 l
cl
gsave
0.000 0.000 1.000 setrgbcolor
fill
grestore
stroke
grestore
gsave
157.1 86.8 256.9 176.4 clipbox
371.057 176.4 m
375.776 176.4 l
375.776 176.4 l
371.057 176.4 l
cl
gsave
0.000 0.000 1.000 setrgbcolor
fill
grestore
stroke
grestore
gsave
157.1 86.8 256.9 176.4 clipbox
375.776 176.4 m
380.494 176.4 l
380.494 176.4 l
375.776 176.4 l
cl
gsave
0.000 0.000 1.000 setrgbcolor
fill
grestore
stroke
grestore
gsave
157.1 86.8 256.9 176.4 clipbox
380.494 176.4 m
385.213 176.4 l
385.213 176.4 l
380.494 176.4 l
cl
gsave
0.000 0.000 1.000 setrgbcolor
fill
grestore
stroke
grestore
gsave
157.1 86.8 256.9 176.4 clipbox
385.213 176.4 m
389.931 176.4 l
389.931 176.4 l
385.213 176.4 l
cl
gsave
0.000 0.000 1.000 setrgbcolor
fill
grestore
stroke
grestore
gsave
157.1 86.8 256.9 176.4 clipbox
389.931 176.4 m
394.649 176.4 l
394.649 176.4 l
389.931 176.4 l
cl
gsave
0.000 0.000 1.000 setrgbcolor
fill
grestore
stroke
grestore
gsave
157.1 86.8 256.9 176.4 clipbox
394.649 176.4 m
399.368 176.4 l
399.368 176.4 l
394.649 176.4 l
cl
gsave
0.000 0.000 1.000 setrgbcolor
fill
grestore
stroke
grestore
gsave
157.1 86.8 256.9 176.4 clipbox
399.368 176.4 m
404.086 176.4 l
404.086 176.4 l
399.368 176.4 l
cl
gsave
0.000 0.000 1.000 setrgbcolor
fill
grestore
stroke
grestore
gsave
157.1 86.8 256.9 176.4 clipbox
404.086 176.4 m
408.804 176.4 l
408.804 176.4 l
404.086 176.4 l
cl
gsave
0.000 0.000 1.000 setrgbcolor
fill
grestore
stroke
grestore
gsave
157.1 86.8 256.9 176.4 clipbox
408.804 176.4 m
413.523 176.4 l
413.523 176.4 l
408.804 176.4 l
cl
gsave
0.000 0.000 1.000 setrgbcolor
fill
grestore
stroke
grestore
gsave
157.1 86.8 256.9 176.4 clipbox
413.523 176.4 m
418.241 176.4 l
418.241 176.4 l
413.523 176.4 l
cl
gsave
0.000 0.000 1.000 setrgbcolor
fill
grestore
stroke
grestore
gsave
157.1 86.8 256.9 176.4 clipbox
418.241 176.4 m
422.96 176.4 l
422.96 176.4 l
418.241 176.4 l
cl
gsave
0.000 0.000 1.000 setrgbcolor
fill
grestore
stroke
grestore
gsave
157.1 86.8 256.9 176.4 clipbox
422.96 176.4 m
427.678 176.4 l
427.678 176.4 l
422.96 176.4 l
cl
gsave
0.000 0.000 1.000 setrgbcolor
fill
grestore
stroke
grestore
gsave
157.1 86.8 256.9 176.4 clipbox
427.678 176.4 m
432.396 176.4 l
432.396 176.4 l
427.678 176.4 l
cl
gsave
0.000 0.000 1.000 setrgbcolor
fill
grestore
stroke
grestore
gsave
157.1 86.8 256.9 176.4 clipbox
432.396 176.4 m
437.115 176.4 l
437.115 176.4 l
432.396 176.4 l
cl
gsave
0.000 0.000 1.000 setrgbcolor
fill
grestore
stroke
grestore
gsave
157.1 86.8 256.9 176.4 clipbox
437.115 176.4 m
441.833 176.4 l
441.833 176.4 l
437.115 176.4 l
cl
gsave
0.000 0.000 1.000 setrgbcolor
fill
grestore
stroke
grestore
gsave
157.1 86.8 256.9 176.4 clipbox
441.833 176.4 m
446.551 176.4 l
446.551 176.4 l
441.833 176.4 l
cl
gsave
0.000 0.000 1.000 setrgbcolor
fill
grestore
stroke
grestore
gsave
157.1 86.8 256.9 176.4 clipbox
446.551 176.4 m
451.27 176.4 l
451.27 176.4 l
446.551 176.4 l
cl
gsave
0.000 0.000 1.000 setrgbcolor
fill
grestore
stroke
grestore
gsave
157.1 86.8 256.9 176.4 clipbox
451.27 176.4 m
455.988 176.4 l
455.988 176.4 l
451.27 176.4 l
cl
gsave
0.000 0.000 1.000 setrgbcolor
fill
grestore
stroke
grestore
gsave
157.1 86.8 256.9 176.4 clipbox
455.988 176.4 m
460.707 176.4 l
460.707 176.4 l
455.988 176.4 l
cl
gsave
0.000 0.000 1.000 setrgbcolor
fill
grestore
stroke
grestore
gsave
157.1 86.8 256.9 176.4 clipbox
460.707 176.4 m
465.425 176.4 l
465.425 176.4 l
460.707 176.4 l
cl
gsave
0.000 0.000 1.000 setrgbcolor
fill
grestore
stroke
grestore
gsave
157.1 86.8 256.9 176.4 clipbox
465.425 176.4 m
470.143 176.4 l
470.143 176.4 l
465.425 176.4 l
cl
gsave
0.000 0.000 1.000 setrgbcolor
fill
grestore
stroke
grestore
gsave
157.1 86.8 256.9 176.4 clipbox
470.143 176.4 m
474.862 176.4 l
474.862 176.4 l
470.143 176.4 l
cl
gsave
0.000 0.000 1.000 setrgbcolor
fill
grestore
stroke
grestore
gsave
157.1 86.8 256.9 176.4 clipbox
474.862 176.4 m
479.58 176.4 l
479.58 176.4 l
474.862 176.4 l
cl
gsave
0.000 0.000 1.000 setrgbcolor
fill
grestore
stroke
grestore
gsave
157.1 86.8 256.9 176.4 clipbox
479.58 176.4 m
484.298 176.4 l
484.298 177.02 l
479.58 177.02 l
cl
gsave
0.000 0.000 1.000 setrgbcolor
fill
grestore
stroke
grestore
gsave
157.1 86.8 256.9 176.4 clipbox
484.298 176.4 m
489.017 176.4 l
489.017 176.4 l
484.298 176.4 l
cl
gsave
0.000 0.000 1.000 setrgbcolor
fill
grestore
stroke
grestore
gsave
157.1 86.8 256.9 176.4 clipbox
489.017 176.4 m
493.735 176.4 l
493.735 176.4 l
489.017 176.4 l
cl
gsave
0.000 0.000 1.000 setrgbcolor
fill
grestore
stroke
grestore
gsave
157.1 86.8 256.9 176.4 clipbox
493.735 176.4 m
498.453 176.4 l
498.453 176.4 l
493.735 176.4 l
cl
gsave
0.000 0.000 1.000 setrgbcolor
fill
grestore
stroke
grestore
gsave
157.1 86.8 256.9 176.4 clipbox
498.453 176.4 m
503.172 176.4 l
503.172 176.4 l
498.453 176.4 l
cl
gsave
0.000 0.000 1.000 setrgbcolor
fill
grestore
stroke
grestore
gsave
157.1 86.8 256.9 176.4 clipbox
503.172 176.4 m
507.89 176.4 l
507.89 176.4 l
503.172 176.4 l
cl
gsave
0.000 0.000 1.000 setrgbcolor
fill
grestore
stroke
grestore
gsave
157.1 86.8 256.9 176.4 clipbox
507.89 176.4 m
512.609 176.4 l
512.609 176.4 l
507.89 176.4 l
cl
gsave
0.000 0.000 1.000 setrgbcolor
fill
grestore
stroke
grestore
gsave
157.1 86.8 256.9 176.4 clipbox
512.609 176.4 m
517.327 176.4 l
517.327 176.4 l
512.609 176.4 l
cl
gsave
0.000 0.000 1.000 setrgbcolor
fill
grestore
stroke
grestore
gsave
157.1 86.8 256.9 176.4 clipbox
517.327 176.4 m
522.045 176.4 l
522.045 176.4 l
517.327 176.4 l
cl
gsave
0.000 0.000 1.000 setrgbcolor
fill
grestore
stroke
grestore
gsave
157.1 86.8 256.9 176.4 clipbox
522.045 176.4 m
526.764 176.4 l
526.764 176.4 l
522.045 176.4 l
cl
gsave
0.000 0.000 1.000 setrgbcolor
fill
grestore
stroke
grestore
gsave
157.1 86.8 256.9 176.4 clipbox
526.764 176.4 m
531.482 176.4 l
531.482 176.4 l
526.764 176.4 l
cl
gsave
0.000 0.000 1.000 setrgbcolor
fill
grestore
stroke
grestore
gsave
157.1 86.8 256.9 176.4 clipbox
531.482 176.4 m
536.2 176.4 l
536.2 176.4 l
531.482 176.4 l
cl
gsave
0.000 0.000 1.000 setrgbcolor
fill
grestore
stroke
grestore
gsave
157.1 86.8 256.9 176.4 clipbox
536.2 176.4 m
540.919 176.4 l
540.919 176.4 l
536.2 176.4 l
cl
gsave
0.000 0.000 1.000 setrgbcolor
fill
grestore
stroke
grestore
gsave
157.1 86.8 256.9 176.4 clipbox
540.919 176.4 m
545.637 176.4 l
545.637 176.4 l
540.919 176.4 l
cl
gsave
0.000 0.000 1.000 setrgbcolor
fill
grestore
stroke
grestore
gsave
157.1 86.8 256.9 176.4 clipbox
545.637 176.4 m
550.356 176.4 l
550.356 176.4 l
545.637 176.4 l
cl
gsave
0.000 0.000 1.000 setrgbcolor
fill
grestore
stroke
grestore
gsave
157.1 86.8 256.9 176.4 clipbox
550.356 176.4 m
555.074 176.4 l
555.074 176.4 l
550.356 176.4 l
cl
gsave
0.000 0.000 1.000 setrgbcolor
fill
grestore
stroke
grestore
gsave
157.1 86.8 256.9 176.4 clipbox
555.074 176.4 m
559.792 176.4 l
559.792 176.4 l
555.074 176.4 l
cl
gsave
0.000 0.000 1.000 setrgbcolor
fill
grestore
stroke
grestore
gsave
157.1 86.8 256.9 176.4 clipbox
559.792 176.4 m
564.511 176.4 l
564.511 176.4 l
559.792 176.4 l
cl
gsave
0.000 0.000 1.000 setrgbcolor
fill
grestore
stroke
grestore
gsave
157.1 86.8 256.9 176.4 clipbox
564.511 176.4 m
569.229 176.4 l
569.229 176.4 l
564.511 176.4 l
cl
gsave
0.000 0.000 1.000 setrgbcolor
fill
grestore
stroke
grestore
gsave
157.1 86.8 256.9 176.4 clipbox
569.229 176.4 m
573.947 176.4 l
573.947 176.4 l
569.229 176.4 l
cl
gsave
0.000 0.000 1.000 setrgbcolor
fill
grestore
stroke
grestore
gsave
157.1 86.8 256.9 176.4 clipbox
573.947 176.4 m
578.666 176.4 l
578.666 176.4 l
573.947 176.4 l
cl
gsave
0.000 0.000 1.000 setrgbcolor
fill
grestore
stroke
grestore
gsave
157.1 86.8 256.9 176.4 clipbox
578.666 176.4 m
583.384 176.4 l
583.384 176.4 l
578.666 176.4 l
cl
gsave
0.000 0.000 1.000 setrgbcolor
fill
grestore
stroke
grestore
gsave
157.1 86.8 256.9 176.4 clipbox
583.384 176.4 m
588.103 176.4 l
588.103 176.4 l
583.384 176.4 l
cl
gsave
0.000 0.000 1.000 setrgbcolor
fill
grestore
stroke
grestore
gsave
157.1 86.8 256.9 176.4 clipbox
588.103 176.4 m
592.821 176.4 l
592.821 176.4 l
588.103 176.4 l
cl
gsave
0.000 0.000 1.000 setrgbcolor
fill
grestore
stroke
grestore
gsave
157.1 86.8 256.9 176.4 clipbox
592.821 176.4 m
597.539 176.4 l
597.539 176.4 l
592.821 176.4 l
cl
gsave
0.000 0.000 1.000 setrgbcolor
fill
grestore
stroke
grestore
gsave
157.1 86.8 256.9 176.4 clipbox
597.539 176.4 m
602.258 176.4 l
602.258 176.4 l
597.539 176.4 l
cl
gsave
0.000 0.000 1.000 setrgbcolor
fill
grestore
stroke
grestore
gsave
157.1 86.8 256.9 176.4 clipbox
602.258 176.4 m
606.976 176.4 l
606.976 176.4 l
602.258 176.4 l
cl
gsave
0.000 0.000 1.000 setrgbcolor
fill
grestore
stroke
grestore
gsave
157.1 86.8 256.9 176.4 clipbox
606.976 176.4 m
611.694 176.4 l
611.694 176.4 l
606.976 176.4 l
cl
gsave
0.000 0.000 1.000 setrgbcolor
fill
grestore
stroke
grestore
gsave
157.1 86.8 256.9 176.4 clipbox
611.694 176.4 m
616.413 176.4 l
616.413 176.4 l
611.694 176.4 l
cl
gsave
0.000 0.000 1.000 setrgbcolor
fill
grestore
stroke
grestore
gsave
157.1 86.8 256.9 176.4 clipbox
616.413 176.4 m
621.131 176.4 l
621.131 177.02 l
616.413 177.02 l
cl
gsave
0.000 0.000 1.000 setrgbcolor
fill
grestore
stroke
grestore
1 setlinejoin
2 setlinecap
1.000 0.000 0.000 setrgbcolor
gsave
157.1 86.8 256.9 176.4 clipbox
348.026 176.4 m
348.026 257 l
stroke
grestore
0 setlinejoin
0.000 setgray
gsave
256.929 263.2 m
414.014 263.2 l
stroke
grestore
gsave
414.014 176.4 m
414.014 263.2 l
stroke
grestore
gsave
256.929 176.4 m
414.014 176.4 l
stroke
grestore
gsave
256.929 176.4 m
256.929 263.2 l
stroke
grestore
0.500 setlinewidth
1 setlinejoin
0 setlinecap
gsave
/o {
gsave
newpath
translate
0.5 setlinewidth
1 setlinejoin
0 setlinecap
0 0 m
0 4 l
gsave
0.000 setgray
fill
grestore
stroke
grestore
} bind def
256.929 176.4 o
grestore
gsave
/o {
gsave
newpath
translate
0.5 setlinewidth
1 setlinejoin
0 setlinecap
0 0 m
0 -4 l
gsave
0.000 setgray
fill
grestore
stroke
grestore
} bind def
256.929 263.2 o
grestore
/BitstreamVeraSans-Roman findfont
10.000 scalefont
setfont
gsave
245.819531 164.806250 translate
0.000000 rotate
0.000000 0.000000 m /minus glyphshow
8.378906 0.000000 m /zero glyphshow
14.741211 0.000000 m /period glyphshow
17.919922 0.000000 m /two glyphshow
grestore
gsave
/o {
gsave
newpath
translate
0.5 setlinewidth
1 setlinejoin
0 setlinecap
0 0 m
0 4 l
gsave
0.000 setgray
fill
grestore
stroke
grestore
} bind def
309.291 176.4 o
grestore
gsave
/o {
gsave
newpath
translate
0.5 setlinewidth
1 setlinejoin
0 setlinecap
0 0 m
0 -4 l
gsave
0.000 setgray
fill
grestore
stroke
grestore
} bind def
309.291 263.2 o
grestore
gsave
298.142187 164.806250 translate
0.000000 rotate
0.000000 0.000000 m /minus glyphshow
8.378906 0.000000 m /zero glyphshow
14.741211 0.000000 m /period glyphshow
17.919922 0.000000 m /one glyphshow
grestore
gsave
/o {
gsave
newpath
translate
0.5 setlinewidth
1 setlinejoin
0 setlinecap
0 0 m
0 4 l
gsave
0.000 setgray
fill
grestore
stroke
grestore
} bind def
361.652 176.4 o
grestore
gsave
/o {
gsave
newpath
translate
0.5 setlinewidth
1 setlinejoin
0 setlinecap
0 0 m
0 -4 l
gsave
0.000 setgray
fill
grestore
stroke
grestore
} bind def
361.652 263.2 o
grestore
gsave
354.355469 164.806250 translate
0.000000 rotate
0.000000 0.000000 m /zero glyphshow
6.362305 0.000000 m /period glyphshow
9.541016 0.000000 m /zero glyphshow
grestore
gsave
/o {
gsave
newpath
translate
0.5 setlinewidth
1 setlinejoin
0 setlinecap
0 0 m
0 4 l
gsave
0.000 setgray
fill
grestore
stroke
grestore
} bind def
414.014 176.4 o
grestore
gsave
/o {
gsave
newpath
translate
0.5 setlinewidth
1 setlinejoin
0 setlinecap
0 0 m
0 -4 l
gsave
0.000 setgray
fill
grestore
stroke
grestore
} bind def
414.014 263.2 o
grestore
gsave
406.850000 164.806250 translate
0.000000 rotate
0.000000 0.000000 m /zero glyphshow
6.362305 0.000000 m /period glyphshow
9.541016 0.000000 m /one glyphshow
grestore
gsave
284.463672 150.134375 translate
0.000000 rotate
0.000000 0.000000 m /space glyphshow
3.178711 0.000000 m /W glyphshow
12.816406 0.000000 m /i glyphshow
15.594727 0.000000 m /n glyphshow
21.932617 0.000000 m /d glyphshow
28.280273 0.000000 m /space glyphshow
31.458984 0.000000 m /d glyphshow
37.806641 0.000000 m /i glyphshow
40.584961 0.000000 m /r glyphshow
44.446289 0.000000 m /e glyphshow
50.598633 0.000000 m /c glyphshow
56.096680 0.000000 m /t glyphshow
60.017578 0.000000 m /i glyphshow
62.795898 0.000000 m /o glyphshow
68.914062 0.000000 m /n glyphshow
75.251953 0.000000 m /space glyphshow
78.430664 0.000000 m /parenleft glyphshow
82.332031 0.000000 m /r glyphshow
86.443359 0.000000 m /a glyphshow
92.571289 0.000000 m /d glyphshow
98.918945 0.000000 m /parenright glyphshow
grestore
gsave
/o {
gsave
newpath
translate
0.5 setlinewidth
1 setlinejoin
0 setlinecap
0 0 m
4 0 l
gsave
0.000 setgray
fill
grestore
stroke
grestore
} bind def
256.929 176.4 o
grestore
gsave
/o {
gsave
newpath
translate
0.5 setlinewidth
1 setlinejoin
0 setlinecap
0 0 m
-4 0 l
gsave
0.000 setgray
fill
grestore
stroke
grestore
} bind def
414.014 176.4 o
grestore
gsave
247.882031 173.642188 translate
0.000000 rotate
0.000000 0.000000 m /zero glyphshow
grestore
gsave
/o {
gsave
newpath
translate
0.5 setlinewidth
1 setlinejoin
0 setlinecap
0 0 m
4 0 l
gsave
0.000 setgray
fill
grestore
stroke
grestore
} bind def
256.929 201.2 o
grestore
gsave
/o {
gsave
newpath
translate
0.5 setlinewidth
1 setlinejoin
0 setlinecap
0 0 m
-4 0 l
gsave
0.000 setgray
fill
grestore
stroke
grestore
} bind def
414.014 201.2 o
grestore
gsave
241.350781 198.442188 translate
0.000000 rotate
0.000000 0.000000 m /four glyphshow
6.362305 0.000000 m /zero glyphshow
grestore
gsave
/o {
gsave
newpath
translate
0.5 setlinewidth
1 setlinejoin
0 setlinecap
0 0 m
4 0 l
gsave
0.000 setgray
fill
grestore
stroke
grestore
} bind def
256.929 226 o
grestore
gsave
/o {
gsave
newpath
translate
0.5 setlinewidth
1 setlinejoin
0 setlinecap
0 0 m
-4 0 l
gsave
0.000 setgray
fill
grestore
stroke
grestore
} bind def
414.014 226 o
grestore
gsave
241.553906 223.242188 translate
0.000000 rotate
0.000000 0.000000 m /eight glyphshow
6.362305 0.000000 m /zero glyphshow
grestore
gsave
/o {
gsave
newpath
translate
0.5 setlinewidth
1 setlinejoin
0 setlinecap
0 0 m
4 0 l
gsave
0.000 setgray
fill
grestore
stroke
grestore
} bind def
256.929 250.8 o
grestore
gsave
/o {
gsave
newpath
translate
0.5 setlinewidth
1 setlinejoin
0 setlinecap
0 0 m
-4 0 l
gsave
0.000 setgray
fill
grestore
stroke
grestore
} bind def
414.014 250.8 o
grestore
gsave
235.600781 248.042188 translate
0.000000 rotate
0.000000 0.000000 m /one glyphshow
6.362305 0.000000 m /two glyphshow
12.724609 0.000000 m /zero glyphshow
grestore
gsave
228.522656 194.628125 translate
90.000000 rotate
0.000000 0.000000 m /F glyphshow
5.001953 0.000000 m /r glyphshow
8.863281 0.000000 m /e glyphshow
15.015625 0.000000 m /q glyphshow
21.363281 0.000000 m /u glyphshow
27.701172 0.000000 m /e glyphshow
33.853516 0.000000 m /n glyphshow
40.191406 0.000000 m /c glyphshow
45.689453 0.000000 m /y glyphshow
grestore
/BitstreamVeraSans-Roman findfont
12.000 scalefont
setfont
gsave
303.924609 268.200000 translate
0.000000 rotate
0.000000 0.000000 m /t glyphshow
4.705078 0.000000 m /space glyphshow
8.519531 0.000000 m /equal glyphshow
18.574219 0.000000 m /space glyphshow
22.388672 0.000000 m /one glyphshow
30.023438 0.000000 m /zero glyphshow
37.658203 0.000000 m /space glyphshow
41.472656 0.000000 m /m glyphshow
53.162109 0.000000 m /i glyphshow
56.496094 0.000000 m /n glyphshow
grestore
gsave
46.2516 37.8 m
203.337 37.8 l
203.337 124.6 l
46.2516 124.6 l
cl
1.000 setgray
fill
grestore
1.000 setlinewidth
0 setlinejoin
gsave
157.1 86.8 46.25 37.8 clipbox
134.288 37.8 m
134.404 37.8 l
134.404 43.5867 l
134.288 43.5867 l
cl
gsave
0.000 0.000 1.000 setrgbcolor
fill
grestore
stroke
grestore
gsave
157.1 86.8 46.25 37.8 clipbox
134.404 37.8 m
134.521 37.8 l
134.521 39.2467 l
134.404 39.2467 l
cl
gsave
0.000 0.000 1.000 setrgbcolor
fill
grestore
stroke
grestore
gsave
157.1 86.8 46.25 37.8 clipbox
134.521 37.8 m
134.638 37.8 l
134.638 37.8 l
134.521 37.8 l
cl
gsave
0.000 0.000 1.000 setrgbcolor
fill
grestore
stroke
grestore
gsave
157.1 86.8 46.25 37.8 clipbox
134.638 37.8 m
134.754 37.8 l
134.754 39.2467 l
134.638 39.2467 l
cl
gsave
0.000 0.000 1.000 setrgbcolor
fill
grestore
stroke
grestore
gsave
157.1 86.8 46.25 37.8 clipbox
134.754 37.8 m
134.871 37.8 l
134.871 40.6933 l
134.754 40.6933 l
cl
gsave
0.000 0.000 1.000 setrgbcolor
fill
grestore
stroke
grestore
gsave
157.1 86.8 46.25 37.8 clipbox
134.871 37.8 m
134.987 37.8 l
134.987 39.2467 l
134.871 39.2467 l
cl
gsave
0.000 0.000 1.000 setrgbcolor
fill
grestore
stroke
grestore
gsave
157.1 86.8 46.25 37.8 clipbox
134.987 37.8 m
135.104 37.8 l
135.104 37.8 l
134.987 37.8 l
cl
gsave
0.000 0.000 1.000 setrgbcolor
fill
grestore
stroke
grestore
gsave
157.1 86.8 46.25 37.8 clipbox
135.104 37.8 m
135.22 37.8 l
135.22 47.9267 l
135.104 47.9267 l
cl
gsave
0.000 0.000 1.000 setrgbcolor
fill
grestore
stroke
grestore
gsave
157.1 86.8 46.25 37.8 clipbox
135.22 37.8 m
135.337 37.8 l
135.337 40.6933 l
135.22 40.6933 l
cl
gsave
0.000 0.000 1.000 setrgbcolor
fill
grestore
stroke
grestore
gsave
157.1 86.8 46.25 37.8 clipbox
135.337 37.8 m
135.454 37.8 l
135.454 39.2467 l
135.337 39.2467 l
cl
gsave
0.000 0.000 1.000 setrgbcolor
fill
grestore
stroke
grestore
gsave
157.1 86.8 46.25 37.8 clipbox
135.454 37.8 m
135.57 37.8 l
135.57 45.0333 l
135.454 45.0333 l
cl
gsave
0.000 0.000 1.000 setrgbcolor
fill
grestore
stroke
grestore
gsave
157.1 86.8 46.25 37.8 clipbox
135.57 37.8 m
135.687 37.8 l
135.687 52.2667 l
135.57 52.2667 l
cl
gsave
0.000 0.000 1.000 setrgbcolor
fill
grestore
stroke
grestore
gsave
157.1 86.8 46.25 37.8 clipbox
135.687 37.8 m
135.803 37.8 l
135.803 50.82 l
135.687 50.82 l
cl
gsave
0.000 0.000 1.000 setrgbcolor
fill
grestore
stroke
grestore
gsave
157.1 86.8 46.25 37.8 clipbox
135.803 37.8 m
135.92 37.8 l
135.92 65.2867 l
135.803 65.2867 l
cl
gsave
0.000 0.000 1.000 setrgbcolor
fill
grestore
stroke
grestore
gsave
157.1 86.8 46.25 37.8 clipbox
135.92 37.8 m
136.036 37.8 l
136.036 63.84 l
135.92 63.84 l
cl
gsave
0.000 0.000 1.000 setrgbcolor
fill
grestore
stroke
grestore
gsave
157.1 86.8 46.25 37.8 clipbox
136.036 37.8 m
136.153 37.8 l
136.153 73.9667 l
136.036 73.9667 l
cl
gsave
0.000 0.000 1.000 setrgbcolor
fill
grestore
stroke
grestore
gsave
157.1 86.8 46.25 37.8 clipbox
136.153 37.8 m
136.27 37.8 l
136.27 81.2 l
136.153 81.2 l
cl
gsave
0.000 0.000 1.000 setrgbcolor
fill
grestore
stroke
grestore
gsave
157.1 86.8 46.25 37.8 clipbox
136.27 37.8 m
136.386 37.8 l
136.386 79.7533 l
136.27 79.7533 l
cl
gsave
0.000 0.000 1.000 setrgbcolor
fill
grestore
stroke
grestore
gsave
157.1 86.8 46.25 37.8 clipbox
136.386 37.8 m
136.503 37.8 l
136.503 75.4133 l
136.386 75.4133 l
cl
gsave
0.000 0.000 1.000 setrgbcolor
fill
grestore
stroke
grestore
gsave
157.1 86.8 46.25 37.8 clipbox
136.503 37.8 m
136.619 37.8 l
136.619 84.0933 l
136.503 84.0933 l
cl
gsave
0.000 0.000 1.000 setrgbcolor
fill
grestore
stroke
grestore
gsave
157.1 86.8 46.25 37.8 clipbox
136.619 37.8 m
136.736 37.8 l
136.736 91.3267 l
136.619 91.3267 l
cl
gsave
0.000 0.000 1.000 setrgbcolor
fill
grestore
stroke
grestore
gsave
157.1 86.8 46.25 37.8 clipbox
136.736 37.8 m
136.852 37.8 l
136.852 86.9867 l
136.736 86.9867 l
cl
gsave
0.000 0.000 1.000 setrgbcolor
fill
grestore
stroke
grestore
gsave
157.1 86.8 46.25 37.8 clipbox
136.852 37.8 m
136.969 37.8 l
136.969 79.7533 l
136.852 79.7533 l
cl
gsave
0.000 0.000 1.000 setrgbcolor
fill
grestore
stroke
grestore
gsave
157.1 86.8 46.25 37.8 clipbox
136.969 37.8 m
137.086 37.8 l
137.086 84.0933 l
136.969 84.0933 l
cl
gsave
0.000 0.000 1.000 setrgbcolor
fill
grestore
stroke
grestore
gsave
157.1 86.8 46.25 37.8 clipbox
137.086 37.8 m
137.202 37.8 l
137.202 108.687 l
137.086 108.687 l
cl
gsave
0.000 0.000 1.000 setrgbcolor
fill
grestore
stroke
grestore
gsave
157.1 86.8 46.25 37.8 clipbox
137.202 37.8 m
137.319 37.8 l
137.319 92.7733 l
137.202 92.7733 l
cl
gsave
0.000 0.000 1.000 setrgbcolor
fill
grestore
stroke
grestore
gsave
157.1 86.8 46.25 37.8 clipbox
137.319 37.8 m
137.435 37.8 l
137.435 102.9 l
137.319 102.9 l
cl
gsave
0.000 0.000 1.000 setrgbcolor
fill
grestore
stroke
grestore
gsave
157.1 86.8 46.25 37.8 clipbox
137.435 37.8 m
137.552 37.8 l
137.552 94.22 l
137.435 94.22 l
cl
gsave
0.000 0.000 1.000 setrgbcolor
fill
grestore
stroke
grestore
gsave
157.1 86.8 46.25 37.8 clipbox
137.552 37.8 m
137.668 37.8 l
137.668 110.133 l
137.552 110.133 l
cl
gsave
0.000 0.000 1.000 setrgbcolor
fill
grestore
stroke
grestore
gsave
157.1 86.8 46.25 37.8 clipbox
137.668 37.8 m
137.785 37.8 l
137.785 84.0933 l
137.668 84.0933 l
cl
gsave
0.000 0.000 1.000 setrgbcolor
fill
grestore
stroke
grestore
gsave
157.1 86.8 46.25 37.8 clipbox
137.785 37.8 m
137.902 37.8 l
137.902 98.56 l
137.785 98.56 l
cl
gsave
0.000 0.000 1.000 setrgbcolor
fill
grestore
stroke
grestore
gsave
157.1 86.8 46.25 37.8 clipbox
137.902 37.8 m
138.018 37.8 l
138.018 91.3267 l
137.902 91.3267 l
cl
gsave
0.000 0.000 1.000 setrgbcolor
fill
grestore
stroke
grestore
gsave
157.1 86.8 46.25 37.8 clipbox
138.018 37.8 m
138.135 37.8 l
138.135 88.4333 l
138.018 88.4333 l
cl
gsave
0.000 0.000 1.000 setrgbcolor
fill
grestore
stroke
grestore
gsave
157.1 86.8 46.25 37.8 clipbox
138.135 37.8 m
138.251 37.8 l
138.251 85.54 l
138.135 85.54 l
cl
gsave
0.000 0.000 1.000 setrgbcolor
fill
grestore
stroke
grestore
gsave
157.1 86.8 46.25 37.8 clipbox
138.251 37.8 m
138.368 37.8 l
138.368 79.7533 l
138.251 79.7533 l
cl
gsave
0.000 0.000 1.000 setrgbcolor
fill
grestore
stroke
grestore
gsave
157.1 86.8 46.25 37.8 clipbox
138.368 37.8 m
138.484 37.8 l
138.484 92.7733 l
138.368 92.7733 l
cl
gsave
0.000 0.000 1.000 setrgbcolor
fill
grestore
stroke
grestore
gsave
157.1 86.8 46.25 37.8 clipbox
138.484 37.8 m
138.601 37.8 l
138.601 84.0933 l
138.484 84.0933 l
cl
gsave
0.000 0.000 1.000 setrgbcolor
fill
grestore
stroke
grestore
gsave
157.1 86.8 46.25 37.8 clipbox
138.601 37.8 m
138.718 37.8 l
138.718 72.52 l
138.601 72.52 l
cl
gsave
0.000 0.000 1.000 setrgbcolor
fill
grestore
stroke
grestore
gsave
157.1 86.8 46.25 37.8 clipbox
138.718 37.8 m
138.834 37.8 l
138.834 58.0533 l
138.718 58.0533 l
cl
gsave
0.000 0.000 1.000 setrgbcolor
fill
grestore
stroke
grestore
gsave
157.1 86.8 46.25 37.8 clipbox
138.834 37.8 m
138.951 37.8 l
138.951 59.5 l
138.834 59.5 l
cl
gsave
0.000 0.000 1.000 setrgbcolor
fill
grestore
stroke
grestore
gsave
157.1 86.8 46.25 37.8 clipbox
138.951 37.8 m
139.067 37.8 l
139.067 66.7333 l
138.951 66.7333 l
cl
gsave
0.000 0.000 1.000 setrgbcolor
fill
grestore
stroke
grestore
gsave
157.1 86.8 46.25 37.8 clipbox
139.067 37.8 m
139.184 37.8 l
139.184 59.5 l
139.067 59.5 l
cl
gsave
0.000 0.000 1.000 setrgbcolor
fill
grestore
stroke
grestore
gsave
157.1 86.8 46.25 37.8 clipbox
139.184 37.8 m
139.3 37.8 l
139.3 53.7133 l
139.184 53.7133 l
cl
gsave
0.000 0.000 1.000 setrgbcolor
fill
grestore
stroke
grestore
gsave
157.1 86.8 46.25 37.8 clipbox
139.3 37.8 m
139.417 37.8 l
139.417 50.82 l
139.3 50.82 l
cl
gsave
0.000 0.000 1.000 setrgbcolor
fill
grestore
stroke
grestore
gsave
157.1 86.8 46.25 37.8 clipbox
139.417 37.8 m
139.533 37.8 l
139.533 50.82 l
139.417 50.82 l
cl
gsave
0.000 0.000 1.000 setrgbcolor
fill
grestore
stroke
grestore
gsave
157.1 86.8 46.25 37.8 clipbox
139.533 37.8 m
139.65 37.8 l
139.65 42.14 l
139.533 42.14 l
cl
gsave
0.000 0.000 1.000 setrgbcolor
fill
grestore
stroke
grestore
gsave
157.1 86.8 46.25 37.8 clipbox
139.65 37.8 m
139.767 37.8 l
139.767 43.5867 l
139.65 43.5867 l
cl
gsave
0.000 0.000 1.000 setrgbcolor
fill
grestore
stroke
grestore
gsave
157.1 86.8 46.25 37.8 clipbox
139.767 37.8 m
139.883 37.8 l
139.883 43.5867 l
139.767 43.5867 l
cl
gsave
0.000 0.000 1.000 setrgbcolor
fill
grestore
stroke
grestore
gsave
157.1 86.8 46.25 37.8 clipbox
139.883 37.8 m
140 37.8 l
140 42.14 l
139.883 42.14 l
cl
gsave
0.000 0.000 1.000 setrgbcolor
fill
grestore
stroke
grestore
gsave
157.1 86.8 46.25 37.8 clipbox
140 37.8 m
140.116 37.8 l
140.116 40.6933 l
140 40.6933 l
cl
gsave
0.000 0.000 1.000 setrgbcolor
fill
grestore
stroke
grestore
gsave
157.1 86.8 46.25 37.8 clipbox
140.116 37.8 m
140.233 37.8 l
140.233 45.0333 l
140.116 45.0333 l
cl
gsave
0.000 0.000 1.000 setrgbcolor
fill
grestore
stroke
grestore
gsave
157.1 86.8 46.25 37.8 clipbox
140.233 37.8 m
140.349 37.8 l
140.349 39.2467 l
140.233 39.2467 l
cl
gsave
0.000 0.000 1.000 setrgbcolor
fill
grestore
stroke
grestore
gsave
157.1 86.8 46.25 37.8 clipbox
140.349 37.8 m
140.466 37.8 l
140.466 37.8 l
140.349 37.8 l
cl
gsave
0.000 0.000 1.000 setrgbcolor
fill
grestore
stroke
grestore
gsave
157.1 86.8 46.25 37.8 clipbox
140.466 37.8 m
140.583 37.8 l
140.583 39.2467 l
140.466 39.2467 l
cl
gsave
0.000 0.000 1.000 setrgbcolor
fill
grestore
stroke
grestore
gsave
157.1 86.8 46.25 37.8 clipbox
140.583 37.8 m
140.699 37.8 l
140.699 40.6933 l
140.583 40.6933 l
cl
gsave
0.000 0.000 1.000 setrgbcolor
fill
grestore
stroke
grestore
gsave
157.1 86.8 46.25 37.8 clipbox
140.699 37.8 m
140.816 37.8 l
140.816 39.2467 l
140.699 39.2467 l
cl
gsave
0.000 0.000 1.000 setrgbcolor
fill
grestore
stroke
grestore
gsave
157.1 86.8 46.25 37.8 clipbox
140.816 37.8 m
140.932 37.8 l
140.932 39.2467 l
140.816 39.2467 l
cl
gsave
0.000 0.000 1.000 setrgbcolor
fill
grestore
stroke
grestore
gsave
157.1 86.8 46.25 37.8 clipbox
140.932 37.8 m
141.049 37.8 l
141.049 37.8 l
140.932 37.8 l
cl
gsave
0.000 0.000 1.000 setrgbcolor
fill
grestore
stroke
grestore
gsave
157.1 86.8 46.25 37.8 clipbox
141.049 37.8 m
141.165 37.8 l
141.165 39.2467 l
141.049 39.2467 l
cl
gsave
0.000 0.000 1.000 setrgbcolor
fill
grestore
stroke
grestore
gsave
157.1 86.8 46.25 37.8 clipbox
141.165 37.8 m
141.282 37.8 l
141.282 37.8 l
141.165 37.8 l
cl
gsave
0.000 0.000 1.000 setrgbcolor
fill
grestore
stroke
grestore
gsave
157.1 86.8 46.25 37.8 clipbox
141.282 37.8 m
141.399 37.8 l
141.399 37.8 l
141.282 37.8 l
cl
gsave
0.000 0.000 1.000 setrgbcolor
fill
grestore
stroke
grestore
gsave
157.1 86.8 46.25 37.8 clipbox
141.399 37.8 m
141.515 37.8 l
141.515 37.8 l
141.399 37.8 l
cl
gsave
0.000 0.000 1.000 setrgbcolor
fill
grestore
stroke
grestore
gsave
157.1 86.8 46.25 37.8 clipbox
141.515 37.8 m
141.632 37.8 l
141.632 37.8 l
141.515 37.8 l
cl
gsave
0.000 0.000 1.000 setrgbcolor
fill
grestore
stroke
grestore
gsave
157.1 86.8 46.25 37.8 clipbox
141.632 37.8 m
141.748 37.8 l
141.748 37.8 l
141.632 37.8 l
cl
gsave
0.000 0.000 1.000 setrgbcolor
fill
grestore
stroke
grestore
gsave
157.1 86.8 46.25 37.8 clipbox
141.748 37.8 m
141.865 37.8 l
141.865 37.8 l
141.748 37.8 l
cl
gsave
0.000 0.000 1.000 setrgbcolor
fill
grestore
stroke
grestore
gsave
157.1 86.8 46.25 37.8 clipbox
141.865 37.8 m
141.981 37.8 l
141.981 37.8 l
141.865 37.8 l
cl
gsave
0.000 0.000 1.000 setrgbcolor
fill
grestore
stroke
grestore
gsave
157.1 86.8 46.25 37.8 clipbox
141.981 37.8 m
142.098 37.8 l
142.098 37.8 l
141.981 37.8 l
cl
gsave
0.000 0.000 1.000 setrgbcolor
fill
grestore
stroke
grestore
gsave
157.1 86.8 46.25 37.8 clipbox
142.098 37.8 m
142.215 37.8 l
142.215 37.8 l
142.098 37.8 l
cl
gsave
0.000 0.000 1.000 setrgbcolor
fill
grestore
stroke
grestore
gsave
157.1 86.8 46.25 37.8 clipbox
142.215 37.8 m
142.331 37.8 l
142.331 37.8 l
142.215 37.8 l
cl
gsave
0.000 0.000 1.000 setrgbcolor
fill
grestore
stroke
grestore
gsave
157.1 86.8 46.25 37.8 clipbox
142.331 37.8 m
142.448 37.8 l
142.448 37.8 l
142.331 37.8 l
cl
gsave
0.000 0.000 1.000 setrgbcolor
fill
grestore
stroke
grestore
gsave
157.1 86.8 46.25 37.8 clipbox
142.448 37.8 m
142.564 37.8 l
142.564 37.8 l
142.448 37.8 l
cl
gsave
0.000 0.000 1.000 setrgbcolor
fill
grestore
stroke
grestore
gsave
157.1 86.8 46.25 37.8 clipbox
142.564 37.8 m
142.681 37.8 l
142.681 37.8 l
142.564 37.8 l
cl
gsave
0.000 0.000 1.000 setrgbcolor
fill
grestore
stroke
grestore
gsave
157.1 86.8 46.25 37.8 clipbox
142.681 37.8 m
142.797 37.8 l
142.797 37.8 l
142.681 37.8 l
cl
gsave
0.000 0.000 1.000 setrgbcolor
fill
grestore
stroke
grestore
gsave
157.1 86.8 46.25 37.8 clipbox
142.797 37.8 m
142.914 37.8 l
142.914 37.8 l
142.797 37.8 l
cl
gsave
0.000 0.000 1.000 setrgbcolor
fill
grestore
stroke
grestore
gsave
157.1 86.8 46.25 37.8 clipbox
142.914 37.8 m
143.031 37.8 l
143.031 37.8 l
142.914 37.8 l
cl
gsave
0.000 0.000 1.000 setrgbcolor
fill
grestore
stroke
grestore
gsave
157.1 86.8 46.25 37.8 clipbox
143.031 37.8 m
143.147 37.8 l
143.147 37.8 l
143.031 37.8 l
cl
gsave
0.000 0.000 1.000 setrgbcolor
fill
grestore
stroke
grestore
gsave
157.1 86.8 46.25 37.8 clipbox
143.147 37.8 m
143.264 37.8 l
143.264 37.8 l
143.147 37.8 l
cl
gsave
0.000 0.000 1.000 setrgbcolor
fill
grestore
stroke
grestore
gsave
157.1 86.8 46.25 37.8 clipbox
143.264 37.8 m
143.38 37.8 l
143.38 37.8 l
143.264 37.8 l
cl
gsave
0.000 0.000 1.000 setrgbcolor
fill
grestore
stroke
grestore
gsave
157.1 86.8 46.25 37.8 clipbox
143.38 37.8 m
143.497 37.8 l
143.497 39.2467 l
143.38 39.2467 l
cl
gsave
0.000 0.000 1.000 setrgbcolor
fill
grestore
stroke
grestore
gsave
157.1 86.8 46.25 37.8 clipbox
143.497 37.8 m
143.613 37.8 l
143.613 37.8 l
143.497 37.8 l
cl
gsave
0.000 0.000 1.000 setrgbcolor
fill
grestore
stroke
grestore
gsave
157.1 86.8 46.25 37.8 clipbox
143.613 37.8 m
143.73 37.8 l
143.73 37.8 l
143.613 37.8 l
cl
gsave
0.000 0.000 1.000 setrgbcolor
fill
grestore
stroke
grestore
gsave
157.1 86.8 46.25 37.8 clipbox
143.73 37.8 m
143.847 37.8 l
143.847 37.8 l
143.73 37.8 l
cl
gsave
0.000 0.000 1.000 setrgbcolor
fill
grestore
stroke
grestore
gsave
157.1 86.8 46.25 37.8 clipbox
143.847 37.8 m
143.963 37.8 l
143.963 37.8 l
143.847 37.8 l
cl
gsave
0.000 0.000 1.000 setrgbcolor
fill
grestore
stroke
grestore
gsave
157.1 86.8 46.25 37.8 clipbox
143.963 37.8 m
144.08 37.8 l
144.08 37.8 l
143.963 37.8 l
cl
gsave
0.000 0.000 1.000 setrgbcolor
fill
grestore
stroke
grestore
gsave
157.1 86.8 46.25 37.8 clipbox
144.08 37.8 m
144.196 37.8 l
144.196 37.8 l
144.08 37.8 l
cl
gsave
0.000 0.000 1.000 setrgbcolor
fill
grestore
stroke
grestore
gsave
157.1 86.8 46.25 37.8 clipbox
144.196 37.8 m
144.313 37.8 l
144.313 37.8 l
144.196 37.8 l
cl
gsave
0.000 0.000 1.000 setrgbcolor
fill
grestore
stroke
grestore
gsave
157.1 86.8 46.25 37.8 clipbox
144.313 37.8 m
144.429 37.8 l
144.429 37.8 l
144.313 37.8 l
cl
gsave
0.000 0.000 1.000 setrgbcolor
fill
grestore
stroke
grestore
gsave
157.1 86.8 46.25 37.8 clipbox
144.429 37.8 m
144.546 37.8 l
144.546 37.8 l
144.429 37.8 l
cl
gsave
0.000 0.000 1.000 setrgbcolor
fill
grestore
stroke
grestore
gsave
157.1 86.8 46.25 37.8 clipbox
144.546 37.8 m
144.663 37.8 l
144.663 37.8 l
144.546 37.8 l
cl
gsave
0.000 0.000 1.000 setrgbcolor
fill
grestore
stroke
grestore
gsave
157.1 86.8 46.25 37.8 clipbox
144.663 37.8 m
144.779 37.8 l
144.779 37.8 l
144.663 37.8 l
cl
gsave
0.000 0.000 1.000 setrgbcolor
fill
grestore
stroke
grestore
gsave
157.1 86.8 46.25 37.8 clipbox
144.779 37.8 m
144.896 37.8 l
144.896 37.8 l
144.779 37.8 l
cl
gsave
0.000 0.000 1.000 setrgbcolor
fill
grestore
stroke
grestore
gsave
157.1 86.8 46.25 37.8 clipbox
144.896 37.8 m
145.012 37.8 l
145.012 37.8 l
144.896 37.8 l
cl
gsave
0.000 0.000 1.000 setrgbcolor
fill
grestore
stroke
grestore
gsave
157.1 86.8 46.25 37.8 clipbox
145.012 37.8 m
145.129 37.8 l
145.129 37.8 l
145.012 37.8 l
cl
gsave
0.000 0.000 1.000 setrgbcolor
fill
grestore
stroke
grestore
gsave
157.1 86.8 46.25 37.8 clipbox
145.129 37.8 m
145.245 37.8 l
145.245 37.8 l
145.129 37.8 l
cl
gsave
0.000 0.000 1.000 setrgbcolor
fill
grestore
stroke
grestore
gsave
157.1 86.8 46.25 37.8 clipbox
145.245 37.8 m
145.362 37.8 l
145.362 37.8 l
145.245 37.8 l
cl
gsave
0.000 0.000 1.000 setrgbcolor
fill
grestore
stroke
grestore
gsave
157.1 86.8 46.25 37.8 clipbox
145.362 37.8 m
145.479 37.8 l
145.479 37.8 l
145.362 37.8 l
cl
gsave
0.000 0.000 1.000 setrgbcolor
fill
grestore
stroke
grestore
gsave
157.1 86.8 46.25 37.8 clipbox
145.479 37.8 m
145.595 37.8 l
145.595 37.8 l
145.479 37.8 l
cl
gsave
0.000 0.000 1.000 setrgbcolor
fill
grestore
stroke
grestore
gsave
157.1 86.8 46.25 37.8 clipbox
145.595 37.8 m
145.712 37.8 l
145.712 37.8 l
145.595 37.8 l
cl
gsave
0.000 0.000 1.000 setrgbcolor
fill
grestore
stroke
grestore
gsave
157.1 86.8 46.25 37.8 clipbox
145.712 37.8 m
145.828 37.8 l
145.828 37.8 l
145.712 37.8 l
cl
gsave
0.000 0.000 1.000 setrgbcolor
fill
grestore
stroke
grestore
gsave
157.1 86.8 46.25 37.8 clipbox
145.828 37.8 m
145.945 37.8 l
145.945 39.2467 l
145.828 39.2467 l
cl
gsave
0.000 0.000 1.000 setrgbcolor
fill
grestore
stroke
grestore
1 setlinejoin
2 setlinecap
1.000 0.000 0.000 setrgbcolor
gsave
157.1 86.8 46.25 37.8 clipbox
137.349 37.8 m
137.349 110.133 l
stroke
grestore
0 setlinejoin
0.000 setgray
gsave
46.2516 124.6 m
203.337 124.6 l
stroke
grestore
gsave
203.337 37.8 m
203.337 124.6 l
stroke
grestore
gsave
46.2516 37.8 m
203.337 37.8 l
stroke
grestore
gsave
46.2516 37.8 m
46.2516 124.6 l
stroke
grestore
0.500 setlinewidth
1 setlinejoin
0 setlinecap
gsave
/o {
gsave
newpath
translate
0.5 setlinewidth
1 setlinejoin
0 setlinecap
0 0 m
0 4 l
gsave
0.000 setgray
fill
grestore
stroke
grestore
} bind def
46.2516 37.8 o
grestore
gsave
/o {
gsave
newpath
translate
0.5 setlinewidth
1 setlinejoin
0 setlinecap
0 0 m
0 -4 l
gsave
0.000 setgray
fill
grestore
stroke
grestore
} bind def
46.2516 124.6 o
grestore
/BitstreamVeraSans-Roman findfont
10.000 scalefont
setfont
gsave
35.142188 26.206250 translate
0.000000 rotate
0.000000 0.000000 m /minus glyphshow
8.378906 0.000000 m /zero glyphshow
14.741211 0.000000 m /period glyphshow
17.919922 0.000000 m /two glyphshow
grestore
gsave
/o {
gsave
newpath
translate
0.5 setlinewidth
1 setlinejoin
0 setlinecap
0 0 m
0 4 l
gsave
0.000 setgray
fill
grestore
stroke
grestore
} bind def
98.6133 37.8 o
grestore
gsave
/o {
gsave
newpath
translate
0.5 setlinewidth
1 setlinejoin
0 setlinecap
0 0 m
0 -4 l
gsave
0.000 setgray
fill
grestore
stroke
grestore
} bind def
98.6133 124.6 o
grestore
gsave
87.464844 26.206250 translate
0.000000 rotate
0.000000 0.000000 m /minus glyphshow
8.378906 0.000000 m /zero glyphshow
14.741211 0.000000 m /period glyphshow
17.919922 0.000000 m /one glyphshow
grestore
gsave
/o {
gsave
newpath
translate
0.5 setlinewidth
1 setlinejoin
0 setlinecap
0 0 m
0 4 l
gsave
0.000 setgray
fill
grestore
stroke
grestore
} bind def
150.975 37.8 o
grestore
gsave
/o {
gsave
newpath
translate
0.5 setlinewidth
1 setlinejoin
0 setlinecap
0 0 m
0 -4 l
gsave
0.000 setgray
fill
grestore
stroke
grestore
} bind def
150.975 124.6 o
grestore
gsave
143.678125 26.206250 translate
0.000000 rotate
0.000000 0.000000 m /zero glyphshow
6.362305 0.000000 m /period glyphshow
9.541016 0.000000 m /zero glyphshow
grestore
gsave
/o {
gsave
newpath
translate
0.5 setlinewidth
1 setlinejoin
0 setlinecap
0 0 m
0 4 l
gsave
0.000 setgray
fill
grestore
stroke
grestore
} bind def
203.337 37.8 o
grestore
gsave
/o {
gsave
newpath
translate
0.5 setlinewidth
1 setlinejoin
0 setlinecap
0 0 m
0 -4 l
gsave
0.000 setgray
fill
grestore
stroke
grestore
} bind def
203.337 124.6 o
grestore
gsave
196.172656 26.206250 translate
0.000000 rotate
0.000000 0.000000 m /zero glyphshow
6.362305 0.000000 m /period glyphshow
9.541016 0.000000 m /one glyphshow
grestore
gsave
73.786328 11.534375 translate
0.000000 rotate
0.000000 0.000000 m /space glyphshow
3.178711 0.000000 m /W glyphshow
12.816406 0.000000 m /i glyphshow
15.594727 0.000000 m /n glyphshow
21.932617 0.000000 m /d glyphshow
28.280273 0.000000 m /space glyphshow
31.458984 0.000000 m /d glyphshow
37.806641 0.000000 m /i glyphshow
40.584961 0.000000 m /r glyphshow
44.446289 0.000000 m /e glyphshow
50.598633 0.000000 m /c glyphshow
56.096680 0.000000 m /t glyphshow
60.017578 0.000000 m /i glyphshow
62.795898 0.000000 m /o glyphshow
68.914062 0.000000 m /n glyphshow
75.251953 0.000000 m /space glyphshow
78.430664 0.000000 m /parenleft glyphshow
82.332031 0.000000 m /r glyphshow
86.443359 0.000000 m /a glyphshow
92.571289 0.000000 m /d glyphshow
98.918945 0.000000 m /parenright glyphshow
grestore
gsave
/o {
gsave
newpath
translate
0.5 setlinewidth
1 setlinejoin
0 setlinecap
0 0 m
4 0 l
gsave
0.000 setgray
fill
grestore
stroke
grestore
} bind def
46.2516 37.8 o
grestore
gsave
/o {
gsave
newpath
translate
0.5 setlinewidth
1 setlinejoin
0 setlinecap
0 0 m
-4 0 l
gsave
0.000 setgray
fill
grestore
stroke
grestore
} bind def
203.337 37.8 o
grestore
gsave
37.204688 35.042188 translate
0.000000 rotate
0.000000 0.000000 m /zero glyphshow
grestore
gsave
/o {
gsave
newpath
translate
0.5 setlinewidth
1 setlinejoin
0 setlinecap
0 0 m
4 0 l
gsave
0.000 setgray
fill
grestore
stroke
grestore
} bind def
46.2516 66.7333 o
grestore
gsave
/o {
gsave
newpath
translate
0.5 setlinewidth
1 setlinejoin
0 setlinecap
0 0 m
-4 0 l
gsave
0.000 setgray
fill
grestore
stroke
grestore
} bind def
203.337 66.7333 o
grestore
gsave
30.923438 63.975521 translate
0.000000 rotate
0.000000 0.000000 m /two glyphshow
6.362305 0.000000 m /zero glyphshow
grestore
gsave
/o {
gsave
newpath
translate
0.5 setlinewidth
1 setlinejoin
0 setlinecap
0 0 m
4 0 l
gsave
0.000 setgray
fill
grestore
stroke
grestore
} bind def
46.2516 95.6667 o
grestore
gsave
/o {
gsave
newpath
translate
0.5 setlinewidth
1 setlinejoin
0 setlinecap
0 0 m
-4 0 l
gsave
0.000 setgray
fill
grestore
stroke
grestore
} bind def
203.337 95.6667 o
grestore
gsave
30.673438 92.908854 translate
0.000000 rotate
0.000000 0.000000 m /four glyphshow
6.362305 0.000000 m /zero glyphshow
grestore
gsave
/o {
gsave
newpath
translate
0.5 setlinewidth
1 setlinejoin
0 setlinecap
0 0 m
4 0 l
gsave
0.000 setgray
fill
grestore
stroke
grestore
} bind def
46.2516 124.6 o
grestore
gsave
/o {
gsave
newpath
translate
0.5 setlinewidth
1 setlinejoin
0 setlinecap
0 0 m
-4 0 l
gsave
0.000 setgray
fill
grestore
stroke
grestore
} bind def
203.337 124.6 o
grestore
gsave
30.892188 121.842188 translate
0.000000 rotate
0.000000 0.000000 m /six glyphshow
6.362305 0.000000 m /zero glyphshow
grestore
gsave
23.595313 56.028125 translate
90.000000 rotate
0.000000 0.000000 m /F glyphshow
5.001953 0.000000 m /r glyphshow
8.863281 0.000000 m /e glyphshow
15.015625 0.000000 m /q glyphshow
21.363281 0.000000 m /u glyphshow
27.701172 0.000000 m /e glyphshow
33.853516 0.000000 m /n glyphshow
40.191406 0.000000 m /c glyphshow
45.689453 0.000000 m /y glyphshow
grestore
/BitstreamVeraSans-Roman findfont
12.000 scalefont
setfont
gsave
93.247266 129.600000 translate
0.000000 rotate
0.000000 0.000000 m /t glyphshow
4.705078 0.000000 m /space glyphshow
8.519531 0.000000 m /equal glyphshow
18.574219 0.000000 m /space glyphshow
22.388672 0.000000 m /two glyphshow
30.023438 0.000000 m /zero glyphshow
37.658203 0.000000 m /space glyphshow
41.472656 0.000000 m /m glyphshow
53.162109 0.000000 m /i glyphshow
56.496094 0.000000 m /n glyphshow
grestore
gsave
256.929 37.8 m
414.014 37.8 l
414.014 124.6 l
256.929 124.6 l
cl
1.000 setgray
fill
grestore
1.000 setlinewidth
0 setlinejoin
gsave
157.1 86.8 256.9 37.8 clipbox
346.507 37.8 m
346.573 37.8 l
346.573 40.6933 l
346.507 40.6933 l
cl
gsave
0.000 0.000 1.000 setrgbcolor
fill
grestore
stroke
grestore
gsave
157.1 86.8 256.9 37.8 clipbox
346.573 37.8 m
346.639 37.8 l
346.639 40.6933 l
346.573 40.6933 l
cl
gsave
0.000 0.000 1.000 setrgbcolor
fill
grestore
stroke
grestore
gsave
157.1 86.8 256.9 37.8 clipbox
346.639 37.8 m
346.705 37.8 l
346.705 37.8 l
346.639 37.8 l
cl
gsave
0.000 0.000 1.000 setrgbcolor
fill
grestore
stroke
grestore
gsave
157.1 86.8 256.9 37.8 clipbox
346.705 37.8 m
346.77 37.8 l
346.77 37.8 l
346.705 37.8 l
cl
gsave
0.000 0.000 1.000 setrgbcolor
fill
grestore
stroke
grestore
gsave
157.1 86.8 256.9 37.8 clipbox
346.77 37.8 m
346.836 37.8 l
346.836 39.2467 l
346.77 39.2467 l
cl
gsave
0.000 0.000 1.000 setrgbcolor
fill
grestore
stroke
grestore
gsave
157.1 86.8 256.9 37.8 clipbox
346.836 37.8 m
346.902 37.8 l
346.902 42.14 l
346.836 42.14 l
cl
gsave
0.000 0.000 1.000 setrgbcolor
fill
grestore
stroke
grestore
gsave
157.1 86.8 256.9 37.8 clipbox
346.902 37.8 m
346.968 37.8 l
346.968 43.5867 l
346.902 43.5867 l
cl
gsave
0.000 0.000 1.000 setrgbcolor
fill
grestore
stroke
grestore
gsave
157.1 86.8 256.9 37.8 clipbox
346.968 37.8 m
347.033 37.8 l
347.033 43.5867 l
346.968 43.5867 l
cl
gsave
0.000 0.000 1.000 setrgbcolor
fill
grestore
stroke
grestore
gsave
157.1 86.8 256.9 37.8 clipbox
347.033 37.8 m
347.099 37.8 l
347.099 43.5867 l
347.033 43.5867 l
cl
gsave
0.000 0.000 1.000 setrgbcolor
fill
grestore
stroke
grestore
gsave
157.1 86.8 256.9 37.8 clipbox
347.099 37.8 m
347.165 37.8 l
347.165 45.0333 l
347.099 45.0333 l
cl
gsave
0.000 0.000 1.000 setrgbcolor
fill
grestore
stroke
grestore
gsave
157.1 86.8 256.9 37.8 clipbox
347.165 37.8 m
347.231 37.8 l
347.231 55.16 l
347.165 55.16 l
cl
gsave
0.000 0.000 1.000 setrgbcolor
fill
grestore
stroke
grestore
gsave
157.1 86.8 256.9 37.8 clipbox
347.231 37.8 m
347.296 37.8 l
347.296 47.9267 l
347.231 47.9267 l
cl
gsave
0.000 0.000 1.000 setrgbcolor
fill
grestore
stroke
grestore
gsave
157.1 86.8 256.9 37.8 clipbox
347.296 37.8 m
347.362 37.8 l
347.362 52.2667 l
347.296 52.2667 l
cl
gsave
0.000 0.000 1.000 setrgbcolor
fill
grestore
stroke
grestore
gsave
157.1 86.8 256.9 37.8 clipbox
347.362 37.8 m
347.428 37.8 l
347.428 56.6067 l
347.362 56.6067 l
cl
gsave
0.000 0.000 1.000 setrgbcolor
fill
grestore
stroke
grestore
gsave
157.1 86.8 256.9 37.8 clipbox
347.428 37.8 m
347.494 37.8 l
347.494 58.0533 l
347.428 58.0533 l
cl
gsave
0.000 0.000 1.000 setrgbcolor
fill
grestore
stroke
grestore
gsave
157.1 86.8 256.9 37.8 clipbox
347.494 37.8 m
347.559 37.8 l
347.559 56.6067 l
347.494 56.6067 l
cl
gsave
0.000 0.000 1.000 setrgbcolor
fill
grestore
stroke
grestore
gsave
157.1 86.8 256.9 37.8 clipbox
347.559 37.8 m
347.625 37.8 l
347.625 68.18 l
347.559 68.18 l
cl
gsave
0.000 0.000 1.000 setrgbcolor
fill
grestore
stroke
grestore
gsave
157.1 86.8 256.9 37.8 clipbox
347.625 37.8 m
347.691 37.8 l
347.691 65.2867 l
347.625 65.2867 l
cl
gsave
0.000 0.000 1.000 setrgbcolor
fill
grestore
stroke
grestore
gsave
157.1 86.8 256.9 37.8 clipbox
347.691 37.8 m
347.757 37.8 l
347.757 71.0733 l
347.691 71.0733 l
cl
gsave
0.000 0.000 1.000 setrgbcolor
fill
grestore
stroke
grestore
gsave
157.1 86.8 256.9 37.8 clipbox
347.757 37.8 m
347.822 37.8 l
347.822 88.4333 l
347.757 88.4333 l
cl
gsave
0.000 0.000 1.000 setrgbcolor
fill
grestore
stroke
grestore
gsave
157.1 86.8 256.9 37.8 clipbox
347.822 37.8 m
347.888 37.8 l
347.888 86.9867 l
347.822 86.9867 l
cl
gsave
0.000 0.000 1.000 setrgbcolor
fill
grestore
stroke
grestore
gsave
157.1 86.8 256.9 37.8 clipbox
347.888 37.8 m
347.954 37.8 l
347.954 88.4333 l
347.888 88.4333 l
cl
gsave
0.000 0.000 1.000 setrgbcolor
fill
grestore
stroke
grestore
gsave
157.1 86.8 256.9 37.8 clipbox
347.954 37.8 m
348.02 37.8 l
348.02 97.1133 l
347.954 97.1133 l
cl
gsave
0.000 0.000 1.000 setrgbcolor
fill
grestore
stroke
grestore
gsave
157.1 86.8 256.9 37.8 clipbox
348.02 37.8 m
348.085 37.8 l
348.085 108.687 l
348.02 108.687 l
cl
gsave
0.000 0.000 1.000 setrgbcolor
fill
grestore
stroke
grestore
gsave
157.1 86.8 256.9 37.8 clipbox
348.085 37.8 m
348.151 37.8 l
348.151 78.3067 l
348.085 78.3067 l
cl
gsave
0.000 0.000 1.000 setrgbcolor
fill
grestore
stroke
grestore
gsave
157.1 86.8 256.9 37.8 clipbox
348.151 37.8 m
348.217 37.8 l
348.217 92.7733 l
348.151 92.7733 l
cl
gsave
0.000 0.000 1.000 setrgbcolor
fill
grestore
stroke
grestore
gsave
157.1 86.8 256.9 37.8 clipbox
348.217 37.8 m
348.283 37.8 l
348.283 98.56 l
348.217 98.56 l
cl
gsave
0.000 0.000 1.000 setrgbcolor
fill
grestore
stroke
grestore
gsave
157.1 86.8 256.9 37.8 clipbox
348.283 37.8 m
348.348 37.8 l
348.348 89.88 l
348.283 89.88 l
cl
gsave
0.000 0.000 1.000 setrgbcolor
fill
grestore
stroke
grestore
gsave
157.1 86.8 256.9 37.8 clipbox
348.348 37.8 m
348.414 37.8 l
348.414 102.9 l
348.348 102.9 l
cl
gsave
0.000 0.000 1.000 setrgbcolor
fill
grestore
stroke
grestore
gsave
157.1 86.8 256.9 37.8 clipbox
348.414 37.8 m
348.48 37.8 l
348.48 97.1133 l
348.414 97.1133 l
cl
gsave
0.000 0.000 1.000 setrgbcolor
fill
grestore
stroke
grestore
gsave
157.1 86.8 256.9 37.8 clipbox
348.48 37.8 m
348.546 37.8 l
348.546 100.007 l
348.48 100.007 l
cl
gsave
0.000 0.000 1.000 setrgbcolor
fill
grestore
stroke
grestore
gsave
157.1 86.8 256.9 37.8 clipbox
348.546 37.8 m
348.611 37.8 l
348.611 86.9867 l
348.546 86.9867 l
cl
gsave
0.000 0.000 1.000 setrgbcolor
fill
grestore
stroke
grestore
gsave
157.1 86.8 256.9 37.8 clipbox
348.611 37.8 m
348.677 37.8 l
348.677 102.9 l
348.611 102.9 l
cl
gsave
0.000 0.000 1.000 setrgbcolor
fill
grestore
stroke
grestore
gsave
157.1 86.8 256.9 37.8 clipbox
348.677 37.8 m
348.743 37.8 l
348.743 86.9867 l
348.677 86.9867 l
cl
gsave
0.000 0.000 1.000 setrgbcolor
fill
grestore
stroke
grestore
gsave
157.1 86.8 256.9 37.8 clipbox
348.743 37.8 m
348.809 37.8 l
348.809 75.4133 l
348.743 75.4133 l
cl
gsave
0.000 0.000 1.000 setrgbcolor
fill
grestore
stroke
grestore
gsave
157.1 86.8 256.9 37.8 clipbox
348.809 37.8 m
348.874 37.8 l
348.874 91.3267 l
348.809 91.3267 l
cl
gsave
0.000 0.000 1.000 setrgbcolor
fill
grestore
stroke
grestore
gsave
157.1 86.8 256.9 37.8 clipbox
348.874 37.8 m
348.94 37.8 l
348.94 92.7733 l
348.874 92.7733 l
cl
gsave
0.000 0.000 1.000 setrgbcolor
fill
grestore
stroke
grestore
gsave
157.1 86.8 256.9 37.8 clipbox
348.94 37.8 m
349.006 37.8 l
349.006 63.84 l
348.94 63.84 l
cl
gsave
0.000 0.000 1.000 setrgbcolor
fill
grestore
stroke
grestore
gsave
157.1 86.8 256.9 37.8 clipbox
349.006 37.8 m
349.072 37.8 l
349.072 69.6267 l
349.006 69.6267 l
cl
gsave
0.000 0.000 1.000 setrgbcolor
fill
grestore
stroke
grestore
gsave
157.1 86.8 256.9 37.8 clipbox
349.072 37.8 m
349.137 37.8 l
349.137 56.6067 l
349.072 56.6067 l
cl
gsave
0.000 0.000 1.000 setrgbcolor
fill
grestore
stroke
grestore
gsave
157.1 86.8 256.9 37.8 clipbox
349.137 37.8 m
349.203 37.8 l
349.203 65.2867 l
349.137 65.2867 l
cl
gsave
0.000 0.000 1.000 setrgbcolor
fill
grestore
stroke
grestore
gsave
157.1 86.8 256.9 37.8 clipbox
349.203 37.8 m
349.269 37.8 l
349.269 65.2867 l
349.203 65.2867 l
cl
gsave
0.000 0.000 1.000 setrgbcolor
fill
grestore
stroke
grestore
gsave
157.1 86.8 256.9 37.8 clipbox
349.269 37.8 m
349.335 37.8 l
349.335 53.7133 l
349.269 53.7133 l
cl
gsave
0.000 0.000 1.000 setrgbcolor
fill
grestore
stroke
grestore
gsave
157.1 86.8 256.9 37.8 clipbox
349.335 37.8 m
349.4 37.8 l
349.4 53.7133 l
349.335 53.7133 l
cl
gsave
0.000 0.000 1.000 setrgbcolor
fill
grestore
stroke
grestore
gsave
157.1 86.8 256.9 37.8 clipbox
349.4 37.8 m
349.466 37.8 l
349.466 46.48 l
349.4 46.48 l
cl
gsave
0.000 0.000 1.000 setrgbcolor
fill
grestore
stroke
grestore
gsave
157.1 86.8 256.9 37.8 clipbox
349.466 37.8 m
349.532 37.8 l
349.532 47.9267 l
349.466 47.9267 l
cl
gsave
0.000 0.000 1.000 setrgbcolor
fill
grestore
stroke
grestore
gsave
157.1 86.8 256.9 37.8 clipbox
349.532 37.8 m
349.598 37.8 l
349.598 47.9267 l
349.532 47.9267 l
cl
gsave
0.000 0.000 1.000 setrgbcolor
fill
grestore
stroke
grestore
gsave
157.1 86.8 256.9 37.8 clipbox
349.598 37.8 m
349.663 37.8 l
349.663 45.0333 l
349.598 45.0333 l
cl
gsave
0.000 0.000 1.000 setrgbcolor
fill
grestore
stroke
grestore
gsave
157.1 86.8 256.9 37.8 clipbox
349.663 37.8 m
349.729 37.8 l
349.729 43.5867 l
349.663 43.5867 l
cl
gsave
0.000 0.000 1.000 setrgbcolor
fill
grestore
stroke
grestore
gsave
157.1 86.8 256.9 37.8 clipbox
349.729 37.8 m
349.795 37.8 l
349.795 43.5867 l
349.729 43.5867 l
cl
gsave
0.000 0.000 1.000 setrgbcolor
fill
grestore
stroke
grestore
gsave
157.1 86.8 256.9 37.8 clipbox
349.795 37.8 m
349.861 37.8 l
349.861 40.6933 l
349.795 40.6933 l
cl
gsave
0.000 0.000 1.000 setrgbcolor
fill
grestore
stroke
grestore
gsave
157.1 86.8 256.9 37.8 clipbox
349.861 37.8 m
349.926 37.8 l
349.926 42.14 l
349.861 42.14 l
cl
gsave
0.000 0.000 1.000 setrgbcolor
fill
grestore
stroke
grestore
gsave
157.1 86.8 256.9 37.8 clipbox
349.926 37.8 m
349.992 37.8 l
349.992 40.6933 l
349.926 40.6933 l
cl
gsave
0.000 0.000 1.000 setrgbcolor
fill
grestore
stroke
grestore
gsave
157.1 86.8 256.9 37.8 clipbox
349.992 37.8 m
350.058 37.8 l
350.058 37.8 l
349.992 37.8 l
cl
gsave
0.000 0.000 1.000 setrgbcolor
fill
grestore
stroke
grestore
gsave
157.1 86.8 256.9 37.8 clipbox
350.058 37.8 m
350.124 37.8 l
350.124 37.8 l
350.058 37.8 l
cl
gsave
0.000 0.000 1.000 setrgbcolor
fill
grestore
stroke
grestore
gsave
157.1 86.8 256.9 37.8 clipbox
350.124 37.8 m
350.189 37.8 l
350.189 42.14 l
350.124 42.14 l
cl
gsave
0.000 0.000 1.000 setrgbcolor
fill
grestore
stroke
grestore
gsave
157.1 86.8 256.9 37.8 clipbox
350.189 37.8 m
350.255 37.8 l
350.255 37.8 l
350.189 37.8 l
cl
gsave
0.000 0.000 1.000 setrgbcolor
fill
grestore
stroke
grestore
gsave
157.1 86.8 256.9 37.8 clipbox
350.255 37.8 m
350.321 37.8 l
350.321 39.2467 l
350.255 39.2467 l
cl
gsave
0.000 0.000 1.000 setrgbcolor
fill
grestore
stroke
grestore
gsave
157.1 86.8 256.9 37.8 clipbox
350.321 37.8 m
350.387 37.8 l
350.387 37.8 l
350.321 37.8 l
cl
gsave
0.000 0.000 1.000 setrgbcolor
fill
grestore
stroke
grestore
gsave
157.1 86.8 256.9 37.8 clipbox
350.387 37.8 m
350.452 37.8 l
350.452 37.8 l
350.387 37.8 l
cl
gsave
0.000 0.000 1.000 setrgbcolor
fill
grestore
stroke
grestore
gsave
157.1 86.8 256.9 37.8 clipbox
350.452 37.8 m
350.518 37.8 l
350.518 40.6933 l
350.452 40.6933 l
cl
gsave
0.000 0.000 1.000 setrgbcolor
fill
grestore
stroke
grestore
gsave
157.1 86.8 256.9 37.8 clipbox
350.518 37.8 m
350.584 37.8 l
350.584 37.8 l
350.518 37.8 l
cl
gsave
0.000 0.000 1.000 setrgbcolor
fill
grestore
stroke
grestore
gsave
157.1 86.8 256.9 37.8 clipbox
350.584 37.8 m
350.65 37.8 l
350.65 37.8 l
350.584 37.8 l
cl
gsave
0.000 0.000 1.000 setrgbcolor
fill
grestore
stroke
grestore
gsave
157.1 86.8 256.9 37.8 clipbox
350.65 37.8 m
350.715 37.8 l
350.715 37.8 l
350.65 37.8 l
cl
gsave
0.000 0.000 1.000 setrgbcolor
fill
grestore
stroke
grestore
gsave
157.1 86.8 256.9 37.8 clipbox
350.715 37.8 m
350.781 37.8 l
350.781 39.2467 l
350.715 39.2467 l
cl
gsave
0.000 0.000 1.000 setrgbcolor
fill
grestore
stroke
grestore
gsave
157.1 86.8 256.9 37.8 clipbox
350.781 37.8 m
350.847 37.8 l
350.847 37.8 l
350.781 37.8 l
cl
gsave
0.000 0.000 1.000 setrgbcolor
fill
grestore
stroke
grestore
gsave
157.1 86.8 256.9 37.8 clipbox
350.847 37.8 m
350.913 37.8 l
350.913 37.8 l
350.847 37.8 l
cl
gsave
0.000 0.000 1.000 setrgbcolor
fill
grestore
stroke
grestore
gsave
157.1 86.8 256.9 37.8 clipbox
350.913 37.8 m
350.978 37.8 l
350.978 37.8 l
350.913 37.8 l
cl
gsave
0.000 0.000 1.000 setrgbcolor
fill
grestore
stroke
grestore
gsave
157.1 86.8 256.9 37.8 clipbox
350.978 37.8 m
351.044 37.8 l
351.044 37.8 l
350.978 37.8 l
cl
gsave
0.000 0.000 1.000 setrgbcolor
fill
grestore
stroke
grestore
gsave
157.1 86.8 256.9 37.8 clipbox
351.044 37.8 m
351.11 37.8 l
351.11 37.8 l
351.044 37.8 l
cl
gsave
0.000 0.000 1.000 setrgbcolor
fill
grestore
stroke
grestore
gsave
157.1 86.8 256.9 37.8 clipbox
351.11 37.8 m
351.176 37.8 l
351.176 37.8 l
351.11 37.8 l
cl
gsave
0.000 0.000 1.000 setrgbcolor
fill
grestore
stroke
grestore
gsave
157.1 86.8 256.9 37.8 clipbox
351.176 37.8 m
351.241 37.8 l
351.241 37.8 l
351.176 37.8 l
cl
gsave
0.000 0.000 1.000 setrgbcolor
fill
grestore
stroke
grestore
gsave
157.1 86.8 256.9 37.8 clipbox
351.241 37.8 m
351.307 37.8 l
351.307 39.2467 l
351.241 39.2467 l
cl
gsave
0.000 0.000 1.000 setrgbcolor
fill
grestore
stroke
grestore
gsave
157.1 86.8 256.9 37.8 clipbox
351.307 37.8 m
351.373 37.8 l
351.373 37.8 l
351.307 37.8 l
cl
gsave
0.000 0.000 1.000 setrgbcolor
fill
grestore
stroke
grestore
gsave
157.1 86.8 256.9 37.8 clipbox
351.373 37.8 m
351.439 37.8 l
351.439 37.8 l
351.373 37.8 l
cl
gsave
0.000 0.000 1.000 setrgbcolor
fill
grestore
stroke
grestore
gsave
157.1 86.8 256.9 37.8 clipbox
351.439 37.8 m
351.504 37.8 l
351.504 37.8 l
351.439 37.8 l
cl
gsave
0.000 0.000 1.000 setrgbcolor
fill
grestore
stroke
grestore
gsave
157.1 86.8 256.9 37.8 clipbox
351.504 37.8 m
351.57 37.8 l
351.57 37.8 l
351.504 37.8 l
cl
gsave
0.000 0.000 1.000 setrgbcolor
fill
grestore
stroke
grestore
gsave
157.1 86.8 256.9 37.8 clipbox
351.57 37.8 m
351.636 37.8 l
351.636 37.8 l
351.57 37.8 l
cl
gsave
0.000 0.000 1.000 setrgbcolor
fill
grestore
stroke
grestore
gsave
157.1 86.8 256.9 37.8 clipbox
351.636 37.8 m
351.702 37.8 l
351.702 37.8 l
351.636 37.8 l
cl
gsave
0.000 0.000 1.000 setrgbcolor
fill
grestore
stroke
grestore
gsave
157.1 86.8 256.9 37.8 clipbox
351.702 37.8 m
351.767 37.8 l
351.767 37.8 l
351.702 37.8 l
cl
gsave
0.000 0.000 1.000 setrgbcolor
fill
grestore
stroke
grestore
gsave
157.1 86.8 256.9 37.8 clipbox
351.767 37.8 m
351.833 37.8 l
351.833 37.8 l
351.767 37.8 l
cl
gsave
0.000 0.000 1.000 setrgbcolor
fill
grestore
stroke
grestore
gsave
157.1 86.8 256.9 37.8 clipbox
351.833 37.8 m
351.899 37.8 l
351.899 37.8 l
351.833 37.8 l
cl
gsave
0.000 0.000 1.000 setrgbcolor
fill
grestore
stroke
grestore
gsave
157.1 86.8 256.9 37.8 clipbox
351.899 37.8 m
351.965 37.8 l
351.965 37.8 l
351.899 37.8 l
cl
gsave
0.000 0.000 1.000 setrgbcolor
fill
grestore
stroke
grestore
gsave
157.1 86.8 256.9 37.8 clipbox
351.965 37.8 m
352.03 37.8 l
352.03 37.8 l
351.965 37.8 l
cl
gsave
0.000 0.000 1.000 setrgbcolor
fill
grestore
stroke
grestore
gsave
157.1 86.8 256.9 37.8 clipbox
352.03 37.8 m
352.096 37.8 l
352.096 37.8 l
352.03 37.8 l
cl
gsave
0.000 0.000 1.000 setrgbcolor
fill
grestore
stroke
grestore
gsave
157.1 86.8 256.9 37.8 clipbox
352.096 37.8 m
352.162 37.8 l
352.162 37.8 l
352.096 37.8 l
cl
gsave
0.000 0.000 1.000 setrgbcolor
fill
grestore
stroke
grestore
gsave
157.1 86.8 256.9 37.8 clipbox
352.162 37.8 m
352.228 37.8 l
352.228 37.8 l
352.162 37.8 l
cl
gsave
0.000 0.000 1.000 setrgbcolor
fill
grestore
stroke
grestore
gsave
157.1 86.8 256.9 37.8 clipbox
352.228 37.8 m
352.293 37.8 l
352.293 37.8 l
352.228 37.8 l
cl
gsave
0.000 0.000 1.000 setrgbcolor
fill
grestore
stroke
grestore
gsave
157.1 86.8 256.9 37.8 clipbox
352.293 37.8 m
352.359 37.8 l
352.359 37.8 l
352.293 37.8 l
cl
gsave
0.000 0.000 1.000 setrgbcolor
fill
grestore
stroke
grestore
gsave
157.1 86.8 256.9 37.8 clipbox
352.359 37.8 m
352.425 37.8 l
352.425 37.8 l
352.359 37.8 l
cl
gsave
0.000 0.000 1.000 setrgbcolor
fill
grestore
stroke
grestore
gsave
157.1 86.8 256.9 37.8 clipbox
352.425 37.8 m
352.491 37.8 l
352.491 37.8 l
352.425 37.8 l
cl
gsave
0.000 0.000 1.000 setrgbcolor
fill
grestore
stroke
grestore
gsave
157.1 86.8 256.9 37.8 clipbox
352.491 37.8 m
352.556 37.8 l
352.556 37.8 l
352.491 37.8 l
cl
gsave
0.000 0.000 1.000 setrgbcolor
fill
grestore
stroke
grestore
gsave
157.1 86.8 256.9 37.8 clipbox
352.556 37.8 m
352.622 37.8 l
352.622 37.8 l
352.556 37.8 l
cl
gsave
0.000 0.000 1.000 setrgbcolor
fill
grestore
stroke
grestore
gsave
157.1 86.8 256.9 37.8 clipbox
352.622 37.8 m
352.688 37.8 l
352.688 37.8 l
352.622 37.8 l
cl
gsave
0.000 0.000 1.000 setrgbcolor
fill
grestore
stroke
grestore
gsave
157.1 86.8 256.9 37.8 clipbox
352.688 37.8 m
352.754 37.8 l
352.754 37.8 l
352.688 37.8 l
cl
gsave
0.000 0.000 1.000 setrgbcolor
fill
grestore
stroke
grestore
gsave
157.1 86.8 256.9 37.8 clipbox
352.754 37.8 m
352.819 37.8 l
352.819 37.8 l
352.754 37.8 l
cl
gsave
0.000 0.000 1.000 setrgbcolor
fill
grestore
stroke
grestore
gsave
157.1 86.8 256.9 37.8 clipbox
352.819 37.8 m
352.885 37.8 l
352.885 37.8 l
352.819 37.8 l
cl
gsave
0.000 0.000 1.000 setrgbcolor
fill
grestore
stroke
grestore
gsave
157.1 86.8 256.9 37.8 clipbox
352.885 37.8 m
352.951 37.8 l
352.951 37.8 l
352.885 37.8 l
cl
gsave
0.000 0.000 1.000 setrgbcolor
fill
grestore
stroke
grestore
gsave
157.1 86.8 256.9 37.8 clipbox
352.951 37.8 m
353.017 37.8 l
353.017 37.8 l
352.951 37.8 l
cl
gsave
0.000 0.000 1.000 setrgbcolor
fill
grestore
stroke
grestore
gsave
157.1 86.8 256.9 37.8 clipbox
353.017 37.8 m
353.082 37.8 l
353.082 39.2467 l
353.017 39.2467 l
cl
gsave
0.000 0.000 1.000 setrgbcolor
fill
grestore
stroke
grestore
1 setlinejoin
2 setlinecap
1.000 0.000 0.000 setrgbcolor
gsave
157.1 86.8 256.9 37.8 clipbox
348.026 37.8 m
348.026 108.687 l
stroke
grestore
0 setlinejoin
0.000 setgray
gsave
256.929 124.6 m
414.014 124.6 l
stroke
grestore
gsave
414.014 37.8 m
414.014 124.6 l
stroke
grestore
gsave
256.929 37.8 m
414.014 37.8 l
stroke
grestore
gsave
256.929 37.8 m
256.929 124.6 l
stroke
grestore
0.500 setlinewidth
1 setlinejoin
0 setlinecap
gsave
/o {
gsave
newpath
translate
0.5 setlinewidth
1 setlinejoin
0 setlinecap
0 0 m
0 4 l
gsave
0.000 setgray
fill
grestore
stroke
grestore
} bind def
256.929 37.8 o
grestore
gsave
/o {
gsave
newpath
translate
0.5 setlinewidth
1 setlinejoin
0 setlinecap
0 0 m
0 -4 l
gsave
0.000 setgray
fill
grestore
stroke
grestore
} bind def
256.929 124.6 o
grestore
/BitstreamVeraSans-Roman findfont
10.000 scalefont
setfont
gsave
245.819531 26.206250 translate
0.000000 rotate
0.000000 0.000000 m /minus glyphshow
8.378906 0.000000 m /zero glyphshow
14.741211 0.000000 m /period glyphshow
17.919922 0.000000 m /two glyphshow
grestore
gsave
/o {
gsave
newpath
translate
0.5 setlinewidth
1 setlinejoin
0 setlinecap
0 0 m
0 4 l
gsave
0.000 setgray
fill
grestore
stroke
grestore
} bind def
309.291 37.8 o
grestore
gsave
/o {
gsave
newpath
translate
0.5 setlinewidth
1 setlinejoin
0 setlinecap
0 0 m
0 -4 l
gsave
0.000 setgray
fill
grestore
stroke
grestore
} bind def
309.291 124.6 o
grestore
gsave
298.142187 26.206250 translate
0.000000 rotate
0.000000 0.000000 m /minus glyphshow
8.378906 0.000000 m /zero glyphshow
14.741211 0.000000 m /period glyphshow
17.919922 0.000000 m /one glyphshow
grestore
gsave
/o {
gsave
newpath
translate
0.5 setlinewidth
1 setlinejoin
0 setlinecap
0 0 m
0 4 l
gsave
0.000 setgray
fill
grestore
stroke
grestore
} bind def
361.652 37.8 o
grestore
gsave
/o {
gsave
newpath
translate
0.5 setlinewidth
1 setlinejoin
0 setlinecap
0 0 m
0 -4 l
gsave
0.000 setgray
fill
grestore
stroke
grestore
} bind def
361.652 124.6 o
grestore
gsave
354.355469 26.206250 translate
0.000000 rotate
0.000000 0.000000 m /zero glyphshow
6.362305 0.000000 m /period glyphshow
9.541016 0.000000 m /zero glyphshow
grestore
gsave
/o {
gsave
newpath
translate
0.5 setlinewidth
1 setlinejoin
0 setlinecap
0 0 m
0 4 l
gsave
0.000 setgray
fill
grestore
stroke
grestore
} bind def
414.014 37.8 o
grestore
gsave
/o {
gsave
newpath
translate
0.5 setlinewidth
1 setlinejoin
0 setlinecap
0 0 m
0 -4 l
gsave
0.000 setgray
fill
grestore
stroke
grestore
} bind def
414.014 124.6 o
grestore
gsave
406.850000 26.206250 translate
0.000000 rotate
0.000000 0.000000 m /zero glyphshow
6.362305 0.000000 m /period glyphshow
9.541016 0.000000 m /one glyphshow
grestore
gsave
284.463672 11.534375 translate
0.000000 rotate
0.000000 0.000000 m /space glyphshow
3.178711 0.000000 m /W glyphshow
12.816406 0.000000 m /i glyphshow
15.594727 0.000000 m /n glyphshow
21.932617 0.000000 m /d glyphshow
28.280273 0.000000 m /space glyphshow
31.458984 0.000000 m /d glyphshow
37.806641 0.000000 m /i glyphshow
40.584961 0.000000 m /r glyphshow
44.446289 0.000000 m /e glyphshow
50.598633 0.000000 m /c glyphshow
56.096680 0.000000 m /t glyphshow
60.017578 0.000000 m /i glyphshow
62.795898 0.000000 m /o glyphshow
68.914062 0.000000 m /n glyphshow
75.251953 0.000000 m /space glyphshow
78.430664 0.000000 m /parenleft glyphshow
82.332031 0.000000 m /r glyphshow
86.443359 0.000000 m /a glyphshow
92.571289 0.000000 m /d glyphshow
98.918945 0.000000 m /parenright glyphshow
grestore
gsave
/o {
gsave
newpath
translate
0.5 setlinewidth
1 setlinejoin
0 setlinecap
0 0 m
4 0 l
gsave
0.000 setgray
fill
grestore
stroke
grestore
} bind def
256.929 37.8 o
grestore
gsave
/o {
gsave
newpath
translate
0.5 setlinewidth
1 setlinejoin
0 setlinecap
0 0 m
-4 0 l
gsave
0.000 setgray
fill
grestore
stroke
grestore
} bind def
414.014 37.8 o
grestore
gsave
247.882031 35.042188 translate
0.000000 rotate
0.000000 0.000000 m /zero glyphshow
grestore
gsave
/o {
gsave
newpath
translate
0.5 setlinewidth
1 setlinejoin
0 setlinecap
0 0 m
4 0 l
gsave
0.000 setgray
fill
grestore
stroke
grestore
} bind def
256.929 66.7333 o
grestore
gsave
/o {
gsave
newpath
translate
0.5 setlinewidth
1 setlinejoin
0 setlinecap
0 0 m
-4 0 l
gsave
0.000 setgray
fill
grestore
stroke
grestore
} bind def
414.014 66.7333 o
grestore
gsave
241.600781 63.975521 translate
0.000000 rotate
0.000000 0.000000 m /two glyphshow
6.362305 0.000000 m /zero glyphshow
grestore
gsave
/o {
gsave
newpath
translate
0.5 setlinewidth
1 setlinejoin
0 setlinecap
0 0 m
4 0 l
gsave
0.000 setgray
fill
grestore
stroke
grestore
} bind def
256.929 95.6667 o
grestore
gsave
/o {
gsave
newpath
translate
0.5 setlinewidth
1 setlinejoin
0 setlinecap
0 0 m
-4 0 l
gsave
0.000 setgray
fill
grestore
stroke
grestore
} bind def
414.014 95.6667 o
grestore
gsave
241.350781 92.908854 translate
0.000000 rotate
0.000000 0.000000 m /four glyphshow
6.362305 0.000000 m /zero glyphshow
grestore
gsave
/o {
gsave
newpath
translate
0.5 setlinewidth
1 setlinejoin
0 setlinecap
0 0 m
4 0 l
gsave
0.000 setgray
fill
grestore
stroke
grestore
} bind def
256.929 124.6 o
grestore
gsave
/o {
gsave
newpath
translate
0.5 setlinewidth
1 setlinejoin
0 setlinecap
0 0 m
-4 0 l
gsave
0.000 setgray
fill
grestore
stroke
grestore
} bind def
414.014 124.6 o
grestore
gsave
241.569531 121.842188 translate
0.000000 rotate
0.000000 0.000000 m /six glyphshow
6.362305 0.000000 m /zero glyphshow
grestore
gsave
234.272656 56.028125 translate
90.000000 rotate
0.000000 0.000000 m /F glyphshow
5.001953 0.000000 m /r glyphshow
8.863281 0.000000 m /e glyphshow
15.015625 0.000000 m /q glyphshow
21.363281 0.000000 m /u glyphshow
27.701172 0.000000 m /e glyphshow
33.853516 0.000000 m /n glyphshow
40.191406 0.000000 m /c glyphshow
45.689453 0.000000 m /y glyphshow
grestore
/BitstreamVeraSans-Roman findfont
12.000 scalefont
setfont
gsave
303.924609 129.600000 translate
0.000000 rotate
0.000000 0.000000 m /t glyphshow
4.705078 0.000000 m /space glyphshow
8.519531 0.000000 m /equal glyphshow
18.574219 0.000000 m /space glyphshow
22.388672 0.000000 m /three glyphshow
30.023438 0.000000 m /zero glyphshow
37.658203 0.000000 m /space glyphshow
41.472656 0.000000 m /m glyphshow
53.162109 0.000000 m /i glyphshow
56.496094 0.000000 m /n glyphshow
grestore

end
showpage
