%!PS-Adobe-3.0 EPSF-3.0
%%Title: JointDistribution.eps
%%Creator: matplotlib version 1.4.3, http://matplotlib.org/
%%CreationDate: Sun Dec 13 23:43:57 2015
%%Orientation: portrait
%%BoundingBox: 90 252 522 540
%%EndComments
%%BeginProlog
/mpldict 8 dict def
mpldict begin
/m { moveto } bind def
/l { lineto } bind def
/r { rlineto } bind def
/c { curveto } bind def
/cl { closepath } bind def
/box {
m
1 index 0 r
0 exch r
neg 0 r
cl
} bind def
/clipbox {
box
clip
newpath
} bind def
%!PS-Adobe-3.0 Resource-Font
%%Title: Bitstream Vera Sans
%%Copyright: Copyright (c) 2003 by Bitstream, Inc. All Rights Reserved.
%%Creator: Converted from TrueType to type 3 by PPR
25 dict begin
/_d{bind def}bind def
/_m{moveto}_d
/_l{lineto}_d
/_cl{closepath eofill}_d
/_c{curveto}_d
/_sc{7 -1 roll{setcachedevice}{pop pop pop pop pop pop}ifelse}_d
/_e{exec}_d
/FontName /BitstreamVeraSans-Roman def
/PaintType 0 def
/FontMatrix[.001 0 0 .001 0 0]def
/FontBBox[-183 -236 1287 928]def
/FontType 3 def
/Encoding [ /space /parenleft /parenright /period /zero /one /two /three /four /five /six /eight /nine /L /P /R /W /a /b /c /d /e /i /j /k /l /m /n /o /r /s /t /u /minus ] def
/FontInfo 10 dict dup begin
/FamilyName (Bitstream Vera Sans) def
/FullName (Bitstream Vera Sans) def
/Notice (Copyright (c) 2003 by Bitstream, Inc. All Rights Reserved. Bitstream Vera is a trademark of Bitstream, Inc.) def
/Weight (Roman) def
/Version (Release 1.10) def
/ItalicAngle 0.0 def
/isFixedPitch false def
/UnderlinePosition -213 def
/UnderlineThickness 143 def
end readonly def
/CharStrings 34 dict dup begin
/space{318 0 0 0 0 0 _sc
}_d
/parenleft{390 0 86 -131 310 759 _sc
310 759 _m
266 683 234 609 213 536 _c
191 463 181 389 181 314 _c
181 238 191 164 213 91 _c
234 17 266 -56 310 -131 _c
232 -131 _l
183 -54 146 20 122 94 _c
98 168 86 241 86 314 _c
86 386 98 459 122 533 _c
146 607 182 682 232 759 _c
310 759 _l
_cl}_d
/parenright{390 0 80 -131 304 759 _sc
80 759 _m
158 759 _l
206 682 243 607 267 533 _c
291 459 304 386 304 314 _c
304 241 291 168 267 94 _c
243 20 206 -54 158 -131 _c
80 -131 _l
123 -56 155 17 177 91 _c
198 164 209 238 209 314 _c
209 389 198 463 177 536 _c
155 609 123 683 80 759 _c
_cl}_d
/period{318 0 107 0 210 124 _sc
107 124 _m
210 124 _l
210 0 _l
107 0 _l
107 124 _l
_cl}_d
/zero{636 0 66 -13 570 742 _sc
318 664 _m
267 664 229 639 203 589 _c
177 539 165 464 165 364 _c
165 264 177 189 203 139 _c
229 89 267 64 318 64 _c
369 64 407 89 433 139 _c
458 189 471 264 471 364 _c
471 464 458 539 433 589 _c
407 639 369 664 318 664 _c
318 742 _m
399 742 461 709 505 645 _c
548 580 570 486 570 364 _c
570 241 548 147 505 83 _c
461 19 399 -13 318 -13 _c
236 -13 173 19 130 83 _c
87 147 66 241 66 364 _c
66 486 87 580 130 645 _c
173 709 236 742 318 742 _c
_cl}_d
/one{636 0 110 0 544 729 _sc
124 83 _m
285 83 _l
285 639 _l
110 604 _l
110 694 _l
284 729 _l
383 729 _l
383 83 _l
544 83 _l
544 0 _l
124 0 _l
124 83 _l
_cl}_d
/two{{636 0 73 0 536 742 _sc
192 83 _m
536 83 _l
536 0 _l
73 0 _l
73 83 _l
110 121 161 173 226 239 _c
290 304 331 346 348 365 _c
380 400 402 430 414 455 _c
426 479 433 504 433 528 _c
433 566 419 598 392 622 _c
365 646 330 659 286 659 _c
255 659 222 653 188 643 _c
154 632 117 616 78 594 _c
78 694 _l
118 710 155 722 189 730 _c
223 738 255 742 284 742 _c
}_e{359 742 419 723 464 685 _c
509 647 532 597 532 534 _c
532 504 526 475 515 449 _c
504 422 484 390 454 354 _c
446 344 420 317 376 272 _c
332 227 271 164 192 83 _c
_cl}_e}_d
/three{{636 0 76 -13 556 742 _sc
406 393 _m
453 383 490 362 516 330 _c
542 298 556 258 556 212 _c
556 140 531 84 482 45 _c
432 6 362 -13 271 -13 _c
240 -13 208 -10 176 -4 _c
144 1 110 10 76 22 _c
76 117 _l
103 101 133 89 166 81 _c
198 73 232 69 268 69 _c
330 69 377 81 409 105 _c
441 129 458 165 458 212 _c
458 254 443 288 413 312 _c
383 336 341 349 287 349 _c
}_e{202 349 _l
202 430 _l
291 430 _l
339 430 376 439 402 459 _c
428 478 441 506 441 543 _c
441 580 427 609 401 629 _c
374 649 336 659 287 659 _c
260 659 231 656 200 650 _c
169 644 135 635 98 623 _c
98 711 _l
135 721 170 729 203 734 _c
235 739 266 742 296 742 _c
370 742 429 725 473 691 _c
517 657 539 611 539 553 _c
539 513 527 479 504 451 _c
481 423 448 403 406 393 _c
_cl}_e}_d
/four{636 0 49 0 580 729 _sc
378 643 _m
129 254 _l
378 254 _l
378 643 _l
352 729 _m
476 729 _l
476 254 _l
580 254 _l
580 172 _l
476 172 _l
476 0 _l
378 0 _l
378 172 _l
49 172 _l
49 267 _l
352 729 _l
_cl}_d
/five{{636 0 77 -13 549 729 _sc
108 729 _m
495 729 _l
495 646 _l
198 646 _l
198 467 _l
212 472 227 476 241 478 _c
255 480 270 482 284 482 _c
365 482 429 459 477 415 _c
525 370 549 310 549 234 _c
549 155 524 94 475 51 _c
426 8 357 -13 269 -13 _c
238 -13 207 -10 175 -6 _c
143 -1 111 6 77 17 _c
77 116 _l
106 100 136 88 168 80 _c
199 72 232 69 267 69 _c
}_e{323 69 368 83 401 113 _c
433 143 450 183 450 234 _c
450 284 433 324 401 354 _c
368 384 323 399 267 399 _c
241 399 214 396 188 390 _c
162 384 135 375 108 363 _c
108 729 _l
_cl}_e}_d
/six{{636 0 70 -13 573 742 _sc
330 404 _m
286 404 251 388 225 358 _c
199 328 186 286 186 234 _c
186 181 199 139 225 109 _c
251 79 286 64 330 64 _c
374 64 409 79 435 109 _c
461 139 474 181 474 234 _c
474 286 461 328 435 358 _c
409 388 374 404 330 404 _c
526 713 _m
526 623 _l
501 635 476 644 451 650 _c
425 656 400 659 376 659 _c
310 659 260 637 226 593 _c
}_e{192 549 172 482 168 394 _c
187 422 211 444 240 459 _c
269 474 301 482 336 482 _c
409 482 467 459 509 415 _c
551 371 573 310 573 234 _c
573 159 550 99 506 54 _c
462 9 403 -13 330 -13 _c
246 -13 181 19 137 83 _c
92 147 70 241 70 364 _c
70 479 97 571 152 639 _c
206 707 280 742 372 742 _c
396 742 421 739 447 735 _c
472 730 498 723 526 713 _c
_cl}_e}_d
/eight{{636 0 68 -13 568 742 _sc
318 346 _m
271 346 234 333 207 308 _c
180 283 167 249 167 205 _c
167 161 180 126 207 101 _c
234 76 271 64 318 64 _c
364 64 401 76 428 102 _c
455 127 469 161 469 205 _c
469 249 455 283 429 308 _c
402 333 365 346 318 346 _c
219 388 _m
177 398 144 418 120 447 _c
96 476 85 511 85 553 _c
85 611 105 657 147 691 _c
188 725 245 742 318 742 _c
}_e{390 742 447 725 489 691 _c
530 657 551 611 551 553 _c
551 511 539 476 515 447 _c
491 418 459 398 417 388 _c
464 377 501 355 528 323 _c
554 291 568 251 568 205 _c
568 134 546 80 503 43 _c
459 5 398 -13 318 -13 _c
237 -13 175 5 132 43 _c
89 80 68 134 68 205 _c
68 251 81 291 108 323 _c
134 355 171 377 219 388 _c
183 544 _m
183 506 194 476 218 455 _c
}_e{242 434 275 424 318 424 _c
360 424 393 434 417 455 _c
441 476 453 506 453 544 _c
453 582 441 611 417 632 _c
393 653 360 664 318 664 _c
275 664 242 653 218 632 _c
194 611 183 582 183 544 _c
_cl}_e}_d
/nine{{636 0 63 -13 566 742 _sc
110 15 _m
110 105 _l
134 93 159 84 185 78 _c
210 72 235 69 260 69 _c
324 69 374 90 408 134 _c
442 178 462 244 468 334 _c
448 306 424 284 396 269 _c
367 254 335 247 300 247 _c
226 247 168 269 126 313 _c
84 357 63 417 63 494 _c
63 568 85 628 129 674 _c
173 719 232 742 306 742 _c
390 742 455 709 499 645 _c
543 580 566 486 566 364 _c
}_e{566 248 538 157 484 89 _c
429 21 356 -13 264 -13 _c
239 -13 214 -10 189 -6 _c
163 -2 137 5 110 15 _c
306 324 _m
350 324 385 339 411 369 _c
437 399 450 441 450 494 _c
450 546 437 588 411 618 _c
385 648 350 664 306 664 _c
262 664 227 648 201 618 _c
175 588 162 546 162 494 _c
162 441 175 399 201 369 _c
227 339 262 324 306 324 _c
_cl}_e}_d
/L{557 0 98 0 552 729 _sc
98 729 _m
197 729 _l
197 83 _l
552 83 _l
552 0 _l
98 0 _l
98 729 _l
_cl}_d
/P{603 0 98 0 569 729 _sc
197 648 _m
197 374 _l
321 374 _l
367 374 402 385 427 409 _c
452 433 465 467 465 511 _c
465 555 452 588 427 612 _c
402 636 367 648 321 648 _c
197 648 _l
98 729 _m
321 729 _l
402 729 464 710 506 673 _c
548 636 569 582 569 511 _c
569 439 548 384 506 348 _c
464 311 402 293 321 293 _c
197 293 _l
197 0 _l
98 0 _l
98 729 _l
_cl}_d
/R{{695 0 98 0 666 729 _sc
444 342 _m
465 334 486 319 506 296 _c
526 272 546 240 566 199 _c
666 0 _l
560 0 _l
467 187 _l
443 235 419 268 397 284 _c
374 300 343 308 304 308 _c
197 308 _l
197 0 _l
98 0 _l
98 729 _l
321 729 _l
404 729 466 711 507 677 _c
548 642 569 589 569 519 _c
569 473 558 434 537 404 _c
515 374 484 353 444 342 _c
197 648 _m
197 389 _l
321 389 _l
}_e{368 389 404 400 428 422 _c
452 444 465 476 465 519 _c
465 561 452 593 428 615 _c
404 637 368 648 321 648 _c
197 648 _l
_cl}_e}_d
/W{989 0 33 0 956 729 _sc
33 729 _m
133 729 _l
286 113 _l
439 729 _l
550 729 _l
703 113 _l
856 729 _l
956 729 _l
773 0 _l
649 0 _l
495 633 _l
340 0 _l
216 0 _l
33 729 _l
_cl}_d
/a{{613 0 60 -13 522 560 _sc
343 275 _m
270 275 220 266 192 250 _c
164 233 150 205 150 165 _c
150 133 160 107 181 89 _c
202 70 231 61 267 61 _c
317 61 357 78 387 114 _c
417 149 432 196 432 255 _c
432 275 _l
343 275 _l
522 312 _m
522 0 _l
432 0 _l
432 83 _l
411 49 385 25 355 10 _c
325 -5 287 -13 243 -13 _c
187 -13 142 2 109 33 _c
76 64 60 106 60 159 _c
}_e{60 220 80 266 122 298 _c
163 329 224 345 306 345 _c
432 345 _l
432 354 _l
432 395 418 427 391 450 _c
364 472 326 484 277 484 _c
245 484 215 480 185 472 _c
155 464 127 453 100 439 _c
100 522 _l
132 534 164 544 195 550 _c
226 556 256 560 286 560 _c
365 560 424 539 463 498 _c
502 457 522 395 522 312 _c
_cl}_e}_d
/b{{635 0 91 -13 580 760 _sc
487 273 _m
487 339 473 390 446 428 _c
418 466 381 485 334 485 _c
286 485 249 466 222 428 _c
194 390 181 339 181 273 _c
181 207 194 155 222 117 _c
249 79 286 61 334 61 _c
381 61 418 79 446 117 _c
473 155 487 207 487 273 _c
181 464 _m
199 496 223 520 252 536 _c
281 552 316 560 356 560 _c
422 560 476 533 518 481 _c
559 428 580 359 580 273 _c
}_e{580 187 559 117 518 65 _c
476 13 422 -13 356 -13 _c
316 -13 281 -5 252 10 _c
223 25 199 49 181 82 _c
181 0 _l
91 0 _l
91 760 _l
181 760 _l
181 464 _l
_cl}_e}_d
/c{{550 0 55 -13 488 560 _sc
488 526 _m
488 442 _l
462 456 437 466 411 473 _c
385 480 360 484 334 484 _c
276 484 230 465 198 428 _c
166 391 150 339 150 273 _c
150 206 166 154 198 117 _c
230 80 276 62 334 62 _c
360 62 385 65 411 72 _c
437 79 462 90 488 104 _c
488 21 _l
462 9 436 0 410 -5 _c
383 -10 354 -13 324 -13 _c
242 -13 176 12 128 64 _c
}_e{79 115 55 185 55 273 _c
55 362 79 432 128 483 _c
177 534 244 560 330 560 _c
358 560 385 557 411 551 _c
437 545 463 537 488 526 _c
_cl}_e}_d
/d{{635 0 55 -13 544 760 _sc
454 464 _m
454 760 _l
544 760 _l
544 0 _l
454 0 _l
454 82 _l
435 49 411 25 382 10 _c
353 -5 319 -13 279 -13 _c
213 -13 159 13 117 65 _c
75 117 55 187 55 273 _c
55 359 75 428 117 481 _c
159 533 213 560 279 560 _c
319 560 353 552 382 536 _c
411 520 435 496 454 464 _c
148 273 _m
148 207 161 155 188 117 _c
215 79 253 61 301 61 _c
}_e{348 61 385 79 413 117 _c
440 155 454 207 454 273 _c
454 339 440 390 413 428 _c
385 466 348 485 301 485 _c
253 485 215 466 188 428 _c
161 390 148 339 148 273 _c
_cl}_e}_d
/e{{615 0 55 -13 562 560 _sc
562 296 _m
562 252 _l
149 252 _l
153 190 171 142 205 110 _c
238 78 284 62 344 62 _c
378 62 412 66 444 74 _c
476 82 509 95 541 113 _c
541 28 _l
509 14 476 3 442 -3 _c
408 -9 373 -13 339 -13 _c
251 -13 182 12 131 62 _c
80 112 55 181 55 268 _c
55 357 79 428 127 481 _c
175 533 241 560 323 560 _c
397 560 455 536 498 489 _c
}_e{540 441 562 377 562 296 _c
472 322 _m
471 371 457 410 431 440 _c
404 469 368 484 324 484 _c
274 484 234 469 204 441 _c
174 413 156 373 152 322 _c
472 322 _l
_cl}_e}_d
/i{278 0 94 0 184 760 _sc
94 547 _m
184 547 _l
184 0 _l
94 0 _l
94 547 _l
94 760 _m
184 760 _l
184 646 _l
94 646 _l
94 760 _l
_cl}_d
/j{278 0 -17 -207 184 760 _sc
94 547 _m
184 547 _l
184 -9 _l
184 -78 170 -128 144 -160 _c
117 -191 74 -207 16 -207 _c
-17 -207 _l
-17 -131 _l
6 -131 _l
40 -131 63 -123 75 -107 _c
87 -91 94 -58 94 -9 _c
94 547 _l
94 760 _m
184 760 _l
184 646 _l
94 646 _l
94 760 _l
_cl}_d
/k{579 0 91 0 576 760 _sc
91 760 _m
181 760 _l
181 311 _l
449 547 _l
564 547 _l
274 291 _l
576 0 _l
459 0 _l
181 267 _l
181 0 _l
91 0 _l
91 760 _l
_cl}_d
/l{278 0 94 0 184 760 _sc
94 760 _m
184 760 _l
184 0 _l
94 0 _l
94 760 _l
_cl}_d
/m{{974 0 91 0 889 560 _sc
520 442 _m
542 482 569 511 600 531 _c
631 550 668 560 711 560 _c
767 560 811 540 842 500 _c
873 460 889 403 889 330 _c
889 0 _l
799 0 _l
799 327 _l
799 379 789 418 771 444 _c
752 469 724 482 686 482 _c
639 482 602 466 575 435 _c
548 404 535 362 535 309 _c
535 0 _l
445 0 _l
445 327 _l
445 379 435 418 417 444 _c
398 469 369 482 331 482 _c
}_e{285 482 248 466 221 435 _c
194 404 181 362 181 309 _c
181 0 _l
91 0 _l
91 547 _l
181 547 _l
181 462 _l
201 495 226 520 255 536 _c
283 552 317 560 357 560 _c
397 560 430 550 458 530 _c
486 510 506 480 520 442 _c
_cl}_e}_d
/n{634 0 91 0 549 560 _sc
549 330 _m
549 0 _l
459 0 _l
459 327 _l
459 379 448 417 428 443 _c
408 469 378 482 338 482 _c
289 482 251 466 223 435 _c
195 404 181 362 181 309 _c
181 0 _l
91 0 _l
91 547 _l
181 547 _l
181 462 _l
202 494 227 519 257 535 _c
286 551 320 560 358 560 _c
420 560 468 540 500 501 _c
532 462 549 405 549 330 _c
_cl}_d
/o{612 0 55 -13 557 560 _sc
306 484 _m
258 484 220 465 192 427 _c
164 389 150 338 150 273 _c
150 207 163 156 191 118 _c
219 80 257 62 306 62 _c
354 62 392 80 420 118 _c
448 156 462 207 462 273 _c
462 337 448 389 420 427 _c
392 465 354 484 306 484 _c
306 560 _m
384 560 445 534 490 484 _c
534 433 557 363 557 273 _c
557 183 534 113 490 63 _c
445 12 384 -13 306 -13 _c
227 -13 165 12 121 63 _c
77 113 55 183 55 273 _c
55 363 77 433 121 484 _c
165 534 227 560 306 560 _c
_cl}_d
/r{411 0 91 0 411 560 _sc
411 463 _m
401 469 390 473 378 476 _c
366 478 353 480 339 480 _c
288 480 249 463 222 430 _c
194 397 181 350 181 288 _c
181 0 _l
91 0 _l
91 547 _l
181 547 _l
181 462 _l
199 495 224 520 254 536 _c
284 552 321 560 365 560 _c
371 560 378 559 386 559 _c
393 558 401 557 411 555 _c
411 463 _l
_cl}_d
/s{{521 0 54 -13 472 560 _sc
443 531 _m
443 446 _l
417 458 391 468 364 475 _c
336 481 308 485 279 485 _c
234 485 200 478 178 464 _c
156 450 145 430 145 403 _c
145 382 153 366 169 354 _c
185 342 217 330 265 320 _c
296 313 _l
360 299 405 279 432 255 _c
458 230 472 195 472 151 _c
472 100 452 60 412 31 _c
372 1 316 -13 246 -13 _c
216 -13 186 -10 154 -5 _c
}_e{122 0 89 8 54 20 _c
54 113 _l
87 95 120 82 152 74 _c
184 65 216 61 248 61 _c
290 61 323 68 346 82 _c
368 96 380 117 380 144 _c
380 168 371 187 355 200 _c
339 213 303 226 247 238 _c
216 245 _l
160 257 119 275 95 299 _c
70 323 58 356 58 399 _c
58 450 76 490 112 518 _c
148 546 200 560 268 560 _c
301 560 332 557 362 552 _c
391 547 418 540 443 531 _c
}_e{_cl}_e}_d
/t{392 0 27 0 368 702 _sc
183 702 _m
183 547 _l
368 547 _l
368 477 _l
183 477 _l
183 180 _l
183 135 189 106 201 94 _c
213 81 238 75 276 75 _c
368 75 _l
368 0 _l
276 0 _l
206 0 158 13 132 39 _c
106 65 93 112 93 180 _c
93 477 _l
27 477 _l
27 547 _l
93 547 _l
93 702 _l
183 702 _l
_cl}_d
/u{634 0 85 -13 543 547 _sc
85 216 _m
85 547 _l
175 547 _l
175 219 _l
175 167 185 129 205 103 _c
225 77 255 64 296 64 _c
344 64 383 79 411 110 _c
439 141 453 183 453 237 _c
453 547 _l
543 547 _l
543 0 _l
453 0 _l
453 84 _l
431 50 405 26 377 10 _c
348 -5 315 -13 277 -13 _c
214 -13 166 6 134 45 _c
101 83 85 140 85 216 _c
_cl}_d
/minus{838 0 106 272 732 355 _sc
106 355 _m
732 355 _l
732 272 _l
106 272 _l
106 355 _l
_cl}_d
end readonly def

/BuildGlyph
 {exch begin
 CharStrings exch
 2 copy known not{pop /.notdef}if
 true 3 1 roll get exec
 end}_d

/BuildChar {
 1 index /Encoding get exch get
 1 index /BuildGlyph get exec
}_d

FontName currentdict end definefont pop
end
%%EndProlog
mpldict begin
90 252 translate
432 288 0 0 clipbox
gsave
0 0 m
432 0 l
432 288 l
0 288 l
cl
1.000 setgray
fill
grestore
gsave
54 36 m
388.8 36 l
388.8 259.2 l
54 259.2 l
cl
1.000 setgray
fill
grestore
0.500 setlinewidth
1 setlinejoin
0 setlinecap
[] 0 setdash
0.000 0.000 1.000 setrgbcolor
gsave
334.8 223.2 54 36 clipbox
/o {
gsave
newpath
translate
0.5 setlinewidth
1 setlinejoin
0 setlinecap
0 -1.5 m
0.397805 -1.5 0.77937 -1.34195 1.06066 -1.06066 c
1.34195 -0.77937 1.5 -0.397805 1.5 0 c
1.5 0.397805 1.34195 0.77937 1.06066 1.06066 c
0.77937 1.34195 0.397805 1.5 0 1.5 c
-0.397805 1.5 -0.77937 1.34195 -1.06066 1.06066 c
-1.34195 0.77937 -1.5 0.397805 -1.5 0 c
-1.5 -0.397805 -1.34195 -0.77937 -1.06066 -1.06066 c
-0.77937 -1.34195 -0.397805 -1.5 0 -1.5 c
cl
gsave
0.000 0.000 1.000 setrgbcolor
fill
grestore
stroke
grestore
} bind def
172.913 200.376 o
149.61 212.231 o
159.36 208.532 o
162.755 206.67 o
172.27 204.462 o
155.012 215.809 o
176.211 202.261 o
115.472 226.745 o
159.391 205.428 o
165.884 195.782 o
151.225 216.734 o
223.591 176.187 o
190.264 198.754 o
173.302 205.471 o
231.439 171.596 o
145.967 218.121 o
225.656 172.392 o
208.408 186.459 o
203.635 186.719 o
170.228 203.099 o
163.581 205.066 o
95.0734 243.707 o
198.479 187.374 o
163.709 210.51 o
138.323 218.209 o
143.752 209.442 o
144.565 212.65 o
160.884 209.132 o
213.745 179.154 o
158.17 201.508 o
119.703 226.041 o
123.855 215.765 o
185.945 190.247 o
154.715 209.589 o
237.78 162.705 o
98.362 239.306 o
149.813 216.931 o
175.628 196.717 o
194.911 193.807 o
162.446 206.7 o
166.044 197.91 o
133.308 219.308 o
166.476 201.065 o
165.429 206.053 o
141.112 213.612 o
142.956 217.295 o
167.638 198.316 o
194.997 189.089 o
185.778 191.841 o
166.802 206.667 o
185.157 198.182 o
190.03 195.649 o
233.66 175.242 o
186.403 183.734 o
192.02 197.515 o
174.777 208.765 o
174.78 202.176 o
153.863 203.999 o
180.846 196.876 o
163.252 207.94 o
211.542 189.732 o
181.463 190.485 o
205.668 190.823 o
164.08 207.171 o
206.27 187.081 o
174.012 199.705 o
171.538 200.248 o
167.652 206.007 o
152.139 209.616 o
183.041 197.172 o
135.141 217.101 o
171.461 199.317 o
136.385 221.09 o
120.432 226.118 o
148.086 213.343 o
188.523 196.707 o
229.173 169.931 o
191.618 189.117 o
159.072 208.198 o
169.038 203.94 o
116.401 228.367 o
123.945 220.764 o
214.979 181.907 o
174.021 198.797 o
189.648 191.002 o
246.968 169.675 o
148.482 211.787 o
233.973 181.139 o
127.994 224.082 o
205.186 184.466 o
163.919 194.18 o
150.865 211.38 o
208.898 181.136 o
134.393 223.052 o
142.614 216.194 o
163.029 199.055 o
150.519 207.277 o
150.39 211.279 o
194.769 182.333 o
157.359 209.987 o
193.095 187.894 o
157.269 202.25 o
147.884 212.858 o
148.36 208.739 o
159.934 205.702 o
185.277 190.631 o
202.581 188.03 o
205.854 186.323 o
180.721 191.991 o
166.228 207.773 o
136.133 218.507 o
175.348 196.668 o
134.764 216.83 o
201.207 189.886 o
116.613 221.806 o
170.769 204.31 o
205.113 182.694 o
138.942 211.604 o
182.765 200.239 o
148.844 208.135 o
173.874 199.202 o
190.303 196.93 o
194.128 189.874 o
178.424 197.999 o
144.101 216.75 o
173.058 203.315 o
159.627 211.937 o
225.806 181.226 o
164.767 196.903 o
172.605 197.701 o
158.326 203.327 o
203.384 190.087 o
183.803 193.975 o
181.833 191.55 o
165.06 208.823 o
166.612 205.561 o
154.107 207.71 o
126.236 217.246 o
136.993 218.216 o
223.229 177.142 o
194.035 187.962 o
160.724 211.199 o
133.514 225.832 o
165.821 198.604 o
189.998 190.602 o
167.936 206.165 o
157.663 206.399 o
137.348 218.375 o
178.332 199.299 o
142.821 219.117 o
168.641 203.269 o
225.865 178.042 o
148.314 207.3 o
171.951 200.022 o
99.2737 239.237 o
113.5 232.723 o
116.716 234.275 o
176.911 200.229 o
112.724 229.825 o
204.325 190.857 o
111.882 232.18 o
191.128 193.688 o
188.958 188.26 o
179.654 199.671 o
140.381 221.287 o
130.59 224.298 o
164.033 209.322 o
143.145 210.556 o
158.549 202.311 o
208.184 184.064 o
156.526 215.385 o
120.789 224.796 o
144.935 214.631 o
170.83 201.597 o
137.323 220.519 o
213.847 178.249 o
168.563 200.072 o
173.399 206.375 o
204.937 184.785 o
245.618 164.945 o
179.54 197.22 o
169.29 206.825 o
177.073 201.069 o
186.247 196.657 o
171.938 200.498 o
151.583 210.378 o
170.803 196.877 o
139.634 210.703 o
130.885 215.308 o
126.547 219.532 o
136.677 214.776 o
150.281 212.032 o
202.098 195.255 o
124.747 223.429 o
156.706 211.322 o
124.338 221.453 o
156.1 205.59 o
151.017 211.682 o
164.494 208.898 o
174.544 201.666 o
155.757 217.79 o
149.768 211.626 o
152.47 214.293 o
187.693 196.532 o
176.783 200.187 o
217.996 172.861 o
138.864 209.854 o
142.386 209.156 o
156.013 208.674 o
140.016 220.319 o
167.819 201.028 o
180.84 194.933 o
125.17 224.402 o
92.2994 240.131 o
200.711 185.143 o
186.731 191.091 o
180.468 199.632 o
120.945 231.576 o
114.362 231.311 o
195.714 189.161 o
112.12 240.239 o
168.93 201.856 o
185.489 191.467 o
140.972 213.845 o
205.504 180.552 o
297.797 132.864 o
176.392 207.981 o
179.554 201.793 o
101.179 238.298 o
171.258 207.282 o
188.344 194.943 o
169.306 205.179 o
145.35 215.082 o
151.675 207.073 o
190.617 200.71 o
128.782 226.354 o
136.892 213.535 o
192.829 186.928 o
168.528 204.022 o
140.298 213.574 o
174.591 201.451 o
200.234 186.177 o
166.878 208.324 o
143.002 209.898 o
169.691 199.084 o
184.786 196.632 o
157.723 205.717 o
215.308 181.024 o
180.582 192.133 o
141.014 216.718 o
171.693 201.883 o
191.966 194.241 o
171.639 200.905 o
185.037 190.328 o
191.11 189.433 o
135.551 220.509 o
154.358 210.546 o
173.24 201.344 o
137.585 221.716 o
155.138 210.706 o
189.768 193.081 o
144.012 215.762 o
148.929 211.46 o
177.177 195.84 o
204.723 183.678 o
158.667 209.446 o
135.487 216.596 o
176.876 201.312 o
171.243 203.742 o
147.147 215.328 o
175.849 194.842 o
170.372 200.635 o
177.298 198.175 o
184.562 191.553 o
186.687 193.921 o
171.985 202.557 o
151.954 214.61 o
176.882 197.162 o
165.355 209.131 o
139.979 220.355 o
156.939 212.589 o
160.991 209.34 o
179.894 196.806 o
161.92 201.786 o
170.919 204.316 o
182.612 195.623 o
132.045 219.077 o
150.503 213.363 o
181.681 198.893 o
145.231 218.061 o
174.682 205.348 o
160.481 211.058 o
166.216 196.109 o
133.487 220.727 o
191.75 190.296 o
181.613 198.48 o
136.973 211.736 o
136.443 222.659 o
159.934 203.738 o
187.058 195.184 o
149.818 211.53 o
181.998 192.886 o
142.061 224.403 o
135.707 217.981 o
157.704 206.816 o
148.373 210.686 o
157.993 208.961 o
203.979 186.938 o
182.453 196.624 o
195.11 193.569 o
187.953 196.553 o
192.335 189.567 o
166.062 199.133 o
157.761 209.99 o
153.585 208.516 o
184.534 197.754 o
137.601 216.246 o
187.697 191.49 o
181.825 197.861 o
171.597 197.933 o
145.564 212.592 o
106.309 232.762 o
116.113 221.157 o
141.992 219.704 o
173.499 206.968 o
190.228 193.77 o
168.832 204.713 o
189.038 192.989 o
217.114 179.183 o
151.269 217.267 o
137.807 222.109 o
151.953 209.592 o
182.783 190.483 o
170.975 201.118 o
114.073 225.83 o
203.788 184.31 o
188.885 196.889 o
132.044 220.121 o
134.134 217.711 o
173.433 207.318 o
179.548 188.971 o
188.38 197.938 o
172.04 200.681 o
145.066 216.527 o
166.108 201.158 o
156.236 215.492 o
210.224 179.97 o
196.388 186.66 o
158.84 205.275 o
162.004 203.42 o
149.406 208.637 o
167.962 201.605 o
151.727 212.875 o
152.141 213.403 o
137.468 223.56 o
136.696 225.017 o
160.872 212.589 o
143.934 209.138 o
152.889 206.932 o
221.144 176.261 o
169.414 201.599 o
160.814 211.801 o
160.282 205.864 o
135.167 219.262 o
190.34 191.379 o
221.239 180.603 o
155.791 209.603 o
153.945 211.884 o
170.542 195.81 o
193.404 187.923 o
177.025 205.27 o
141.046 217.374 o
161.747 206.734 o
159.552 213.996 o
170.04 209.118 o
131.034 227.583 o
208.195 186.044 o
182.242 198.986 o
138.825 221.207 o
134.564 218.657 o
190.43 197.39 o
133.348 215.598 o
167.009 206.292 o
161.965 207.294 o
138.542 215.4 o
149.062 207.91 o
118.429 228.964 o
176.724 190.428 o
146.764 209.216 o
157.309 208.419 o
176.259 200.799 o
157.469 207.911 o
99.4268 233.446 o
155.952 200.899 o
138.984 222.227 o
166.73 201.948 o
136.78 221.692 o
106.252 234.622 o
162.739 206.947 o
127.635 222.536 o
144.478 222.237 o
168.534 200.972 o
150.947 213.108 o
148.31 212.875 o
138.294 220.48 o
174.63 203.031 o
110.827 229.099 o
151.308 211.129 o
161.92 204.165 o
160.407 204.889 o
165.661 209.497 o
153.623 204.395 o
164.219 204.909 o
178.552 190.854 o
150.087 212.412 o
169.225 196.64 o
155.868 209.436 o
143.074 214.371 o
214.597 174.786 o
181.771 193.683 o
200.457 185.942 o
129.665 228.549 o
144.895 212.456 o
132.97 220.541 o
147.542 211.029 o
122.723 226.511 o
103.21 234.334 o
167.182 206.759 o
109.866 223.183 o
143.185 214.868 o
231.91 174.46 o
119.51 222.346 o
158.376 205.515 o
179.875 200.618 o
146.431 209.551 o
94.952 238.644 o
147.088 212.476 o
116.715 223.028 o
174.025 202.96 o
216.593 175.054 o
219.53 179.533 o
156.201 205.368 o
185.108 195.623 o
149.601 212.251 o
151.354 209.141 o
129.247 224.462 o
163.01 208.133 o
163.137 200.802 o
165.837 202.74 o
101.28 233.7 o
159.067 204.328 o
131.423 223.041 o
197.863 187.216 o
119.502 223.247 o
171.316 210.491 o
184.823 197.765 o
142.305 214.052 o
146.535 210.08 o
108.348 236.098 o
163.045 203.726 o
205.088 191.124 o
221.313 179.939 o
201.83 186.936 o
151.66 215.739 o
146 221.978 o
168.539 199.464 o
195.152 189.006 o
152.65 209.93 o
146.034 218.283 o
168.145 200.425 o
193.825 190.35 o
208.833 174.935 o
183.365 192.407 o
198.702 188.215 o
146.371 212.563 o
146.941 206.07 o
108.727 230.685 o
169.837 205.895 o
185.678 200.419 o
198.429 186.872 o
148.054 210.827 o
113.914 234.883 o
123.612 228.062 o
187.038 201.915 o
151.054 217.983 o
128.17 215.221 o
84.1724 247.046 o
117.157 223.799 o
237.853 166.588 o
260.265 155.212 o
128.632 218.382 o
145.054 217.317 o
181.194 205.959 o
187.704 205.767 o
149.261 214.638 o
130.939 221.016 o
172.542 198.458 o
141.047 214.92 o
192.534 188.661 o
82.7153 239.724 o
169.101 200.246 o
131.127 233.868 o
170.423 207.086 o
131.354 225.475 o
174.813 194.789 o
145.204 214.678 o
151.344 212.175 o
150.293 212.211 o
146.793 208.669 o
143.883 218.951 o
260.364 159.663 o
154.116 207.631 o
164.325 201.431 o
117.454 228.345 o
163.969 207.477 o
109.423 236.474 o
184.879 195.824 o
150.868 210.781 o
201.478 183.21 o
138.542 219.338 o
160.345 203.167 o
154.051 211.505 o
127.904 228.975 o
228.388 175.794 o
204.666 185.096 o
161.247 203.475 o
150.616 209.265 o
183.27 195.146 o
187.23 193.484 o
139.646 214.489 o
206.548 185.932 o
177.124 197.956 o
129.908 224.73 o
141.068 216.557 o
146.02 219.655 o
95.7487 244.076 o
163.512 212.216 o
219.636 180.6 o
194.875 193.587 o
141.853 217.816 o
171.063 200.519 o
209.304 177.422 o
176.066 194.838 o
143.765 212.092 o
144.196 218.596 o
143.15 213.348 o
155.463 210.659 o
161.065 207.576 o
147.527 211.068 o
186.835 188.445 o
165.068 210.903 o
134.684 222.076 o
190.099 190.743 o
158.386 207.377 o
155.473 210.449 o
108.513 233.873 o
214.696 181.941 o
203.413 191.213 o
190.283 196.013 o
166.696 203.526 o
141.524 211.063 o
192.774 183.574 o
151.426 213.323 o
129.761 223.163 o
154.266 203.831 o
185.946 188.214 o
166.932 194.438 o
186.818 194.631 o
180.821 190.266 o
176.942 196.274 o
125.319 224.835 o
176.563 200.434 o
130.518 224.972 o
186.402 195.829 o
184.311 192.11 o
155.519 207.998 o
167.176 205.255 o
168.897 198.061 o
246.527 158.93 o
173.686 199.115 o
121.194 224.787 o
176.789 199.308 o
137.265 213.296 o
181.416 196.301 o
110.829 228.712 o
139.618 214.705 o
110.283 235.711 o
174.541 199.704 o
179.258 195.239 o
195.039 187.044 o
196.68 192.918 o
188.402 191.369 o
119.787 227.172 o
157.369 212.727 o
159.651 197.689 o
181.864 200.438 o
177.204 196.495 o
194.968 191.686 o
162.33 204.086 o
165.983 208.105 o
149.434 216.612 o
142.727 219.101 o
172.606 199.243 o
137.159 219.235 o
161.225 204.864 o
128.782 219.575 o
168.602 200.425 o
147.367 214.589 o
99.1084 234.296 o
130.045 216.568 o
139.938 222.772 o
153.85 208.226 o
131.546 216.333 o
79.7412 249.07 o
84.4617 244.084 o
172.346 200.671 o
151.833 209.236 o
178.793 198.837 o
200.565 183.905 o
146.121 213.433 o
165.184 210.761 o
195.225 192.954 o
187.317 189.664 o
228.582 171.026 o
133.299 215.662 o
188.874 194.556 o
142.008 221.059 o
141.021 222.921 o
150.594 208.809 o
180.694 191.115 o
219.851 179.312 o
146.351 212.715 o
103.895 231.997 o
118.027 227.139 o
178.199 198.762 o
168.505 199.126 o
129.604 220.082 o
173.842 199.558 o
126.64 217.035 o
119.709 225.911 o
158.892 209.628 o
151.111 213.343 o
210.772 181.671 o
147.837 216.099 o
179.973 193.934 o
149.816 218.047 o
154.517 210.51 o
119.386 226.525 o
196.148 193.906 o
178.42 196.967 o
148.81 211.384 o
142.277 212.947 o
189.815 196.487 o
185.475 196.653 o
146.724 212.999 o
175.928 194.086 o
150.442 216.407 o
163.32 206.148 o
167.208 205.001 o
130.749 224.669 o
177.999 194.612 o
169.191 196.823 o
135.536 223.605 o
151.198 209.242 o
149.941 217.516 o
156.375 206.623 o
208.702 183.441 o
135.386 216.58 o
129.144 222.272 o
190.77 190.327 o
162.73 200.324 o
171.973 203.938 o
141.522 216.405 o
158.219 210.469 o
110.986 232.398 o
166.027 199.449 o
205.403 191.334 o
143.224 211.452 o
153.854 212.419 o
186.924 194.702 o
114.359 234.044 o
141.461 213.234 o
136.368 223.443 o
189.818 198.711 o
125.713 226.412 o
196.759 188.091 o
163.917 201.82 o
158.999 208.397 o
164.637 199.116 o
188.214 187.952 o
150.169 207.855 o
198.633 187.472 o
147.97 215.256 o
139.248 215.756 o
157.978 206.82 o
139.56 215.524 o
182.861 191.904 o
164.57 204.688 o
158.658 209.132 o
140.79 215.228 o
112.285 225.32 o
182.129 196.243 o
166.094 199.084 o
156.449 201.95 o
136.903 217.074 o
136.158 222.585 o
164.156 199.736 o
209.91 177.406 o
178.279 193.154 o
202.689 178.348 o
123.25 226.202 o
193.513 196.915 o
139.67 220.38 o
187.619 194.924 o
139.694 217.766 o
185.712 198.752 o
146.517 216.417 o
166.705 195.452 o
207.211 187.828 o
170.701 201.206 o
202.275 181.372 o
188.274 193.202 o
154.179 218.237 o
111.369 233.914 o
174.577 197.963 o
187.747 185.202 o
165.691 207.999 o
176.616 200.179 o
210.26 183.516 o
174.583 195.163 o
148.083 211.362 o
186.675 195.236 o
144.894 217.992 o
123.966 217.395 o
151.022 212.562 o
209.189 185.101 o
218.407 180.512 o
152.673 211.131 o
216.521 176.522 o
127.758 225.409 o
122.813 227.566 o
126.896 228.465 o
147.309 208.347 o
158.417 208.32 o
176.366 203.49 o
143.104 223.357 o
143.446 221.46 o
153.393 214.256 o
160.978 209.537 o
130.236 221.754 o
224.994 182.35 o
171.37 201.878 o
163.514 202.946 o
143.218 211.802 o
159.853 207.068 o
172.646 195.578 o
137.444 215.999 o
157.678 211.838 o
176.514 201.82 o
178.866 198.438 o
168.077 206.68 o
189.265 188.05 o
145.719 216.747 o
174.537 200.033 o
188.474 198.339 o
193.911 193.892 o
173.478 196.636 o
198.715 190.528 o
148.407 212.591 o
167.067 203.682 o
172.866 195.103 o
146.16 216.759 o
126.229 220.472 o
145.648 213.86 o
137.108 216.46 o
127.814 221.937 o
157.881 210.097 o
142.547 222.995 o
147.553 219.96 o
140.758 222.16 o
219.063 175.386 o
175.466 203.601 o
137.097 223.641 o
194.833 192.564 o
146.546 203.392 o
122.278 232.798 o
120.355 220.18 o
204.597 186.669 o
176.93 197.304 o
124.967 224.242 o
125.312 230.287 o
143.417 208.514 o
202.148 188.573 o
132.263 215.934 o
140.813 216.372 o
151.05 216.038 o
215.267 181.101 o
166.239 206.045 o
122.708 223.134 o
104.588 235.787 o
185.612 197.162 o
235.815 171.563 o
179.579 192.142 o
181.984 202.713 o
174.546 203.315 o
142.23 218.275 o
164.807 203.384 o
183.066 195.596 o
149.611 204.685 o
163.975 205.127 o
158.249 216.03 o
126.366 226.291 o
192.092 188.283 o
150.232 208.524 o
158.471 213.828 o
201.331 184.292 o
149.927 217.447 o
177.415 193.397 o
156.902 212.095 o
167.117 208.989 o
145.257 212.042 o
210.249 182.358 o
196.17 197.274 o
176.411 201.612 o
172.512 209.595 o
159.642 209.754 o
203.673 183.066 o
162.207 205.171 o
164.865 207.206 o
161.069 208.552 o
182.705 196.995 o
171.668 197.979 o
168.943 204.236 o
119.758 238.65 o
198.583 186.379 o
155.922 215.663 o
201.157 190.401 o
179.199 200.648 o
155.974 208.405 o
162.392 210.947 o
137.956 220.196 o
161.116 208.251 o
119.334 225.83 o
176.335 202.343 o
210.994 178.732 o
178.823 197.319 o
177.618 201.866 o
140.084 213.363 o
171.181 196.059 o
155.533 207.218 o
169.859 203.5 o
196.267 187.983 o
137.178 213.503 o
162.25 204.01 o
168.99 197.872 o
141.179 219.095 o
118.588 218.858 o
172.078 201.718 o
129.117 229.422 o
191.467 185.962 o
131.596 230.819 o
123.956 225.151 o
159.501 208.997 o
201.511 176.951 o
189.427 190.997 o
166.059 204.713 o
199.186 183.334 o
184.462 191.324 o
191.219 180.327 o
169.66 199.786 o
130.44 223.769 o
199.53 185.843 o
190.632 193.142 o
179.576 198.419 o
124.648 217.138 o
138.523 221.143 o
141.085 215.728 o
178.554 202.109 o
168.588 203.769 o
158.314 213.955 o
175.406 195.759 o
145.822 211.908 o
155.944 208.312 o
139.13 213.233 o
112.757 230.176 o
199.394 192.667 o
210.746 178.076 o
153.99 207.598 o
200.805 180.682 o
171.435 210.525 o
212.647 182.574 o
185.332 197.491 o
177.289 197.359 o
131.413 218.01 o
136.222 223.565 o
182.283 191.607 o
176.583 199.904 o
148.337 212.975 o
197.158 184.926 o
183.551 196.74 o
181.149 197.716 o
188.178 193.533 o
201.096 195.414 o
176.404 198.149 o
207.251 177.944 o
173.763 197.266 o
380.031 64.1126 o
152.505 204.337 o
161.725 210.196 o
201.47 184.314 o
131.002 224.775 o
112.002 228.814 o
189.581 197.261 o
190.743 190.851 o
153.729 209.149 o
196.786 184.734 o
176.546 202.305 o
205.387 176.713 o
101.682 231.707 o
170.893 201.241 o
151.797 208.465 o
150.207 207.597 o
160.097 206.161 o
180.56 199.049 o
165.139 202.728 o
189.253 193.474 o
212.26 181.798 o
151.538 209.316 o
207.375 187.757 o
199.634 187.611 o
159.872 199.039 o
273.64 128.654 o
160.959 210.602 o
155.796 204.248 o
139.801 218.301 o
163.212 202.335 o
166.843 207.73 o
202.317 180.996 o
123.26 224.828 o
142.702 215.616 o
176.08 203.333 o
168.398 205.075 o
158.054 215.051 o
188.513 186.991 o
128.608 219.145 o
197.511 187.471 o
171.668 203.047 o
147.339 217.232 o
168.95 203.106 o
182.42 198.713 o
148.676 211.304 o
135.828 219.319 o
181.562 195.223 o
158.464 208.526 o
194.361 189.637 o
164.43 199.353 o
176.77 201.926 o
170.904 201.312 o
173.038 199.118 o
187.295 202.089 o
113.42 222.228 o
158.087 213.709 o
184.641 189.065 o
137.605 212.676 o
185.264 198.94 o
190.693 194.78 o
155.794 209.426 o
218.492 181.089 o
208.226 183.128 o
156.62 206.432 o
176.093 195.922 o
228.263 172.851 o
251.557 137.322 o
166.706 203.715 o
189.617 195.432 o
174.214 190.098 o
192.814 187.959 o
168.416 202.999 o
180.442 193.346 o
155.87 211.44 o
179.623 201.334 o
144.514 209.085 o
108.535 232.524 o
180.808 191.162 o
134.563 222.069 o
159.1 200.217 o
161.593 214.786 o
215.384 183.356 o
187.267 193.666 o
190.842 196.523 o
157.037 206.718 o
147.231 222.506 o
165.21 206.937 o
171.365 201.325 o
187.063 192.96 o
154.492 210.876 o
180.512 200.32 o
186.651 193.983 o
142.905 209.727 o
146.245 214.534 o
grestore
1.000 setlinewidth
0 setlinejoin
2 setlinecap
0.000 setgray
gsave
54 259.2 m
388.8 259.2 l
stroke
grestore
gsave
388.8 36 m
388.8 259.2 l
stroke
grestore
gsave
54 36 m
388.8 36 l
stroke
grestore
gsave
54 36 m
54 259.2 l
stroke
grestore
0.500 setlinewidth
1 setlinejoin
0 setlinecap
gsave
/o {
gsave
newpath
translate
0.5 setlinewidth
1 setlinejoin
0 setlinecap
0 0 m
0 4 l
gsave
0.000 setgray
fill
grestore
stroke
grestore
} bind def
54 36 o
grestore
gsave
/o {
gsave
newpath
translate
0.5 setlinewidth
1 setlinejoin
0 setlinecap
0 0 m
0 -4 l
gsave
0.000 setgray
fill
grestore
stroke
grestore
} bind def
54 259.2 o
grestore
/BitstreamVeraSans-Roman findfont
10.000 scalefont
setfont
gsave
36.359375 24.406250 translate
0.000000 rotate
0.000000 0.000000 m /minus glyphshow
8.378906 0.000000 m /zero glyphshow
14.741211 0.000000 m /period glyphshow
17.919922 0.000000 m /zero glyphshow
24.282227 0.000000 m /three glyphshow
30.644531 0.000000 m /zero glyphshow
grestore
gsave
/o {
gsave
newpath
translate
0.5 setlinewidth
1 setlinejoin
0 setlinecap
0 0 m
0 4 l
gsave
0.000 setgray
fill
grestore
stroke
grestore
} bind def
101.829 36 o
grestore
gsave
/o {
gsave
newpath
translate
0.5 setlinewidth
1 setlinejoin
0 setlinecap
0 0 m
0 -4 l
gsave
0.000 setgray
fill
grestore
stroke
grestore
} bind def
101.829 259.2 o
grestore
gsave
84.195759 24.406250 translate
0.000000 rotate
0.000000 0.000000 m /minus glyphshow
8.378906 0.000000 m /zero glyphshow
14.741211 0.000000 m /period glyphshow
17.919922 0.000000 m /zero glyphshow
24.282227 0.000000 m /two glyphshow
30.644531 0.000000 m /eight glyphshow
grestore
gsave
/o {
gsave
newpath
translate
0.5 setlinewidth
1 setlinejoin
0 setlinecap
0 0 m
0 4 l
gsave
0.000 setgray
fill
grestore
stroke
grestore
} bind def
149.657 36 o
grestore
gsave
/o {
gsave
newpath
translate
0.5 setlinewidth
1 setlinejoin
0 setlinecap
0 0 m
0 -4 l
gsave
0.000 setgray
fill
grestore
stroke
grestore
} bind def
149.657 259.2 o
grestore
gsave
132.000893 24.406250 translate
0.000000 rotate
0.000000 0.000000 m /minus glyphshow
8.378906 0.000000 m /zero glyphshow
14.741211 0.000000 m /period glyphshow
17.919922 0.000000 m /zero glyphshow
24.282227 0.000000 m /two glyphshow
30.644531 0.000000 m /six glyphshow
grestore
gsave
/o {
gsave
newpath
translate
0.5 setlinewidth
1 setlinejoin
0 setlinecap
0 0 m
0 4 l
gsave
0.000 setgray
fill
grestore
stroke
grestore
} bind def
197.486 36 o
grestore
gsave
/o {
gsave
newpath
translate
0.5 setlinewidth
1 setlinejoin
0 setlinecap
0 0 m
0 -4 l
gsave
0.000 setgray
fill
grestore
stroke
grestore
} bind def
197.486 259.2 o
grestore
gsave
179.798214 24.406250 translate
0.000000 rotate
0.000000 0.000000 m /minus glyphshow
8.378906 0.000000 m /zero glyphshow
14.741211 0.000000 m /period glyphshow
17.919922 0.000000 m /zero glyphshow
24.282227 0.000000 m /two glyphshow
30.644531 0.000000 m /four glyphshow
grestore
gsave
/o {
gsave
newpath
translate
0.5 setlinewidth
1 setlinejoin
0 setlinecap
0 0 m
0 4 l
gsave
0.000 setgray
fill
grestore
stroke
grestore
} bind def
245.314 36 o
grestore
gsave
/o {
gsave
newpath
translate
0.5 setlinewidth
1 setlinejoin
0 setlinecap
0 0 m
0 -4 l
gsave
0.000 setgray
fill
grestore
stroke
grestore
} bind def
245.314 259.2 o
grestore
gsave
227.845536 24.406250 translate
0.000000 rotate
0.000000 0.000000 m /minus glyphshow
8.378906 0.000000 m /zero glyphshow
14.741211 0.000000 m /period glyphshow
17.919922 0.000000 m /zero glyphshow
24.282227 0.000000 m /two glyphshow
30.644531 0.000000 m /two glyphshow
grestore
gsave
/o {
gsave
newpath
translate
0.5 setlinewidth
1 setlinejoin
0 setlinecap
0 0 m
0 4 l
gsave
0.000 setgray
fill
grestore
stroke
grestore
} bind def
293.143 36 o
grestore
gsave
/o {
gsave
newpath
translate
0.5 setlinewidth
1 setlinejoin
0 setlinecap
0 0 m
0 -4 l
gsave
0.000 setgray
fill
grestore
stroke
grestore
} bind def
293.143 259.2 o
grestore
gsave
275.502232 24.406250 translate
0.000000 rotate
0.000000 0.000000 m /minus glyphshow
8.378906 0.000000 m /zero glyphshow
14.741211 0.000000 m /period glyphshow
17.919922 0.000000 m /zero glyphshow
24.282227 0.000000 m /two glyphshow
30.644531 0.000000 m /zero glyphshow
grestore
gsave
/o {
gsave
newpath
translate
0.5 setlinewidth
1 setlinejoin
0 setlinecap
0 0 m
0 4 l
gsave
0.000 setgray
fill
grestore
stroke
grestore
} bind def
340.971 36 o
grestore
gsave
/o {
gsave
newpath
translate
0.5 setlinewidth
1 setlinejoin
0 setlinecap
0 0 m
0 -4 l
gsave
0.000 setgray
fill
grestore
stroke
grestore
} bind def
340.971 259.2 o
grestore
gsave
323.338616 24.406250 translate
0.000000 rotate
0.000000 0.000000 m /minus glyphshow
8.378906 0.000000 m /zero glyphshow
14.741211 0.000000 m /period glyphshow
17.919922 0.000000 m /zero glyphshow
24.282227 0.000000 m /one glyphshow
30.644531 0.000000 m /eight glyphshow
grestore
gsave
/o {
gsave
newpath
translate
0.5 setlinewidth
1 setlinejoin
0 setlinecap
0 0 m
0 4 l
gsave
0.000 setgray
fill
grestore
stroke
grestore
} bind def
388.8 36 o
grestore
gsave
/o {
gsave
newpath
translate
0.5 setlinewidth
1 setlinejoin
0 setlinecap
0 0 m
0 -4 l
gsave
0.000 setgray
fill
grestore
stroke
grestore
} bind def
388.8 259.2 o
grestore
gsave
371.143750 24.406250 translate
0.000000 rotate
0.000000 0.000000 m /minus glyphshow
8.378906 0.000000 m /zero glyphshow
14.741211 0.000000 m /period glyphshow
17.919922 0.000000 m /zero glyphshow
24.282227 0.000000 m /one glyphshow
30.644531 0.000000 m /six glyphshow
grestore
gsave
170.392188 9.734375 translate
0.000000 rotate
0.000000 0.000000 m /space glyphshow
3.178711 0.000000 m /W glyphshow
12.816406 0.000000 m /i glyphshow
15.594727 0.000000 m /n glyphshow
21.932617 0.000000 m /d glyphshow
28.280273 0.000000 m /space glyphshow
31.458984 0.000000 m /d glyphshow
37.806641 0.000000 m /i glyphshow
40.584961 0.000000 m /r glyphshow
44.446289 0.000000 m /e glyphshow
50.598633 0.000000 m /c glyphshow
56.096680 0.000000 m /t glyphshow
60.017578 0.000000 m /i glyphshow
62.795898 0.000000 m /o glyphshow
68.914062 0.000000 m /n glyphshow
75.251953 0.000000 m /space glyphshow
78.430664 0.000000 m /parenleft glyphshow
82.332031 0.000000 m /r glyphshow
86.443359 0.000000 m /a glyphshow
92.571289 0.000000 m /d glyphshow
98.918945 0.000000 m /parenright glyphshow
grestore
gsave
/o {
gsave
newpath
translate
0.5 setlinewidth
1 setlinejoin
0 setlinecap
0 0 m
4 0 l
gsave
0.000 setgray
fill
grestore
stroke
grestore
} bind def
54 36 o
grestore
gsave
/o {
gsave
newpath
translate
0.5 setlinewidth
1 setlinejoin
0 setlinecap
0 0 m
-4 0 l
gsave
0.000 setgray
fill
grestore
stroke
grestore
} bind def
388.8 36 o
grestore
gsave
21.296875 33.242188 translate
0.000000 rotate
0.000000 0.000000 m /minus glyphshow
8.378906 0.000000 m /one glyphshow
14.741211 0.000000 m /period glyphshow
17.919922 0.000000 m /three glyphshow
24.282227 0.000000 m /five glyphshow
grestore
gsave
/o {
gsave
newpath
translate
0.5 setlinewidth
1 setlinejoin
0 setlinecap
0 0 m
4 0 l
gsave
0.000 setgray
fill
grestore
stroke
grestore
} bind def
54 67.8857 o
grestore
gsave
/o {
gsave
newpath
translate
0.5 setlinewidth
1 setlinejoin
0 setlinecap
0 0 m
-4 0 l
gsave
0.000 setgray
fill
grestore
stroke
grestore
} bind def
388.8 67.8857 o
grestore
gsave
20.984375 65.127902 translate
0.000000 rotate
0.000000 0.000000 m /minus glyphshow
8.378906 0.000000 m /one glyphshow
14.741211 0.000000 m /period glyphshow
17.919922 0.000000 m /three glyphshow
24.282227 0.000000 m /four glyphshow
grestore
gsave
/o {
gsave
newpath
translate
0.5 setlinewidth
1 setlinejoin
0 setlinecap
0 0 m
4 0 l
gsave
0.000 setgray
fill
grestore
stroke
grestore
} bind def
54 99.7714 o
grestore
gsave
/o {
gsave
newpath
translate
0.5 setlinewidth
1 setlinejoin
0 setlinecap
0 0 m
-4 0 l
gsave
0.000 setgray
fill
grestore
stroke
grestore
} bind def
388.8 99.7714 o
grestore
gsave
21.218750 97.013616 translate
0.000000 rotate
0.000000 0.000000 m /minus glyphshow
8.378906 0.000000 m /one glyphshow
14.741211 0.000000 m /period glyphshow
17.919922 0.000000 m /three glyphshow
24.282227 0.000000 m /three glyphshow
grestore
gsave
/o {
gsave
newpath
translate
0.5 setlinewidth
1 setlinejoin
0 setlinecap
0 0 m
4 0 l
gsave
0.000 setgray
fill
grestore
stroke
grestore
} bind def
54 131.657 o
grestore
gsave
/o {
gsave
newpath
translate
0.5 setlinewidth
1 setlinejoin
0 setlinecap
0 0 m
-4 0 l
gsave
0.000 setgray
fill
grestore
stroke
grestore
} bind def
388.8 131.657 o
grestore
gsave
21.421875 128.899330 translate
0.000000 rotate
0.000000 0.000000 m /minus glyphshow
8.378906 0.000000 m /one glyphshow
14.741211 0.000000 m /period glyphshow
17.919922 0.000000 m /three glyphshow
24.282227 0.000000 m /two glyphshow
grestore
gsave
/o {
gsave
newpath
translate
0.5 setlinewidth
1 setlinejoin
0 setlinecap
0 0 m
4 0 l
gsave
0.000 setgray
fill
grestore
stroke
grestore
} bind def
54 163.543 o
grestore
gsave
/o {
gsave
newpath
translate
0.5 setlinewidth
1 setlinejoin
0 setlinecap
0 0 m
-4 0 l
gsave
0.000 setgray
fill
grestore
stroke
grestore
} bind def
388.8 163.543 o
grestore
gsave
21.343750 160.785045 translate
0.000000 rotate
0.000000 0.000000 m /minus glyphshow
8.378906 0.000000 m /one glyphshow
14.741211 0.000000 m /period glyphshow
17.919922 0.000000 m /three glyphshow
24.282227 0.000000 m /one glyphshow
grestore
gsave
/o {
gsave
newpath
translate
0.5 setlinewidth
1 setlinejoin
0 setlinecap
0 0 m
4 0 l
gsave
0.000 setgray
fill
grestore
stroke
grestore
} bind def
54 195.429 o
grestore
gsave
/o {
gsave
newpath
translate
0.5 setlinewidth
1 setlinejoin
0 setlinecap
0 0 m
-4 0 l
gsave
0.000 setgray
fill
grestore
stroke
grestore
} bind def
388.8 195.429 o
grestore
gsave
21.078125 192.670759 translate
0.000000 rotate
0.000000 0.000000 m /minus glyphshow
8.378906 0.000000 m /one glyphshow
14.741211 0.000000 m /period glyphshow
17.919922 0.000000 m /three glyphshow
24.282227 0.000000 m /zero glyphshow
grestore
gsave
/o {
gsave
newpath
translate
0.5 setlinewidth
1 setlinejoin
0 setlinecap
0 0 m
4 0 l
gsave
0.000 setgray
fill
grestore
stroke
grestore
} bind def
54 227.314 o
grestore
gsave
/o {
gsave
newpath
translate
0.5 setlinewidth
1 setlinejoin
0 setlinecap
0 0 m
-4 0 l
gsave
0.000 setgray
fill
grestore
stroke
grestore
} bind def
388.8 227.314 o
grestore
gsave
21.125000 224.556473 translate
0.000000 rotate
0.000000 0.000000 m /minus glyphshow
8.378906 0.000000 m /one glyphshow
14.741211 0.000000 m /period glyphshow
17.919922 0.000000 m /two glyphshow
24.282227 0.000000 m /nine glyphshow
grestore
gsave
/o {
gsave
newpath
translate
0.5 setlinewidth
1 setlinejoin
0 setlinecap
0 0 m
4 0 l
gsave
0.000 setgray
fill
grestore
stroke
grestore
} bind def
54 259.2 o
grestore
gsave
/o {
gsave
newpath
translate
0.5 setlinewidth
1 setlinejoin
0 setlinecap
0 0 m
-4 0 l
gsave
0.000 setgray
fill
grestore
stroke
grestore
} bind def
388.8 259.2 o
grestore
gsave
21.093750 256.442188 translate
0.000000 rotate
0.000000 0.000000 m /minus glyphshow
8.378906 0.000000 m /one glyphshow
14.741211 0.000000 m /period glyphshow
17.919922 0.000000 m /two glyphshow
24.282227 0.000000 m /eight glyphshow
grestore
gsave
13.906250 92.451562 translate
90.000000 rotate
0.000000 0.000000 m /R glyphshow
6.448242 0.000000 m /e glyphshow
12.600586 0.000000 m /l glyphshow
15.378906 0.000000 m /e glyphshow
21.531250 0.000000 m /a glyphshow
27.659180 0.000000 m /s glyphshow
32.869141 0.000000 m /e glyphshow
39.021484 0.000000 m /space glyphshow
42.200195 0.000000 m /L glyphshow
47.646484 0.000000 m /o glyphshow
53.764648 0.000000 m /c glyphshow
59.262695 0.000000 m /a glyphshow
65.390625 0.000000 m /t glyphshow
69.311523 0.000000 m /i glyphshow
72.089844 0.000000 m /o glyphshow
78.208008 0.000000 m /n glyphshow
84.545898 0.000000 m /space glyphshow
87.724609 0.000000 m /parenleft glyphshow
91.625977 0.000000 m /k glyphshow
97.416992 0.000000 m /m glyphshow
107.158203 0.000000 m /parenright glyphshow
grestore
/BitstreamVeraSans-Roman findfont
12.000 scalefont
setfont
gsave
144.196875 264.200000 translate
0.000000 rotate
0.000000 0.000000 m /P glyphshow
6.861328 0.000000 m /o glyphshow
14.203125 0.000000 m /s glyphshow
20.455078 0.000000 m /t glyphshow
25.160156 0.000000 m /e glyphshow
32.542969 0.000000 m /r glyphshow
37.476562 0.000000 m /i glyphshow
40.810547 0.000000 m /o glyphshow
48.152344 0.000000 m /r glyphshow
53.085938 0.000000 m /space glyphshow
56.900391 0.000000 m /j glyphshow
60.234375 0.000000 m /o glyphshow
67.576172 0.000000 m /i glyphshow
70.910156 0.000000 m /n glyphshow
78.515625 0.000000 m /t glyphshow
83.220703 0.000000 m /space glyphshow
87.035156 0.000000 m /d glyphshow
94.652344 0.000000 m /i glyphshow
97.986328 0.000000 m /s glyphshow
104.238281 0.000000 m /t glyphshow
108.943359 0.000000 m /r glyphshow
113.876953 0.000000 m /i glyphshow
117.210938 0.000000 m /b glyphshow
124.828125 0.000000 m /u glyphshow
132.433594 0.000000 m /t glyphshow
137.138672 0.000000 m /i glyphshow
140.472656 0.000000 m /o glyphshow
147.814453 0.000000 m /n glyphshow
grestore

end
showpage
